<?xml version="1.0" encoding="UTF-8" standalone="no"?>
<!-- Created with Inkscape (http://www.inkscape.org/) -->

<svg
   xmlns:osb="http://www.openswatchbook.org/uri/2009/osb"
   xmlns:dc="http://purl.org/dc/elements/1.1/"
   xmlns:cc="http://creativecommons.org/ns#"
   xmlns:rdf="http://www.w3.org/1999/02/22-rdf-syntax-ns#"
   xmlns:svg="http://www.w3.org/2000/svg"
   xmlns="http://www.w3.org/2000/svg"
   xmlns:xlink="http://www.w3.org/1999/xlink"
   xmlns:sodipodi="http://sodipodi.sourceforge.net/DTD/sodipodi-0.dtd"
   xmlns:inkscape="http://www.inkscape.org/namespaces/inkscape"
   width="246"
   height="64"
   viewBox="0 0 65.087494 16.933334"
   version="1.1"
   id="HeaderLogo"
   sodipodi:docname="logo_246x64_alt_2.svg"
   inkscape:version="0.92.4 (unknown)"
   inkscape:export-filename="/home/kordax/Projects/kordasoft/src/components/header/logo/logo_246x64_alt_2.svg.png"
   inkscape:export-xdpi="96"
   inkscape:export-ydpi="96">
  <defs
     id="defs14908">
    <linearGradient
       id="linearGradient13426"
       inkscape:collect="always">
      <stop
         id="stop13422"
         offset="0"
         style="stop-color:#ffd016;stop-opacity:1" />
      <stop
         id="stop13424"
         offset="1"
         style="stop-color:#f74c00;stop-opacity:1" />
    </linearGradient>
    <linearGradient
       inkscape:collect="always"
       id="linearGradient13333">
      <stop
         style="stop-color:#ffd016;stop-opacity:1"
         offset="0"
         id="stop13329" />
      <stop
         style="stop-color:#f77e00;stop-opacity:1"
         offset="1"
         id="stop13331" />
    </linearGradient>
    <linearGradient
       id="linearGradient24267"
       osb:paint="solid">
      <stop
         style="stop-color:#ffffff;stop-opacity:1;"
         offset="0"
         id="stop24265" />
    </linearGradient>
    <linearGradient
       inkscape:collect="always"
       id="linearGradient22793">
      <stop
         style="stop-color:#ff6600;stop-opacity:1;"
         offset="0"
         id="stop22789" />
      <stop
         style="stop-color:#ffffff;stop-opacity:0.75490195"
         offset="1"
         id="stop22791" />
    </linearGradient>
    <linearGradient
       inkscape:collect="always"
       xlink:href="#linearGradient22793"
       id="linearGradient22795"
       x1="1.2294315"
       y1="288.5333"
       x2="63.858068"
       y2="288.5333"
       gradientUnits="userSpaceOnUse" />
    <linearGradient
       inkscape:collect="always"
       xlink:href="#linearGradient24267"
       id="linearGradient24269"
       x1="1.3088065"
       y1="288.5333"
       x2="63.778693"
       y2="288.5333"
       gradientUnits="userSpaceOnUse" />
    <linearGradient
       gradientTransform="translate(0.02097244,8.3871384)"
       inkscape:collect="always"
       xlink:href="#linearGradient12262"
       id="linearGradient12264"
       x1="231.06824"
       y1="204.48508"
       x2="231.06824"
       y2="151.14809"
       gradientUnits="userSpaceOnUse" />
    <linearGradient
       inkscape:collect="always"
       id="linearGradient12262">
      <stop
         style="stop-color:#e13400;stop-opacity:1"
         offset="0"
         id="stop12258" />
      <stop
         style="stop-color:#ff8200;stop-opacity:1"
         offset="1"
         id="stop12260" />
    </linearGradient>
    <radialGradient
       inkscape:collect="always"
       xlink:href="#linearGradient13333"
       id="radialGradient13337"
       cx="-4.5602856"
       cy="299.95389"
       fx="-4.5602856"
       fy="299.95389"
       r="3.2573473"
       gradientTransform="matrix(1,0,0,0.95585964,6.827195,15.815034)"
       gradientUnits="userSpaceOnUse" />
    <radialGradient
       inkscape:collect="always"
       xlink:href="#linearGradient13426"
       id="radialGradient13358"
       gradientUnits="userSpaceOnUse"
       gradientTransform="matrix(1,0,0,0.95585964,19.836329,-282.1693)"
       cx="-4.5602856"
       cy="299.95389"
       fx="-4.5602856"
       fy="299.95389"
       r="3.2573473" />
  </defs>
  <sodipodi:namedview
     id="base"
     pagecolor="#ffffff"
     bordercolor="#666666"
     borderopacity="1.0"
     inkscape:pageopacity="0.0"
     inkscape:pageshadow="2"
     inkscape:zoom="11.313709"
     inkscape:cx="48.671984"
     inkscape:cy="16.170088"
     inkscape:document-units="mm"
     inkscape:current-layer="layer3"
     showgrid="false"
     inkscape:snap-bbox="false"
     inkscape:bbox-nodes="false"
     inkscape:bbox-paths="false"
     inkscape:snap-bbox-edge-midpoints="false"
     inkscape:snap-bbox-midpoints="false"
     inkscape:object-paths="false"
     inkscape:snap-intersection-paths="false"
     inkscape:snap-smooth-nodes="false"
     inkscape:snap-midpoints="false"
     inkscape:snap-object-midpoints="false"
     inkscape:snap-center="false"
     inkscape:window-width="1920"
     inkscape:window-height="1015"
     inkscape:window-x="0"
     inkscape:window-y="0"
     inkscape:window-maximized="1"
     inkscape:pagecheckerboard="true"
     units="px"
     inkscape:snap-text-baseline="true"
     inkscape:snap-page="true"
     inkscape:object-nodes="false"
     inkscape:snap-others="false"
     inkscape:snap-nodes="false" />
  <metadata
     id="metadata14911">
    <rdf:RDF>
      <cc:Work
         rdf:about="">
        <dc:format>image/svg+xml</dc:format>
        <dc:type
           rdf:resource="http://purl.org/dc/dcmitype/StillImage" />
        <dc:title></dc:title>
      </cc:Work>
    </rdf:RDF>
  </metadata>
  <g
     inkscape:label="Layer 1"
     inkscape:groupmode="layer"
     id="layer1"
     transform="translate(0,-280.06665)">
    <rect
       style="opacity:0.95999995;fill:none;fill-opacity:1;fill-rule:nonzero;stroke:#2d2d2d;stroke-width:0.0564166;stroke-miterlimit:4;stroke-dasharray:none;stroke-opacity:1;paint-order:normal"
       id="rect15540"
       width="4.6316322e-07"
       height="4.6316322e-07"
       x="14.574126"
       y="295.24832" />
  </g>
  <g
     inkscape:groupmode="layer"
     id="layer5"
     inkscape:label="Orange Leaves" />
  <g
     inkscape:groupmode="layer"
     id="layer4"
     inkscape:label="Orange" />
  <g
     inkscape:groupmode="layer"
     id="layer3"
     inkscape:label="Layer 2">
    <text
       xml:space="preserve"
       style="font-style:normal;font-weight:normal;font-size:8.81944466px;line-height:1.25;font-family:sans-serif;letter-spacing:0px;word-spacing:0px;fill:#ffffff;fill-opacity:1;stroke:none;stroke-width:0.26458332;stroke-miterlimit:4;stroke-dasharray:none;stroke-opacity:1"
       x="0.67380649"
       y="293.33813"
       id="text14868"
       transform="translate(0,-280.06664)"><tspan
         sodipodi:role="line"
         id="tspan14866"
         x="0.67380649"
         y="293.33813"
         style="font-style:normal;font-variant:normal;font-weight:bold;font-stretch:normal;font-size:14.11111069px;font-family:'Ubuntu';-inkscape-font-specification:'Ubuntu Bold';fill:#ffffff;fill-opacity:1;stroke:none;stroke-width:0.26458332;stroke-miterlimit:4;stroke-dasharray:none;stroke-opacity:1">K rdasoft</tspan><tspan
         sodipodi:role="line"
         x="0.67380649"
         y="305.61884"
         style="font-style:normal;font-variant:normal;font-weight:bold;font-stretch:normal;font-size:11.99444485px;font-family:sans-serif;-inkscape-font-specification:'sans-serif Bold';fill:#ffffff;fill-opacity:1;stroke:none;stroke-width:0.26458332;stroke-miterlimit:4;stroke-dasharray:none;stroke-opacity:1"
         id="tspan14870" /></text>
    <g
       id="g13437"
       transform="translate(-0.41057425,-0.31419271)">
      <path
         inkscape:connector-curvature="0"
         id="path13353"
         d="m 12.754643,7.8748714 c 0,0 0.665884,-0.6821715 0.810458,-1.1022681 0.144574,-0.4200974 0.190698,-0.2812794 0.190698,-0.2812794 0,0 0.223494,0.03753 0.205493,0.097412 -0.01801,0.05991 0.204238,0.1603984 0.204238,0.1603984 0,0 -0.106257,0.558551 -0.892698,1.3333784"
         style="fill:#274100;fill-opacity:1;stroke:none;stroke-width:0.26458332px;stroke-linecap:butt;stroke-linejoin:miter;stroke-opacity:1" />
      <ellipse
         transform="rotate(24.329792)"
         ry="3.1135669"
         rx="3.2573473"
         cy="4.544497"
         cx="15.276044"
         id="path13325"
         style="opacity:1;fill:url(#radialGradient13358);fill-opacity:1;stroke:none;stroke-width:0.26458332;stroke-miterlimit:4;stroke-dasharray:none;stroke-opacity:1" />
      <path
         sodipodi:nodetypes="ccccc"
         inkscape:connector-curvature="0"
         id="path13360"
         d="m 13.565101,6.7726033 c 0,0 -0.816361,-0.4973982 -0.920867,-0.4933183 l -0.104505,0.00408 0.214335,0.1004223 c -0.181334,0.00529 0.723066,0.5867196 0.665179,0.6743617"
         style="fill:#008000;fill-opacity:1;stroke:none;stroke-width:0.26458332px;stroke-linecap:butt;stroke-linejoin:miter;stroke-opacity:1" />
      <path
         inkscape:connector-curvature="0"
         id="path13362"
         d="m 13.00471,6.4463061 c 0,0 -0.984826,-2.9071029 -5.543862,-1.0121297"
         style="fill:#008000;fill-opacity:1;stroke:none;stroke-width:0.26458332px;stroke-linecap:butt;stroke-linejoin:miter;stroke-opacity:1" />
      <path
         sodipodi:nodetypes="cc"
         inkscape:connector-curvature="0"
         id="path13364"
         d="m 7.460848,5.4341764 c 0,0 3.38043,3.0769935 5.537493,1.2134008"
         style="fill:#00a500;fill-opacity:1;stroke:none;stroke-width:0.26458332px;stroke-linecap:butt;stroke-linejoin:miter;stroke-opacity:1" />
      <path
         inkscape:connector-curvature="0"
         id="path13366"
         d="m 8.8472501,5.6883167 c 0.6525035,0.118743 1.7351439,0.3162049 2.4058669,0.4388041 0.670723,0.1225989 1.225401,0.2238305 1.232618,0.2249588 0.01152,0.0018 0.0087,0.00959 -0.02276,0.063752 -0.01974,0.033935 -0.03503,0.06398 -0.03398,0.066767 10e-4,0.0028 0.02233,0.017167 0.04728,0.031957 0.04314,0.025566 -0.01654,0.013341 -1.213596,-0.2486177 C 10.570248,6.1144096 9.9200647,5.9722323 9.81783,5.9499885 8.8179079,5.732431 7.6805525,5.4822046 7.6717801,5.4778419 c -0.006,-0.00298 0.522966,0.091733 1.1754697,0.2104761 z"
         style="opacity:1;fill:#00a500;fill-opacity:1;stroke:none;stroke-width:0.00826823;stroke-miterlimit:4;stroke-dasharray:none;stroke-opacity:1" />
      <path
         inkscape:connector-curvature="0"
         id="path13368"
         d="m 12.447306,6.5200147 c 0.04507,0.00662 0.04582,0.00468 0.0075,-0.019288 -0.01179,-0.00736 -0.02263,-0.015182 -0.0241,-0.017367 -0.0023,-0.00338 0.002,-0.012428 0.0288,-0.06132 0.01731,-0.03154 0.03221,-0.059818 0.0331,-0.06284 0.0014,-0.00479 0.0062,-0.00468 0.03698,9.004e-4 l 0.03537,0.00639 0.005,0.016493 c 0.0028,0.00907 0.007,0.023741 0.0095,0.032599 l 0.0045,0.016107 -0.0077,0.00126 c -0.01467,0.00239 -0.01396,0.015099 0.0018,0.031988 0.01742,0.018682 0.106958,0.08317 0.15719,0.1132117 0.008,0.00477 0.01416,0.00949 0.01371,0.010481 -8.39e-4,0.00186 -0.320358,-0.067406 -0.327237,-0.070948 -0.0021,-0.0011 0.0094,-5.57e-5 0.02565,0.00233 z"
         style="opacity:1;fill:#00a500;fill-opacity:1;stroke:none;stroke-width:0.00292326;stroke-miterlimit:4;stroke-dasharray:none;stroke-opacity:1" />
      <path
         inkscape:connector-curvature="0"
         id="path13370"
         d="m 12.692531,6.5780957 c 0.0035,5.614e-4 0.01742,0.00328 0.03096,0.00604 0.01354,0.00276 0.0242,0.00402 0.02369,0.0028 -5.09e-4,-0.00122 -0.01087,-0.00845 -0.02301,-0.016085 -0.06146,-0.038604 -0.135607,-0.093626 -0.149874,-0.1112103 -0.01161,-0.014309 -0.01013,-0.025574 0.0035,-0.026485 0.0025,-1.583e-4 0.005,-0.00103 0.0054,-0.00192 4.03e-4,-8.92e-4 -0.0034,-0.015427 -0.0084,-0.032312 -0.0052,-0.017414 -0.008,-0.030839 -0.0066,-0.031019 0.0014,-1.637e-4 0.03784,0.00613 0.08104,0.014009 l 0.07853,0.014325 0.0047,0.012463 c 0.0082,0.021779 0.04318,0.059797 0.105957,0.1152226 0.02757,0.024338 0.123995,0.1045817 0.134493,0.11192 0.0032,0.00228 0.006,0.00486 0.0061,0.00573 2.15e-4,0.00164 -0.285171,-0.060353 -0.290081,-0.063016 -0.0015,-8.155e-4 1.21e-4,-0.00102 0.0036,-4.584e-4 z"
         style="opacity:1;fill:#00a500;fill-opacity:1;stroke:none;stroke-width:0.00206706;stroke-miterlimit:4;stroke-dasharray:none;stroke-opacity:1" />
      <path
         inkscape:connector-curvature="0"
         id="path13372"
         d="m 12.716849,7.3878708 c 0,0 0.144409,0.3814445 0.271143,0.4523572 0,0 0.900657,0.2361145 0.905388,0.079943"
         style="fill:#ff7704;fill-opacity:1;stroke:none;stroke-width:0.26458332px;stroke-linecap:butt;stroke-linejoin:miter;stroke-opacity:1" />
    </g>
  </g>
</svg>
