<?xml version="1.0" encoding="UTF-8" standalone="no"?>
<!-- Created with Inkscape (http://www.inkscape.org/) -->

<svg
   xmlns:dc="http://purl.org/dc/elements/1.1/"
   xmlns:cc="http://creativecommons.org/ns#"
   xmlns:rdf="http://www.w3.org/1999/02/22-rdf-syntax-ns#"
   xmlns:svg="http://www.w3.org/2000/svg"
   xmlns="http://www.w3.org/2000/svg"
   xmlns:sodipodi="http://sodipodi.sourceforge.net/DTD/sodipodi-0.dtd"
   xmlns:inkscape="http://www.inkscape.org/namespaces/inkscape"
   width="246"
   height="64"
   viewBox="0 0 65.087494 16.933334"
   version="1.1"
   id="svg14914"
   sodipodi:docname="logo_banner_58x58.svg"
   inkscape:version="0.92.4 (unknown)">
  <defs
     id="defs14908" />
  <sodipodi:namedview
     id="base"
     pagecolor="#ffffff"
     bordercolor="#666666"
     borderopacity="1.0"
     inkscape:pageopacity="0.0"
     inkscape:pageshadow="2"
     inkscape:zoom="11.2"
     inkscape:cx="24.428434"
     inkscape:cy="27.910528"
     inkscape:document-units="mm"
     inkscape:current-layer="layer1"
     showgrid="false"
     inkscape:snap-bbox="true"
     inkscape:bbox-nodes="true"
     inkscape:bbox-paths="true"
     inkscape:snap-bbox-edge-midpoints="true"
     inkscape:snap-bbox-midpoints="true"
     inkscape:object-paths="true"
     inkscape:snap-intersection-paths="true"
     inkscape:snap-smooth-nodes="true"
     inkscape:snap-midpoints="true"
     inkscape:snap-object-midpoints="true"
     inkscape:snap-center="true"
     inkscape:window-width="1920"
     inkscape:window-height="1015"
     inkscape:window-x="0"
     inkscape:window-y="0"
     inkscape:window-maximized="1"
     inkscape:pagecheckerboard="true"
     units="px"
     inkscape:snap-text-baseline="true"
     inkscape:snap-page="true" />
  <metadata
     id="metadata14911">
    <rdf:RDF>
      <cc:Work
         rdf:about="">
        <dc:format>image/svg+xml</dc:format>
        <dc:type
           rdf:resource="http://purl.org/dc/dcmitype/StillImage" />
        <dc:title></dc:title>
      </cc:Work>
    </rdf:RDF>
  </metadata>
  <g
     inkscape:label="Layer 1"
     inkscape:groupmode="layer"
     id="layer1"
     transform="translate(0,-280.06665)">
    <rect
       style="opacity:0.95999995;fill:none;fill-opacity:1;fill-rule:nonzero;stroke:#2d2d2d;stroke-width:0.0564166;stroke-miterlimit:4;stroke-dasharray:none;stroke-opacity:1;paint-order:normal"
       id="rect15540"
       width="4.6316322e-07"
       height="4.6316322e-07"
       x="14.574126"
       y="295.24832" />
    <flowRoot
       xml:space="preserve"
       id="flowRoot15686"
       style="font-style:normal;font-weight:normal;font-size:40px;line-height:1.25;font-family:sans-serif;letter-spacing:0px;word-spacing:0px;opacity:1;fill:#ffffff;fill-opacity:1;stroke:none"
       transform="matrix(0.26458333,0,0,0.26458333,-178.29858,172.64079)"><flowRegion
         id="flowRegion15688"
         style="fill:#ffffff;fill-opacity:1"><rect
           id="rect15690"
           width="481.80792"
           height="56.561146"
           x="942.84283"
           y="284.78244"
           style="fill:#ffffff;fill-opacity:1" /></flowRegion><flowPara
         id="flowPara15692"
         style="fill:#ffffff;fill-opacity:1">IT Consulting Services</flowPara><flowPara
         style="fill:#ffffff;fill-opacity:1"
         id="flowPara15694"> servicess</flowPara></flowRoot>    <text
       xml:space="preserve"
       style="font-style:normal;font-weight:normal;font-size:8.81944466px;line-height:1.25;font-family:sans-serif;letter-spacing:0px;word-spacing:0px;fill:#ffffff;fill-opacity:1;stroke:none;stroke-width:0.17323349;stroke-opacity:1"
       x="-1.1010525"
       y="293.32266"
       id="text14868"><tspan
         sodipodi:role="line"
         id="tspan14866"
         x="-1.1010525"
         y="293.32266"
         style="font-style:normal;font-variant:normal;font-weight:bold;font-stretch:normal;font-size:11.99444485px;font-family:sans-serif;-inkscape-font-specification:'sans-serif Bold';fill:#ffffff;fill-opacity:1;stroke:none;stroke-width:0.17323349;stroke-opacity:1">Kordasoft</tspan><tspan
         sodipodi:role="line"
         x="-1.1010525"
         y="305.50659"
         style="font-style:normal;font-variant:normal;font-weight:bold;font-stretch:normal;font-size:11.99444485px;font-family:sans-serif;-inkscape-font-specification:'sans-serif Bold';fill:#ffffff;fill-opacity:1;stroke:none;stroke-width:0.17323349;stroke-opacity:1"
         id="tspan14870" /></text>
  </g>
</svg>
