<?xml version="1.0" encoding="UTF-8" standalone="no"?>
<!-- Created with Inkscape (http://www.inkscape.org/) -->

<svg
   xmlns:osb="http://www.openswatchbook.org/uri/2009/osb"
   xmlns:dc="http://purl.org/dc/elements/1.1/"
   xmlns:cc="http://creativecommons.org/ns#"
   xmlns:rdf="http://www.w3.org/1999/02/22-rdf-syntax-ns#"
   xmlns:svg="http://www.w3.org/2000/svg"
   xmlns="http://www.w3.org/2000/svg"
   xmlns:xlink="http://www.w3.org/1999/xlink"
   xmlns:sodipodi="http://sodipodi.sourceforge.net/DTD/sodipodi-0.dtd"
   xmlns:inkscape="http://www.inkscape.org/namespaces/inkscape"
   width="444"
   height="64"
   viewBox="0 0 117.47499 16.933334"
   version="1.1"
   id="HeaderLogo"
   sodipodi:docname="logo_444x64.svg"
   inkscape:version="0.92.4 (unknown)"
   inkscape:export-filename="/home/kordax/Projects/kordasoft/src/components/header/logo/logo_444x64.png"
   inkscape:export-xdpi="96"
   inkscape:export-ydpi="96">
  <defs
     id="defs14908">
    <linearGradient
       inkscape:collect="always"
       id="linearGradient13333">
      <stop
         style="stop-color:#ffd016;stop-opacity:1"
         offset="0"
         id="stop13329" />
      <stop
         style="stop-color:#f77e00;stop-opacity:1"
         offset="1"
         id="stop13331" />
    </linearGradient>
    <linearGradient
       id="linearGradient24267"
       osb:paint="solid">
      <stop
         style="stop-color:#ffffff;stop-opacity:1;"
         offset="0"
         id="stop24265" />
    </linearGradient>
    <linearGradient
       inkscape:collect="always"
       id="linearGradient22793">
      <stop
         style="stop-color:#ff6600;stop-opacity:1;"
         offset="0"
         id="stop22789" />
      <stop
         style="stop-color:#ffffff;stop-opacity:0.75490195"
         offset="1"
         id="stop22791" />
    </linearGradient>
    <linearGradient
       inkscape:collect="always"
       xlink:href="#linearGradient22793"
       id="linearGradient22795"
       x1="1.2294315"
       y1="288.53329"
       x2="63.858067"
       y2="288.53329"
       gradientUnits="userSpaceOnUse" />
    <linearGradient
       inkscape:collect="always"
       xlink:href="#linearGradient24267"
       id="linearGradient24269"
       x1="1.3088065"
       y1="288.53329"
       x2="63.778694"
       y2="288.53329"
       gradientUnits="userSpaceOnUse" />
    <linearGradient
       gradientTransform="translate(0.02097244,8.3871384)"
       inkscape:collect="always"
       xlink:href="#linearGradient12262"
       id="linearGradient12264"
       x1="231.06824"
       y1="204.48508"
       x2="231.06824"
       y2="151.14809"
       gradientUnits="userSpaceOnUse" />
    <linearGradient
       inkscape:collect="always"
       id="linearGradient12262">
      <stop
         style="stop-color:#e13400;stop-opacity:1"
         offset="0"
         id="stop12258" />
      <stop
         style="stop-color:#ff8200;stop-opacity:1"
         offset="1"
         id="stop12260" />
    </linearGradient>
    <radialGradient
       inkscape:collect="always"
       xlink:href="#linearGradient13333"
       id="radialGradient13337"
       cx="-4.5602856"
       cy="299.95389"
       fx="-4.5602856"
       fy="299.95389"
       r="3.2573473"
       gradientTransform="matrix(1,0,0,0.95585964,6.827195,15.815034)"
       gradientUnits="userSpaceOnUse" />
  </defs>
  <sodipodi:namedview
     id="base"
     pagecolor="#ffffff"
     bordercolor="#666666"
     borderopacity="1.0"
     inkscape:pageopacity="0.0"
     inkscape:pageshadow="2"
     inkscape:zoom="2.0000001"
     inkscape:cx="234.11221"
     inkscape:cy="11.222098"
     inkscape:document-units="mm"
     inkscape:current-layer="g12656"
     showgrid="false"
     inkscape:snap-bbox="true"
     inkscape:bbox-nodes="true"
     inkscape:bbox-paths="true"
     inkscape:snap-bbox-edge-midpoints="true"
     inkscape:snap-bbox-midpoints="true"
     inkscape:object-paths="true"
     inkscape:snap-intersection-paths="true"
     inkscape:snap-smooth-nodes="true"
     inkscape:snap-midpoints="true"
     inkscape:snap-object-midpoints="true"
     inkscape:snap-center="true"
     inkscape:window-width="1920"
     inkscape:window-height="1015"
     inkscape:window-x="0"
     inkscape:window-y="0"
     inkscape:window-maximized="1"
     inkscape:pagecheckerboard="true"
     units="px"
     inkscape:snap-text-baseline="true"
     inkscape:snap-page="true"
     inkscape:object-nodes="true"
     inkscape:snap-others="true"
     inkscape:snap-nodes="true" />
  <metadata
     id="metadata14911">
    <rdf:RDF>
      <cc:Work
         rdf:about="">
        <dc:format>image/svg+xml</dc:format>
        <dc:type
           rdf:resource="http://purl.org/dc/dcmitype/StillImage" />
        <dc:title></dc:title>
      </cc:Work>
    </rdf:RDF>
  </metadata>
  <g
     inkscape:label="Layer 1"
     inkscape:groupmode="layer"
     id="layer1"
     transform="translate(0,-280.06665)">
    <rect
       style="opacity:0.95999995;fill:none;fill-opacity:1;fill-rule:nonzero;stroke:#2d2d2d;stroke-width:0.0564166;stroke-miterlimit:4;stroke-dasharray:none;stroke-opacity:1;paint-order:normal"
       id="rect15540"
       width="4.6316322e-07"
       height="4.6316322e-07"
       x="14.574126"
       y="295.24832" />
  </g>
  <g
     inkscape:groupmode="layer"
     id="layer5"
     inkscape:label="Orange Leaves" />
  <g
     inkscape:groupmode="layer"
     id="layer4"
     inkscape:label="Orange" />
  <g
     inkscape:groupmode="layer"
     id="layer3"
     inkscape:label="Layer 2">
    <g
       id="g2881">
      <g
         id="g12038"
         transform="matrix(0.42572512,0,0,0.42572512,167.54367,-5.2660169)">
        <g
           id="g11208">
          <g
             id="g11248"
             transform="translate(106.88143,-141.4975)">
            <g
               id="g12656"
               transform="matrix(0.9348378,0,0,0.9348378,-22.646742,11.322236)">
              <g
                 id="g12696"
                 transform="matrix(0.97319787,0,0,0.97319787,-24.069422,4.6569949)">
                <g
                   transform="matrix(3.8387169,0,0,3.8387169,-499.88286,143.92352)"
                   id="g53193-3">
                  <text
                     xml:space="preserve"
                     style="font-style:normal;font-weight:normal;font-size:8.81944466px;line-height:1.25;font-family:sans-serif;letter-spacing:0px;word-spacing:0px;fill:#ffffff;fill-opacity:1;stroke:none;stroke-width:0.26458332;stroke-miterlimit:4;stroke-dasharray:none;stroke-opacity:1"
                     x="44.893772"
                     y="12.742329"
                     id="text14868-6"><tspan
                       sodipodi:role="line"
                       id="tspan14866-7"
                       x="44.893772"
                       y="12.742329"
                       style="font-style:normal;font-variant:normal;font-weight:bold;font-stretch:normal;font-size:14.11111069px;font-family:Exodar;-inkscape-font-specification:'Exodar Bold';fill:#ffffff;fill-opacity:1;stroke:none;stroke-width:0.26458332;stroke-miterlimit:4;stroke-dasharray:none;stroke-opacity:1">soft</tspan><tspan
                       sodipodi:role="line"
                       x="44.893772"
                       y="23.766634"
                       style="font-style:normal;font-variant:normal;font-weight:bold;font-stretch:normal;font-size:11.99444485px;font-family:Exodar;-inkscape-font-specification:'Exodar Bold';fill:#ffffff;fill-opacity:1;stroke:none;stroke-width:0.26458332;stroke-miterlimit:4;stroke-dasharray:none;stroke-opacity:1"
                       id="tspan14870-5" /></text>
                  <text
                     xml:space="preserve"
                     style="font-style:normal;font-weight:normal;font-size:10.58333302px;line-height:1.25;font-family:sans-serif;letter-spacing:0px;word-spacing:0px;fill:#333333;fill-opacity:1;stroke:none;stroke-width:0.26458332"
                     x="-0.142629"
                     y="12.749384"
                     id="text53114-3"><tspan
                       sodipodi:role="line"
                       id="tspan53112-5"
                       x="-0.142629"
                       y="12.749384"
                       style="font-style:normal;font-variant:normal;font-weight:normal;font-stretch:normal;font-size:14.11111069px;font-family:Exodar;-inkscape-font-specification:Exodar;fill:#f74c00;fill-opacity:1;stroke-width:0.26458332"
                       dx="0 0 6.6600013">K rda</tspan></text>
                </g>
                <g
                   style="fill:#f74c00;fill-opacity:1"
                   transform="matrix(0.48217033,0,0,0.48217033,-471.77462,49.681149)"
                   id="g2946-8">
                  <g
                     style="fill:#f74c00;fill-opacity:1"
                     transform="translate(-0.03968944,0.01051104)"
                     id="g2613-2">
                    <path
                       style="opacity:1;fill:#f74c00;fill-opacity:1;stroke:none;stroke-width:1;stroke-miterlimit:4;stroke-dasharray:none;stroke-dashoffset:0;stroke-opacity:0.98492462"
                       d="m 52.18205,245.50447 c 0,0 6.011595,-6.15864 7.316808,-9.95127 1.305213,-3.79263 1.72162,-2.53938 1.72162,-2.53938 0,0 2.017702,0.33882 1.855189,0.87943 -0.162594,0.54087 1.843859,1.44808 1.843859,1.44808 0,0 -0.959287,5.04259 -8.05927,12.03773"
                       id="path13353-2"
                       inkscape:connector-curvature="0" />
                    <ellipse
                       style="opacity:1;fill:#f74c00;fill-opacity:1;stroke:none;stroke-width:2.3886559;stroke-miterlimit:4;stroke-dasharray:none;stroke-opacity:1"
                       id="path13325-0"
                       cx="152.39232"
                       cy="225.88992"
                       rx="29.407305"
                       ry="28.109255"
                       transform="rotate(24.329792)" />
                    <path
                       style="fill:#f74c00;fill-opacity:1;stroke:none;stroke-width:2.3886559px;stroke-linecap:butt;stroke-linejoin:miter;stroke-opacity:1"
                       d="m 59.498858,235.5532 c 0,0 -7.3701,-4.4905 -8.313579,-4.45367 l -0.94347,0.0368 1.935014,0.90661 c -1.637082,0.0478 6.527834,5.2969 6.00523,6.08813"
                       id="path13360-6"
                       inkscape:connector-curvature="0"
                       sodipodi:nodetypes="ccccc" />
                    <path
                       style="fill:#f74c00;fill-opacity:1;stroke:none;stroke-width:2.3886559px;stroke-linecap:butt;stroke-linejoin:miter;stroke-opacity:1"
                       d="m 54.439653,232.6074 c 0,0 -8.891001,-26.2453 -50.0499384,-9.1375"
                       id="path13362-3"
                       inkscape:connector-curvature="0" />
                    <path
                       style="fill:#f74c00;fill-opacity:1;stroke:none;stroke-width:2.3886559px;stroke-linecap:butt;stroke-linejoin:miter;stroke-opacity:1"
                       d="m 4.3897146,223.4699 c 0,0 30.5184934,27.77907 49.9924394,10.95457"
                       id="path13364-6"
                       inkscape:connector-curvature="0"
                       sodipodi:nodetypes="cc" />
                    <path
                       style="opacity:1;fill:#f74c00;fill-opacity:1;stroke:none;stroke-width:0.0746455;stroke-miterlimit:4;stroke-dasharray:none;stroke-opacity:1"
                       d="m 16.906141,225.76427 c 5.890796,1.07202 15.664864,2.8547 21.720145,3.96152 6.055282,1.10683 11.06291,2.02074 11.128065,2.03093 0.104003,0.0162 0.07854,0.0866 -0.205477,0.57555 -0.178212,0.30637 -0.31625,0.57761 -0.306771,0.60277 0.009,0.0253 0.201595,0.15499 0.426843,0.28851 0.389468,0.23081 -0.149323,0.12044 -10.956334,-2.24452 -6.251261,-1.36799 -12.12111,-2.65157 -13.044084,-2.85238 -9.027288,-1.96411 -19.2953231,-4.22315 -19.3745202,-4.26254 -0.054168,-0.0269 4.7213322,0.82816 10.6121302,1.90018 z"
                       id="path13366-1"
                       inkscape:connector-curvature="0" />
                    <path
                       style="opacity:1;fill:#f74c00;fill-opacity:1;stroke:none;stroke-width:0.02639117;stroke-miterlimit:4;stroke-dasharray:none;stroke-opacity:1"
                       d="m 49.407415,233.27284 c 0.406891,0.0598 0.413662,0.0422 0.06771,-0.17414 -0.10644,-0.0664 -0.204303,-0.13706 -0.217574,-0.15678 -0.02077,-0.0305 0.01806,-0.1122 0.260006,-0.5536 0.156275,-0.28474 0.290792,-0.54004 0.298827,-0.56732 0.01264,-0.0432 0.05597,-0.0422 0.333855,0.008 l 0.31932,0.0577 0.04514,0.1489 c 0.02528,0.0819 0.0632,0.21433 0.08577,0.2943 l 0.04063,0.14541 -0.06952,0.0114 c -0.132441,0.0216 -0.126031,0.13631 0.01625,0.28879 0.157268,0.16866 0.965616,0.75085 1.41911,1.02207 0.07222,0.0431 0.127837,0.0857 0.123774,0.0946 -0.0076,0.0168 -2.892189,-0.60854 -2.954293,-0.64051 -0.01896,-0.01 0.08486,-5.1e-4 0.231568,0.021 z"
                       id="path13368-0"
                       inkscape:connector-curvature="0" />
                    <path
                       style="opacity:1;fill:#f74c00;fill-opacity:1;stroke:none;stroke-width:0.0186614;stroke-miterlimit:4;stroke-dasharray:none;stroke-opacity:1"
                       d="m 51.621304,233.79719 c 0.0316,0.005 0.157267,0.0296 0.279506,0.0545 0.122239,0.0249 0.218478,0.0363 0.213873,0.0253 -0.0046,-0.011 -0.09813,-0.0763 -0.207734,-0.14522 -0.55486,-0.34851 -1.224258,-0.84525 -1.353061,-1.004 -0.104815,-0.12918 -0.09145,-0.23088 0.0316,-0.23911 0.02257,-0.001 0.04514,-0.009 0.04875,-0.0173 0.0036,-0.008 -0.0307,-0.13928 -0.07583,-0.29171 -0.04695,-0.15722 -0.07222,-0.27842 -0.05958,-0.28004 0.01264,-0.001 0.34162,0.0553 0.731629,0.12647 l 0.708968,0.12933 0.04243,0.11251 c 0.07403,0.19662 0.389828,0.53985 0.956578,1.04023 0.248902,0.21972 1.119426,0.94416 1.214202,1.01041 0.02889,0.0206 0.05417,0.0439 0.05507,0.0517 0.0019,0.0148 -2.574521,-0.54486 -2.618849,-0.5689 -0.01354,-0.007 0.0011,-0.009 0.0325,-0.004 z"
                       id="path13370-5"
                       inkscape:connector-curvature="0" />
                    <path
                       style="fill:#f74c00;fill-opacity:1;stroke:none;stroke-width:2.3886559px;stroke-linecap:butt;stroke-linejoin:miter;stroke-opacity:1"
                       d="m 51.840846,241.10783 c 0,0 1.303724,3.44368 2.447877,4.08388 0,0 8.131124,2.13164 8.173835,0.72173"
                       id="path13372-7"
                       inkscape:connector-curvature="0" />
                    <path
                       style="opacity:1;fill:#f74c00;fill-opacity:1;stroke:none;stroke-width:0.03156727;stroke-miterlimit:4;stroke-dasharray:none;stroke-dashoffset:0;stroke-opacity:1"
                       d="m 189.74908,60.031142 c -2.79528,-0.614285 -5.50139,-1.208479 -6.01356,-1.320431 -0.51218,-0.111953 -3.69416,-0.809067 -7.07107,-1.549145 -3.37691,-0.740076 -6.98505,-1.530734 -8.01809,-1.757017 -1.03304,-0.226282 -2.38254,-0.5222 -2.99889,-0.657595 -0.61635,-0.135395 -3.70553,-0.812451 -6.86484,-1.50457 -3.15932,-0.692119 -5.72337,-1.262392 -5.69789,-1.267274 0.0255,-0.0049 1.54497,0.31879 3.37666,0.719271 17.11052,3.741041 25.00527,5.436289 28.22113,6.059954 1.40728,0.272918 1.42633,0.277071 1.29426,0.282146 -0.27954,0.01074 0.0501,0.09327 2.90419,0.727074 1.67203,0.371308 4.10697,0.899714 5.50737,1.195153 0.58111,0.122596 0.70401,0.15712 0.61951,0.174021 -0.058,0.0116 -0.1214,0.01978 -0.14094,0.01819 -0.0195,-0.0016 -2.32256,-0.505491 -5.11784,-1.119777 z"
                       id="path60933-4"
                       inkscape:connector-curvature="0"
                       transform="matrix(0.26458333,0,0,0.26458333,0,217.62498)" />
                    <path
                       style="opacity:1;fill:#f74c00;fill-opacity:1;stroke:none;stroke-width:0.00558036;stroke-miterlimit:4;stroke-dasharray:none;stroke-dashoffset:0;stroke-opacity:1"
                       d="m 187.41352,58.766901 c -0.6684,-0.409751 -1.16956,-0.750906 -1.27444,-0.867558 -0.0296,-0.03287 -0.0323,-0.05033 -0.0167,-0.104729 0.053,-0.184612 0.34078,-0.764393 0.71634,-1.443381 0.14771,-0.26704 0.16295,-0.293753 0.16595,-0.290756 0.002,0.0015 -0.0537,0.106475 -0.12269,0.233249 -0.3475,0.638562 -0.53614,1.002198 -0.63338,1.221011 -0.0868,0.195203 -0.1122,0.301925 -0.0858,0.359933 0.0336,0.07377 0.35602,0.309841 0.84619,0.619464 0.29412,0.18579 0.50926,0.324622 0.52427,0.338312 0.0181,0.01648 -0.019,-0.0038 -0.1197,-0.06555 z"
                       id="path60935-2"
                       inkscape:connector-curvature="0"
                       transform="matrix(0.26458333,0,0,0.26458333,0,217.62498)" />
                    <path
                       style="opacity:1;fill:#f74c00;fill-opacity:1;stroke:none;stroke-width:0.01578363;stroke-miterlimit:4;stroke-dasharray:none;stroke-dashoffset:0;stroke-opacity:1"
                       d="m 188.25809,53.617122 c 10e-4,-0.09904 -0.0248,-0.14257 -0.10815,-0.179354 -0.026,-0.0115 -0.0367,-0.02132 -0.0237,-0.02184 0.013,-5.15e-4 0.25059,0.04002 0.52793,0.09008 0.50567,0.09127 0.63895,0.129254 0.23996,0.06839 -0.23492,-0.03584 -0.47645,-0.04236 -0.53757,-0.01451 -0.0217,0.0099 -0.0531,0.04681 -0.0696,0.08203 l -0.0301,0.06404 0.001,-0.08885 z"
                       id="path60937-0"
                       inkscape:connector-curvature="0"
                       transform="matrix(0.26458333,0,0,0.26458333,0,217.62498)" />
                    <path
                       style="opacity:1;fill:#f74c00;fill-opacity:1;stroke:none;stroke-width:0.01578363;stroke-miterlimit:4;stroke-dasharray:none;stroke-dashoffset:0;stroke-opacity:1"
                       d="m 190.83401,54.168705 c -0.0421,-0.140739 -0.0844,-0.261815 -0.094,-0.269056 -0.0216,-0.0164 -0.0516,-0.02135 0.7133,0.117908 0.34977,0.06368 0.62873,0.118194 0.6199,0.121137 -0.009,0.0029 -0.27828,-0.03884 -0.59879,-0.09286 -0.32051,-0.05401 -0.59458,-0.09366 -0.60905,-0.08811 -0.0304,0.01166 -0.0262,0.06168 0.0258,0.307731 0.0171,0.0811 0.0285,0.150083 0.0253,0.153296 -0.003,0.0032 -0.0403,-0.109308 -0.0825,-0.250048 z"
                       id="path60939-0"
                       inkscape:connector-curvature="0"
                       transform="matrix(0.26458333,0,0,0.26458333,0,217.62498)" />
                    <path
                       style="opacity:1;fill:#f74c00;fill-opacity:1;stroke:none;stroke-width:0.01578363;stroke-miterlimit:4;stroke-dasharray:none;stroke-dashoffset:0;stroke-opacity:1"
                       d="m 190.93131,56.925035 c -0.13801,-0.218751 -0.18339,-0.408183 -0.12897,-0.538427 0.0264,-0.06305 0.0817,-0.129923 0.10755,-0.129923 0.009,0 -0.003,0.01953 -0.0254,0.0434 -0.11521,0.120771 -0.0988,0.337712 0.0437,0.57689 0.0617,0.103578 0.0644,0.14518 0.003,0.04805 z"
                       id="path60941-3"
                       inkscape:connector-curvature="0"
                       transform="matrix(0.26458333,0,0,0.26458333,0,217.62498)" />
                    <path
                       style="opacity:1;fill:#f74c00;fill-opacity:1;stroke:#333333;stroke-width:0.01116071;stroke-miterlimit:4;stroke-dasharray:none;stroke-dashoffset:0;stroke-opacity:0.98492462"
                       d="m 92.909251,36.048335 c -7.67736,-1.40008 -8.903592,-1.623521 -14.179688,-2.583795 -2.651786,-0.482637 -4.826116,-0.881719 -4.831845,-0.886849 -0.0057,-0.0051 -0.0071,-0.01266 -0.003,-0.01673 0.0041,-0.0041 1.417522,0.250058 3.140997,0.564736 1.723475,0.314678 3.487665,0.636746 3.920421,0.715707 0.432757,0.07896 2.25586,0.411781 4.05134,0.7396 1.79548,0.32782 5.47433,0.999242 8.175223,1.49205 2.700893,0.492808 4.912493,0.897367 4.914667,0.899021 0.0022,0.0017 0.0022,0.0072 0,0.01234 -0.0022,0.0051 -2.336821,-0.416102 -5.188104,-0.936075 z"
                       id="path1766-3"
                       inkscape:connector-curvature="0"
                       transform="matrix(0.26458333,0,0,0.26458333,0,217.62498)" />
                    <path
                       style="opacity:1;fill:#f74c00;fill-opacity:1;stroke:#333333;stroke-width:0.01116071;stroke-miterlimit:4;stroke-dasharray:none;stroke-dashoffset:0;stroke-opacity:0.98492462"
                       d="m 83.581896,36.767847 c 0.01086,-0.0028 0.02593,-0.0026 0.03348,4.13e-4 0.0076,0.0031 -0.0013,0.0054 -0.01974,0.0051 -0.01842,-2.27e-4 -0.0246,-0.0027 -0.01374,-0.0056 z"
                       id="path1768-9"
                       inkscape:connector-curvature="0"
                       transform="matrix(0.26458333,0,0,0.26458333,0,217.62498)" />
                    <path
                       style="opacity:1;fill:#f74c00;fill-opacity:1;stroke:#333333;stroke-width:0.00390625;stroke-miterlimit:4;stroke-dasharray:none;stroke-dashoffset:0;stroke-opacity:0.98492462"
                       d="m 89.891953,38.1524 c -0.660264,-0.145 -1.431878,-0.314139 -4.714673,-1.03346 -0.84639,-0.18546 -1.536332,-0.337688 -1.533203,-0.338285 0.0031,-5.97e-4 0.174438,0.03576 0.380688,0.08078 0.20625,0.04503 1.762793,0.384416 3.458985,0.754196 1.696191,0.36978 3.08706,0.673234 3.09082,0.674342 0.0065,0.0019 0.01004,0.01357 0.0039,0.01288 -0.0016,-1.81e-4 -0.310547,-0.06789 -0.686523,-0.150454 z"
                       id="path1774-0"
                       inkscape:connector-curvature="0"
                       transform="matrix(0.26458333,0,0,0.26458333,0,217.62498)" />
                    <path
                       style="opacity:1;fill:#f74c00;fill-opacity:1;stroke:#333333;stroke-width:0.0078125;stroke-miterlimit:4;stroke-dasharray:none;stroke-dashoffset:0;stroke-opacity:0.98492462"
                       d="m 177.9211,57.440968 c 0,-0.0046 -0.008,-0.0059 -0.0195,-0.0031 -0.0125,0.0031 -0.0195,0.0016 -0.0195,-0.0043 0,-0.0056 -0.006,-0.0073 -0.0156,-0.0042 -0.01,0.003 -0.0156,0.0014 -0.0156,-0.0042 0,-0.0059 -0.007,-0.0074 -0.0195,-0.0043 -0.0119,0.003 -0.0195,0.0016 -0.0195,-0.0036 0,-0.0049 -0.007,-0.0064 -0.0156,-0.0035 -0.01,0.003 -0.0156,0.0014 -0.0156,-0.0042 0,-0.0059 -0.007,-0.0074 -0.0195,-0.0043 -0.0119,0.003 -0.0195,0.0016 -0.0195,-0.0036 0,-0.0049 -0.007,-0.0064 -0.0156,-0.0035 -0.01,0.003 -0.0156,0.0014 -0.0156,-0.0042 0,-0.0059 -0.007,-0.0074 -0.0195,-0.0043 -0.0114,0.0029 -0.0195,0.0015 -0.0195,-0.0032 0,-0.0047 -0.008,-0.0061 -0.0195,-0.0032 -0.0125,0.0031 -0.0195,0.0016 -0.0195,-0.0043 0,-0.0056 -0.006,-0.0073 -0.0156,-0.0042 -0.01,0.003 -0.0156,0.0014 -0.0156,-0.0042 0,-0.0059 -0.007,-0.0074 -0.0195,-0.0043 -0.0119,0.003 -0.0195,0.0016 -0.0195,-0.0036 0,-0.0049 -0.007,-0.0064 -0.0156,-0.0035 -0.01,0.003 -0.0156,0.0014 -0.0156,-0.0042 0,-0.0059 -0.007,-0.0074 -0.0195,-0.0043 -0.0119,0.003 -0.0195,0.0016 -0.0195,-0.0036 0,-0.0049 -0.007,-0.0064 -0.0156,-0.0035 -0.01,0.003 -0.0156,0.0014 -0.0156,-0.0042 0,-0.0059 -0.007,-0.0074 -0.0195,-0.0043 -0.0119,0.003 -0.0195,0.0016 -0.0195,-0.0036 0,-0.0048 -0.006,-0.0064 -0.015,-0.0037 -0.008,0.0026 -0.0173,9.49e-4 -0.0202,-0.0037 -0.003,-0.0046 -0.012,-0.0063 -0.0202,-0.0037 -0.008,0.0027 -0.015,0.0011 -0.015,-0.0037 0,-0.0052 -0.008,-0.0066 -0.0195,-0.0036 -0.0125,0.0031 -0.0195,0.0016 -0.0195,-0.0043 0,-0.0056 -0.006,-0.0073 -0.0156,-0.0042 -0.01,0.003 -0.0156,0.0014 -0.0156,-0.0042 0,-0.0059 -0.007,-0.0074 -0.0195,-0.0043 -0.0119,0.003 -0.0195,0.0016 -0.0195,-0.0036 0,-0.0049 -0.007,-0.0064 -0.0156,-0.0035 -0.01,0.003 -0.0156,0.0014 -0.0156,-0.0042 0,-0.0059 -0.007,-0.0074 -0.0195,-0.0043 -0.0119,0.003 -0.0195,0.0016 -0.0195,-0.0036 0,-0.0049 -0.007,-0.0064 -0.0156,-0.0035 -0.01,0.003 -0.0156,0.0014 -0.0156,-0.0042 0,-0.0059 -0.007,-0.0074 -0.0195,-0.0043 -0.0114,0.0029 -0.0195,0.0015 -0.0195,-0.0032 0,-0.0047 -0.008,-0.0061 -0.0195,-0.0032 -0.0125,0.0031 -0.0195,0.0016 -0.0195,-0.0043 0,-0.0056 -0.006,-0.0073 -0.0156,-0.0042 -0.01,0.003 -0.0156,0.0014 -0.0156,-0.0042 0,-0.0059 -0.007,-0.0074 -0.0195,-0.0043 -0.0119,0.003 -0.0195,0.0016 -0.0195,-0.0036 0,-0.0049 -0.007,-0.0064 -0.0156,-0.0035 -0.01,0.003 -0.0156,0.0014 -0.0156,-0.0042 0,-0.0059 -0.007,-0.0074 -0.0195,-0.0043 -0.0119,0.003 -0.0195,0.0016 -0.0195,-0.0036 0,-0.0049 -0.007,-0.0064 -0.0156,-0.0035 -0.01,0.003 -0.0156,0.0014 -0.0156,-0.0042 0,-0.0059 -0.007,-0.0074 -0.0195,-0.0043 -0.0118,0.003 -0.0195,0.0016 -0.0195,-0.0036 0,-0.0048 -0.006,-0.0064 -0.015,-0.0037 -0.008,0.0026 -0.0173,9.49e-4 -0.0202,-0.0037 -0.003,-0.0046 -0.012,-0.0063 -0.0202,-0.0037 -0.008,0.0027 -0.015,0.0011 -0.015,-0.0037 0,-0.0052 -0.008,-0.0066 -0.0195,-0.0036 -0.0125,0.0031 -0.0195,0.0016 -0.0195,-0.0043 0,-0.0056 -0.006,-0.0073 -0.0156,-0.0042 -0.01,0.003 -0.0156,0.0014 -0.0156,-0.0042 0,-0.0059 -0.007,-0.0074 -0.0195,-0.0043 -0.0119,0.003 -0.0195,0.0016 -0.0195,-0.0036 0,-0.0049 -0.007,-0.0064 -0.0156,-0.0035 -0.01,0.003 -0.0156,0.0014 -0.0156,-0.0042 0,-0.0059 -0.007,-0.0074 -0.0195,-0.0043 -0.0118,0.003 -0.0195,0.0016 -0.0195,-0.0036 0,-0.0048 -0.006,-0.0064 -0.015,-0.0037 -0.008,0.0026 -0.0173,9.49e-4 -0.0202,-0.0037 -0.003,-0.0046 -0.012,-0.0063 -0.0202,-0.0037 -0.008,0.0027 -0.015,0.0011 -0.015,-0.0037 0,-0.0052 -0.008,-0.0066 -0.0195,-0.0036 -0.0125,0.0031 -0.0195,0.0016 -0.0195,-0.0043 0,-0.0056 -0.006,-0.0073 -0.0156,-0.0042 -0.01,0.003 -0.0156,0.0014 -0.0156,-0.0042 0,-0.0059 -0.007,-0.0074 -0.0195,-0.0043 -0.0119,0.003 -0.0195,0.0016 -0.0195,-0.0036 0,-0.0049 -0.007,-0.0064 -0.0156,-0.0035 -0.01,0.003 -0.0156,0.0014 -0.0156,-0.0042 0,-0.0059 -0.007,-0.0074 -0.0195,-0.0043 -0.0118,0.003 -0.0195,0.0016 -0.0195,-0.0036 0,-0.0049 -0.007,-0.0064 -0.0156,-0.0035 -0.01,0.003 -0.0156,0.0014 -0.0156,-0.0042 0,-0.0059 -0.007,-0.0074 -0.0195,-0.0043 -0.0114,0.0029 -0.0195,0.0015 -0.0195,-0.0032 0,-0.0048 -0.008,-0.0061 -0.0195,-0.0032 -0.0125,0.0031 -0.0195,0.0016 -0.0195,-0.0043 0,-0.0056 -0.006,-0.0073 -0.0156,-0.0042 -0.01,0.003 -0.0156,0.0014 -0.0156,-0.0042 0,-0.0059 -0.007,-0.0074 -0.0195,-0.0043 -0.0119,0.003 -0.0195,0.0016 -0.0195,-0.0036 0,-0.0049 -0.007,-0.0064 -0.0156,-0.0035 -0.01,0.003 -0.0156,0.0014 -0.0156,-0.0042 0,-0.0059 -0.007,-0.0074 -0.0195,-0.0043 -0.0118,0.003 -0.0195,0.0016 -0.0195,-0.0036 0,-0.0049 -0.007,-0.0064 -0.0156,-0.0035 -0.01,0.003 -0.0156,0.0014 -0.0156,-0.0042 0,-0.0059 -0.007,-0.0074 -0.0195,-0.0043 -0.0119,0.003 -0.0195,0.0016 -0.0195,-0.0036 0,-0.0048 -0.006,-0.0064 -0.015,-0.0037 -0.008,0.0026 -0.0173,9.49e-4 -0.0202,-0.0037 -0.003,-0.0046 -0.0119,-0.0063 -0.0202,-0.0037 -0.008,0.0027 -0.015,0.0011 -0.015,-0.0037 0,-0.0052 -0.008,-0.0066 -0.0195,-0.0036 -0.0125,0.0031 -0.0195,0.0016 -0.0195,-0.0043 0,-0.0056 -0.006,-0.0073 -0.0156,-0.0042 -0.01,0.003 -0.0156,0.0014 -0.0156,-0.0042 0,-0.0059 -0.007,-0.0074 -0.0195,-0.0043 -0.0118,0.003 -0.0195,0.0016 -0.0195,-0.0036 0,-0.0049 -0.007,-0.0064 -0.0156,-0.0035 -0.01,0.003 -0.0156,0.0014 -0.0156,-0.0042 0,-0.0059 -0.007,-0.0074 -0.0195,-0.0043 -0.0119,0.003 -0.0195,0.0016 -0.0195,-0.0036 0,-0.0049 -0.007,-0.0064 -0.0156,-0.0035 -0.01,0.003 -0.0156,0.0014 -0.0156,-0.0042 0,-0.0059 -0.007,-0.0074 -0.0195,-0.0043 -0.0114,0.0029 -0.0195,0.0015 -0.0195,-0.0032 0,-0.0048 -0.008,-0.0061 -0.0195,-0.0032 -0.0125,0.0031 -0.0195,0.0016 -0.0195,-0.0043 0,-0.0056 -0.006,-0.0073 -0.0156,-0.0042 -0.01,0.003 -0.0156,0.0014 -0.0156,-0.0042 0,-0.0059 -0.007,-0.0074 -0.0195,-0.0043 -0.0118,0.003 -0.0195,0.0016 -0.0195,-0.0036 0,-0.0049 -0.007,-0.0064 -0.0156,-0.0035 -0.01,0.003 -0.0156,0.0014 -0.0156,-0.0042 0,-0.0059 -0.007,-0.0074 -0.0195,-0.0043 -0.0119,0.003 -0.0195,0.0016 -0.0195,-0.0036 0,-0.0049 -0.007,-0.0064 -0.0156,-0.0035 -0.01,0.003 -0.0156,0.0014 -0.0156,-0.0042 0,-0.0059 -0.007,-0.0074 -0.0195,-0.0043 -0.0119,0.003 -0.0195,0.0016 -0.0195,-0.0036 0,-0.0048 -0.006,-0.0064 -0.015,-0.0037 -0.008,0.0026 -0.0173,9.49e-4 -0.0202,-0.0037 -0.003,-0.0046 -0.012,-0.0063 -0.0202,-0.0037 -0.008,0.0027 -0.015,0.0011 -0.015,-0.0037 0,-0.0052 -0.008,-0.0066 -0.0195,-0.0036 -0.0125,0.0031 -0.0195,0.0016 -0.0195,-0.0043 0,-0.0056 -0.006,-0.0073 -0.0156,-0.0042 -0.01,0.003 -0.0156,0.0014 -0.0156,-0.0042 0,-0.0059 -0.007,-0.0074 -0.0195,-0.0043 -0.0119,0.003 -0.0195,0.0016 -0.0195,-0.0036 0,-0.0049 -0.007,-0.0064 -0.0156,-0.0035 -0.01,0.003 -0.0156,0.0014 -0.0156,-0.0042 0,-0.0059 -0.007,-0.0074 -0.0195,-0.0043 -0.0119,0.003 -0.0195,0.0016 -0.0195,-0.0036 0,-0.0049 -0.007,-0.0064 -0.0156,-0.0035 -0.01,0.003 -0.0156,0.0014 -0.0156,-0.0042 0,-0.0059 -0.007,-0.0074 -0.0195,-0.0043 -0.0114,0.0029 -0.0195,0.0015 -0.0195,-0.0032 0,-0.0048 -0.008,-0.0061 -0.0195,-0.0032 -0.0125,0.0031 -0.0195,0.0016 -0.0195,-0.0043 0,-0.0056 -0.006,-0.0073 -0.0156,-0.0042 -0.01,0.003 -0.0156,0.0014 -0.0156,-0.0042 0,-0.0059 -0.007,-0.0074 -0.0195,-0.0043 -0.0119,0.003 -0.0195,0.0016 -0.0195,-0.0036 0,-0.0049 -0.007,-0.0064 -0.0156,-0.0035 -0.01,0.003 -0.0156,0.0014 -0.0156,-0.0042 0,-0.0059 -0.007,-0.0074 -0.0195,-0.0043 -0.0119,0.003 -0.0195,0.0016 -0.0195,-0.0036 0,-0.0049 -0.007,-0.0064 -0.0156,-0.0035 -0.01,0.003 -0.0156,0.0014 -0.0156,-0.0042 0,-0.0059 -0.007,-0.0074 -0.0195,-0.0043 -0.0119,0.003 -0.0195,0.0016 -0.0195,-0.0036 0,-0.0048 -0.006,-0.0064 -0.015,-0.0037 -0.008,0.0026 -0.0173,9.49e-4 -0.0202,-0.0037 -0.003,-0.0046 -0.012,-0.0063 -0.0202,-0.0037 -0.008,0.0027 -0.015,0.0011 -0.015,-0.0037 0,-0.0052 -0.008,-0.0066 -0.0195,-0.0036 -0.0125,0.0031 -0.0195,0.0016 -0.0195,-0.0043 0,-0.0056 -0.006,-0.0073 -0.0156,-0.0042 -0.01,0.003 -0.0156,0.0014 -0.0156,-0.0042 0,-0.0059 -0.007,-0.0074 -0.0195,-0.0043 -0.0119,0.003 -0.0195,0.0016 -0.0195,-0.0036 0,-0.0049 -0.007,-0.0064 -0.0156,-0.0035 -0.01,0.003 -0.0156,0.0014 -0.0156,-0.0042 0,-0.0059 -0.007,-0.0074 -0.0195,-0.0043 -0.0119,0.003 -0.0195,0.0016 -0.0195,-0.0036 0,-0.0048 -0.006,-0.0064 -0.015,-0.0037 -0.008,0.0026 -0.0173,9.49e-4 -0.0202,-0.0037 -0.003,-0.0046 -0.012,-0.0063 -0.0202,-0.0037 -0.008,0.0027 -0.015,0.0011 -0.015,-0.0037 0,-0.0052 -0.008,-0.0066 -0.0195,-0.0036 -0.0125,0.0031 -0.0195,0.0016 -0.0195,-0.0043 0,-0.0056 -0.006,-0.0073 -0.0156,-0.0042 -0.01,0.003 -0.0156,0.0014 -0.0156,-0.0042 0,-0.0059 -0.007,-0.0074 -0.0195,-0.0043 -0.0119,0.003 -0.0195,0.0016 -0.0195,-0.0036 0,-0.0049 -0.007,-0.0064 -0.0156,-0.0035 -0.01,0.003 -0.0156,0.0014 -0.0156,-0.0042 0,-0.0059 -0.007,-0.0074 -0.0195,-0.0043 -0.0119,0.003 -0.0195,0.0016 -0.0195,-0.0036 0,-0.0049 -0.007,-0.0064 -0.0156,-0.0035 -0.01,0.003 -0.0156,0.0014 -0.0156,-0.0042 0,-0.0059 -0.007,-0.0074 -0.0195,-0.0043 -0.0114,0.0029 -0.0195,0.0015 -0.0195,-0.0032 0,-0.0047 -0.008,-0.0061 -0.0195,-0.0032 -0.0125,0.0031 -0.0195,0.0016 -0.0195,-0.0043 0,-0.0056 -0.006,-0.0073 -0.0156,-0.0042 -0.01,0.003 -0.0156,0.0014 -0.0156,-0.0042 0,-0.0059 -0.007,-0.0074 -0.0195,-0.0043 -0.0119,0.003 -0.0195,0.0016 -0.0195,-0.0036 0,-0.0049 -0.007,-0.0064 -0.0156,-0.0035 -0.01,0.003 -0.0156,0.0014 -0.0156,-0.0042 0,-0.0059 -0.007,-0.0074 -0.0195,-0.0043 -0.0119,0.003 -0.0195,0.0016 -0.0195,-0.0036 0,-0.0049 -0.007,-0.0064 -0.0156,-0.0035 -0.01,0.003 -0.0156,0.0014 -0.0156,-0.0042 0,-0.0059 -0.007,-0.0074 -0.0195,-0.0043 -0.0118,0.003 -0.0195,0.0016 -0.0195,-0.0036 0,-0.0048 -0.006,-0.0064 -0.015,-0.0037 -0.008,0.0026 -0.0173,9.49e-4 -0.0202,-0.0037 -0.003,-0.0046 -0.012,-0.0063 -0.0202,-0.0037 -0.008,0.0027 -0.015,0.0011 -0.015,-0.0037 0,-0.0052 -0.008,-0.0066 -0.0195,-0.0036 -0.0125,0.0031 -0.0195,0.0016 -0.0195,-0.0043 0,-0.0056 -0.006,-0.0073 -0.0156,-0.0042 -0.01,0.003 -0.0156,0.0014 -0.0156,-0.0042 0,-0.0059 -0.007,-0.0074 -0.0195,-0.0043 -0.0119,0.003 -0.0195,0.0016 -0.0195,-0.0036 0,-0.0049 -0.007,-0.0064 -0.0156,-0.0035 -0.01,0.003 -0.0156,0.0014 -0.0156,-0.0042 0,-0.0059 -0.007,-0.0074 -0.0195,-0.0043 -0.0118,0.003 -0.0195,0.0016 -0.0195,-0.0036 0,-0.0049 -0.007,-0.0064 -0.0156,-0.0035 -0.01,0.003 -0.0156,0.0014 -0.0156,-0.0042 0,-0.0059 -0.007,-0.0074 -0.0195,-0.0043 -0.0114,0.0029 -0.0195,0.0015 -0.0195,-0.0032 0,-0.0047 -0.008,-0.0061 -0.0195,-0.0032 -0.0125,0.0031 -0.0195,0.0016 -0.0195,-0.0043 0,-0.0056 -0.006,-0.0073 -0.0156,-0.0042 -0.01,0.003 -0.0156,0.0014 -0.0156,-0.0042 0,-0.0059 -0.007,-0.0074 -0.0195,-0.0043 -0.0119,0.003 -0.0195,0.0016 -0.0195,-0.0036 0,-0.0049 -0.007,-0.0064 -0.0156,-0.0035 -0.01,0.003 -0.0156,0.0014 -0.0156,-0.0042 0,-0.0059 -0.007,-0.0074 -0.0195,-0.0043 -0.0118,0.003 -0.0195,0.0016 -0.0195,-0.0036 0,-0.0049 -0.007,-0.0064 -0.0156,-0.0035 -0.01,0.003 -0.0156,0.0014 -0.0156,-0.0042 0,-0.0059 -0.007,-0.0074 -0.0195,-0.0043 -0.0119,0.003 -0.0195,0.0016 -0.0195,-0.0036 0,-0.0048 -0.006,-0.0064 -0.015,-0.0037 -0.008,0.0026 -0.0173,9.49e-4 -0.0202,-0.0037 -0.003,-0.0046 -0.0119,-0.0063 -0.0202,-0.0037 -0.008,0.0027 -0.015,0.0011 -0.015,-0.0037 0,-0.0052 -0.008,-0.0066 -0.0195,-0.0036 -0.0125,0.0031 -0.0195,0.0016 -0.0195,-0.0043 0,-0.0056 -0.006,-0.0073 -0.0156,-0.0042 -0.01,0.003 -0.0156,0.0014 -0.0156,-0.0042 0,-0.0059 -0.007,-0.0074 -0.0195,-0.0043 -0.0118,0.003 -0.0195,0.0016 -0.0195,-0.0036 0,-0.0049 -0.007,-0.0064 -0.0156,-0.0035 -0.01,0.003 -0.0156,0.0014 -0.0156,-0.0042 0,-0.0059 -0.007,-0.0074 -0.0195,-0.0043 -0.0119,0.003 -0.0195,0.0016 -0.0195,-0.0036 0,-0.0049 -0.007,-0.0064 -0.0156,-0.0035 -0.01,0.003 -0.0156,0.0014 -0.0156,-0.0042 0,-0.0059 -0.007,-0.0074 -0.0195,-0.0043 -0.0114,0.0029 -0.0195,0.0015 -0.0195,-0.0032 0,-0.0047 -0.008,-0.0061 -0.0195,-0.0032 -0.0125,0.0031 -0.0195,0.0016 -0.0195,-0.0043 0,-0.0056 -0.006,-0.0073 -0.0156,-0.0042 -0.01,0.003 -0.0156,0.0014 -0.0156,-0.0042 0,-0.0059 -0.007,-0.0074 -0.0195,-0.0043 -0.0118,0.003 -0.0195,0.0016 -0.0195,-0.0036 0,-0.0049 -0.007,-0.0064 -0.0156,-0.0035 -0.01,0.003 -0.0156,0.0014 -0.0156,-0.0042 0,-0.0059 -0.007,-0.0074 -0.0195,-0.0043 -0.0119,0.003 -0.0195,0.0016 -0.0195,-0.0036 0,-0.0049 -0.007,-0.0064 -0.0156,-0.0035 -0.01,0.003 -0.0156,0.0014 -0.0156,-0.0042 0,-0.0059 -0.007,-0.0074 -0.0195,-0.0043 -0.0119,0.003 -0.0195,0.0016 -0.0195,-0.0036 0,-0.0048 -0.006,-0.0064 -0.015,-0.0037 -0.008,0.0026 -0.0173,9.49e-4 -0.0202,-0.0037 -0.003,-0.0046 -0.012,-0.0063 -0.0202,-0.0037 -0.008,0.0027 -0.015,0.0011 -0.015,-0.0037 0,-0.0052 -0.008,-0.0066 -0.0195,-0.0036 -0.0125,0.0031 -0.0195,0.0016 -0.0195,-0.0043 0,-0.0056 -0.006,-0.0073 -0.0156,-0.0042 -0.01,0.003 -0.0156,0.0014 -0.0156,-0.0042 0,-0.0059 -0.007,-0.0074 -0.0195,-0.0043 -0.0119,0.003 -0.0195,0.0016 -0.0195,-0.0036 0,-0.0049 -0.007,-0.0064 -0.0156,-0.0035 -0.01,0.003 -0.0156,0.0014 -0.0156,-0.0042 0,-0.0059 -0.007,-0.0074 -0.0195,-0.0043 -0.0119,0.003 -0.0195,0.0016 -0.0195,-0.0036 0,-0.0049 -0.007,-0.0064 -0.0156,-0.0035 -0.01,0.003 -0.0156,0.0014 -0.0156,-0.0042 0,-0.0059 -0.007,-0.0074 -0.0195,-0.0043 -0.0114,0.0029 -0.0195,0.0015 -0.0195,-0.0032 0,-0.0047 -0.008,-0.0061 -0.0195,-0.0032 -0.0125,0.0031 -0.0195,0.0016 -0.0195,-0.0043 0,-0.0056 -0.006,-0.0073 -0.0156,-0.0042 -0.01,0.003 -0.0156,0.0014 -0.0156,-0.0042 0,-0.0059 -0.007,-0.0074 -0.0195,-0.0043 -0.0119,0.003 -0.0195,0.0016 -0.0195,-0.0036 0,-0.0049 -0.007,-0.0064 -0.0156,-0.0035 -0.01,0.003 -0.0156,0.0014 -0.0156,-0.0042 0,-0.0059 -0.007,-0.0074 -0.0195,-0.0043 -0.0119,0.003 -0.0195,0.0016 -0.0195,-0.0036 0,-0.0049 -0.007,-0.0064 -0.0156,-0.0035 -0.01,0.003 -0.0156,0.0014 -0.0156,-0.0042 0,-0.0059 -0.007,-0.0074 -0.0195,-0.0043 -0.0114,0.0029 -0.0195,0.0015 -0.0195,-0.0032 0,-0.0048 -0.008,-0.0061 -0.0195,-0.0032 -0.0125,0.0031 -0.0195,0.0016 -0.0195,-0.0043 0,-0.0056 -0.006,-0.0073 -0.0156,-0.0042 -0.01,0.003 -0.0156,0.0014 -0.0156,-0.0042 0,-0.0059 -0.007,-0.0074 -0.0195,-0.0043 -0.0119,0.003 -0.0195,0.0016 -0.0195,-0.0036 0,-0.0049 -0.007,-0.0064 -0.0156,-0.0035 -0.01,0.003 -0.0156,0.0014 -0.0156,-0.0042 0,-0.0059 -0.007,-0.0074 -0.0195,-0.0043 -0.0119,0.003 -0.0195,0.0016 -0.0195,-0.0036 0,-0.0049 -0.007,-0.0064 -0.0156,-0.0035 -0.01,0.003 -0.0156,0.0014 -0.0156,-0.0042 0,-0.0059 -0.007,-0.0074 -0.0195,-0.0043 -0.0119,0.003 -0.0195,0.0016 -0.0195,-0.0036 0,-0.0048 -0.006,-0.0064 -0.015,-0.0037 -0.008,0.0026 -0.0173,9.49e-4 -0.0202,-0.0037 -0.003,-0.0046 -0.012,-0.0063 -0.0202,-0.0037 -0.008,0.0027 -0.015,0.0011 -0.015,-0.0037 0,-0.0052 -0.008,-0.0066 -0.0195,-0.0036 -0.0125,0.0031 -0.0195,0.0016 -0.0195,-0.0043 0,-0.0056 -0.006,-0.0073 -0.0156,-0.0042 -0.01,0.003 -0.0156,0.0014 -0.0156,-0.0042 0,-0.0059 -0.007,-0.0074 -0.0195,-0.0043 -0.0119,0.003 -0.0195,0.0016 -0.0195,-0.0036 0,-0.0049 -0.007,-0.0064 -0.0156,-0.0035 -0.01,0.003 -0.0156,0.0014 -0.0156,-0.0042 0,-0.0059 -0.007,-0.0074 -0.0195,-0.0043 -0.0119,0.003 -0.0195,0.0016 -0.0195,-0.0036 0,-0.0049 -0.007,-0.0064 -0.0156,-0.0035 -0.01,0.003 -0.0156,0.0014 -0.0156,-0.0042 0,-0.0059 -0.007,-0.0074 -0.0195,-0.0043 -0.0114,0.0029 -0.0195,0.0015 -0.0195,-0.0032 0,-0.0048 -0.008,-0.0061 -0.0195,-0.0032 -0.0125,0.0031 -0.0195,0.0016 -0.0195,-0.0043 0,-0.0056 -0.006,-0.0073 -0.0156,-0.0042 -0.01,0.003 -0.0156,0.0014 -0.0156,-0.0042 0,-0.0059 -0.007,-0.0074 -0.0195,-0.0043 -0.0119,0.003 -0.0195,0.0016 -0.0195,-0.0036 0,-0.0049 -0.007,-0.0064 -0.0156,-0.0035 -0.01,0.003 -0.0156,0.0014 -0.0156,-0.0042 0,-0.0059 -0.007,-0.0074 -0.0195,-0.0043 -0.0119,0.003 -0.0195,0.0016 -0.0195,-0.0036 0,-0.0049 -0.007,-0.0064 -0.0156,-0.0035 -0.01,0.003 -0.0156,0.0014 -0.0156,-0.0042 0,-0.0059 -0.007,-0.0074 -0.0195,-0.0043 -0.0118,0.003 -0.0195,0.0016 -0.0195,-0.0036 0,-0.0048 -0.006,-0.0064 -0.015,-0.0037 -0.008,0.0026 -0.0173,9.49e-4 -0.0202,-0.0037 -0.003,-0.0046 -0.012,-0.0063 -0.0202,-0.0037 -0.008,0.0027 -0.015,0.0011 -0.015,-0.0037 0,-0.0052 -0.008,-0.0066 -0.0195,-0.0036 -0.0125,0.0031 -0.0195,0.0016 -0.0195,-0.0043 0,-0.0056 -0.006,-0.0073 -0.0156,-0.0042 -0.01,0.003 -0.0156,0.0014 -0.0156,-0.0042 0,-0.0059 -0.007,-0.0074 -0.0195,-0.0043 -0.0119,0.003 -0.0195,0.0016 -0.0195,-0.0036 0,-0.0049 -0.007,-0.0064 -0.0156,-0.0035 -0.01,0.003 -0.0156,0.0014 -0.0156,-0.0042 0,-0.0059 -0.007,-0.0074 -0.0195,-0.0043 -0.0118,0.003 -0.0195,0.0016 -0.0195,-0.0036 0,-0.0049 -0.007,-0.0064 -0.0156,-0.0035 -0.01,0.003 -0.0156,0.0014 -0.0156,-0.0042 0,-0.0059 -0.007,-0.0074 -0.0195,-0.0043 -0.0114,0.0029 -0.0195,0.0015 -0.0195,-0.0032 0,-0.0048 -0.008,-0.0061 -0.0195,-0.0032 -0.0125,0.0031 -0.0195,0.0016 -0.0195,-0.0043 0,-0.0056 -0.006,-0.0073 -0.0156,-0.0042 -0.01,0.003 -0.0156,0.0014 -0.0156,-0.0042 0,-0.0059 -0.007,-0.0074 -0.0195,-0.0043 -0.0119,0.003 -0.0195,0.0016 -0.0195,-0.0036 0,-0.0049 -0.007,-0.0064 -0.0156,-0.0035 -0.01,0.003 -0.0156,0.0014 -0.0156,-0.0042 0,-0.0059 -0.007,-0.0074 -0.0195,-0.0043 -0.0118,0.003 -0.0195,0.0016 -0.0195,-0.0036 0,-0.0049 -0.007,-0.0064 -0.0156,-0.0035 -0.01,0.003 -0.0156,0.0014 -0.0156,-0.0042 0,-0.0059 -0.007,-0.0074 -0.0195,-0.0043 -0.0119,0.003 -0.0195,0.0016 -0.0195,-0.0036 0,-0.0048 -0.006,-0.0064 -0.015,-0.0037 -0.008,0.0026 -0.0173,9.49e-4 -0.0202,-0.0037 -0.003,-0.0046 -0.0119,-0.0063 -0.0202,-0.0037 -0.008,0.0027 -0.015,0.0011 -0.015,-0.0037 0,-0.0052 -0.008,-0.0066 -0.0195,-0.0036 -0.0125,0.0031 -0.0195,0.0016 -0.0195,-0.0043 0,-0.0056 -0.006,-0.0073 -0.0156,-0.0042 -0.01,0.003 -0.0156,0.0014 -0.0156,-0.0042 0,-0.0059 -0.007,-0.0074 -0.0195,-0.0043 -0.0118,0.003 -0.0195,0.0016 -0.0195,-0.0036 0,-0.0049 -0.007,-0.0064 -0.0156,-0.0035 -0.01,0.003 -0.0156,0.0014 -0.0156,-0.0042 0,-0.0059 -0.007,-0.0074 -0.0195,-0.0043 -0.0119,0.003 -0.0195,0.0016 -0.0195,-0.0036 0,-0.0049 -0.007,-0.0064 -0.0156,-0.0035 -0.01,0.003 -0.0156,0.0014 -0.0156,-0.0042 0,-0.0059 -0.007,-0.0074 -0.0195,-0.0043 -0.0114,0.0029 -0.0195,0.0015 -0.0195,-0.0032 0,-0.0048 -0.008,-0.0061 -0.0195,-0.0032 -0.0125,0.0031 -0.0195,0.0016 -0.0195,-0.0043 0,-0.0056 -0.006,-0.0073 -0.0156,-0.0042 -0.01,0.003 -0.0156,0.0014 -0.0156,-0.0042 0,-0.0059 -0.007,-0.0074 -0.0195,-0.0043 -0.0118,0.003 -0.0195,0.0016 -0.0195,-0.0036 0,-0.0049 -0.007,-0.0064 -0.0156,-0.0035 -0.01,0.003 -0.0156,0.0014 -0.0156,-0.0042 0,-0.0059 -0.007,-0.0074 -0.0195,-0.0043 -0.0119,0.003 -0.0195,0.0016 -0.0195,-0.0036 0,-0.0049 -0.007,-0.0064 -0.0156,-0.0035 -0.01,0.003 -0.0156,0.0014 -0.0156,-0.0042 0,-0.0059 -0.007,-0.0074 -0.0195,-0.0043 -0.0114,0.0029 -0.0195,0.0015 -0.0195,-0.0032 0,-0.0047 -0.008,-0.0061 -0.0195,-0.0032 -0.0125,0.0031 -0.0195,0.0016 -0.0195,-0.0043 0,-0.0056 -0.006,-0.0073 -0.0156,-0.0042 -0.01,0.003 -0.0156,0.0014 -0.0156,-0.0042 0,-0.0059 -0.007,-0.0074 -0.0195,-0.0043 -0.0118,0.003 -0.0195,0.0016 -0.0195,-0.0036 0,-0.0049 -0.007,-0.0064 -0.0156,-0.0035 -0.01,0.003 -0.0156,0.0014 -0.0156,-0.0042 0,-0.0059 -0.007,-0.0074 -0.0195,-0.0043 -0.0119,0.003 -0.0195,0.0016 -0.0195,-0.0036 0,-0.0049 -0.007,-0.0064 -0.0156,-0.0035 -0.01,0.003 -0.0156,0.0014 -0.0156,-0.0042 0,-0.0059 -0.007,-0.0074 -0.0195,-0.0043 -0.0114,0.0029 -0.0195,0.0015 -0.0195,-0.0032 0,-0.0048 -0.008,-0.0061 -0.0195,-0.0032 -0.0125,0.0031 -0.0195,0.0016 -0.0195,-0.0043 0,-0.0056 -0.006,-0.0073 -0.0156,-0.0042 -0.009,0.0029 -0.0156,0.0014 -0.0156,-0.0035 0,-0.0052 -0.008,-0.0066 -0.0195,-0.0036 -0.0125,0.0031 -0.0195,0.0016 -0.0195,-0.0043 0,-0.0056 -0.006,-0.0073 -0.0156,-0.0042 -0.01,0.003 -0.0156,0.0014 -0.0156,-0.0042 0,-0.0059 -0.007,-0.0074 -0.0195,-0.0043 -0.0119,0.003 -0.0195,0.0016 -0.0195,-0.0036 0,-0.0049 -0.007,-0.0064 -0.0156,-0.0035 -0.01,0.003 -0.0156,0.0014 -0.0156,-0.0042 0,-0.0059 -0.007,-0.0074 -0.0195,-0.0043 -0.0119,0.003 -0.0195,0.0016 -0.0195,-0.0036 0,-0.0049 -0.007,-0.0064 -0.0156,-0.0035 -0.01,0.003 -0.0156,0.0014 -0.0156,-0.0042 0,-0.0059 -0.007,-0.0074 -0.0195,-0.0043 -0.0114,0.0029 -0.0195,0.0015 -0.0195,-0.0032 0,-0.0047 -0.008,-0.0061 -0.0195,-0.0032 -0.0125,0.0031 -0.0195,0.0016 -0.0195,-0.0043 0,-0.0056 -0.006,-0.0073 -0.0156,-0.0042 -0.01,0.003 -0.0156,0.0014 -0.0156,-0.0042 0,-0.0059 -0.007,-0.0074 -0.0195,-0.0043 -0.0119,0.003 -0.0195,0.0016 -0.0195,-0.0036 0,-0.0049 -0.007,-0.0064 -0.0156,-0.0035 -0.01,0.003 -0.0156,0.0014 -0.0156,-0.0042 0,-0.0059 -0.007,-0.0074 -0.0195,-0.0043 -0.0119,0.003 -0.0195,0.0016 -0.0195,-0.0036 0,-0.0049 -0.007,-0.0064 -0.0156,-0.0035 -0.01,0.003 -0.0156,0.0014 -0.0156,-0.0042 0,-0.0059 -0.007,-0.0074 -0.0195,-0.0043 -0.0119,0.003 -0.0195,0.0016 -0.0195,-0.0036 0,-0.0048 -0.006,-0.0064 -0.015,-0.0037 -0.008,0.0026 -0.0173,9.49e-4 -0.0202,-0.0037 -0.003,-0.0046 -0.012,-0.0063 -0.0202,-0.0037 -0.008,0.0027 -0.015,0.0011 -0.015,-0.0037 0,-0.0052 -0.008,-0.0066 -0.0195,-0.0036 -0.0125,0.0031 -0.0195,0.0016 -0.0195,-0.0043 0,-0.0056 -0.006,-0.0073 -0.0156,-0.0042 -0.01,0.003 -0.0156,0.0014 -0.0156,-0.0042 0,-0.0059 -0.007,-0.0074 -0.0195,-0.0043 -0.0119,0.003 -0.0195,0.0016 -0.0195,-0.0036 0,-0.0049 -0.007,-0.0064 -0.0156,-0.0035 -0.01,0.003 -0.0156,0.0014 -0.0156,-0.0042 0,-0.0059 -0.007,-0.0074 -0.0195,-0.0043 -0.0119,0.003 -0.0195,0.0016 -0.0195,-0.0036 0,-0.0049 -0.007,-0.0064 -0.0156,-0.0035 -0.01,0.003 -0.0156,0.0014 -0.0156,-0.0042 0,-0.0059 -0.007,-0.0074 -0.0195,-0.0043 -0.0114,0.0029 -0.0195,0.0015 -0.0195,-0.0032 0,-0.0047 -0.008,-0.0061 -0.0195,-0.0032 -0.0125,0.0031 -0.0195,0.0016 -0.0195,-0.0043 0,-0.0056 -0.006,-0.0073 -0.0156,-0.0042 -0.01,0.003 -0.0156,0.0014 -0.0156,-0.0042 0,-0.0059 -0.007,-0.0074 -0.0195,-0.0043 -0.0119,0.003 -0.0195,0.0016 -0.0195,-0.0036 0,-0.0049 -0.007,-0.0064 -0.0156,-0.0035 -0.01,0.003 -0.0156,0.0014 -0.0156,-0.0042 0,-0.0059 -0.007,-0.0074 -0.0195,-0.0043 -0.0119,0.003 -0.0195,0.0016 -0.0195,-0.0036 0,-0.0049 -0.007,-0.0064 -0.0156,-0.0035 -0.01,0.003 -0.0156,0.0014 -0.0156,-0.0042 0,-0.0059 -0.007,-0.0074 -0.0195,-0.0043 -0.0118,0.003 -0.0195,0.0016 -0.0195,-0.0036 0,-0.0048 -0.006,-0.0064 -0.015,-0.0037 -0.008,0.0026 -0.0173,9.49e-4 -0.0202,-0.0037 -0.003,-0.0046 -0.012,-0.0063 -0.0202,-0.0037 -0.008,0.0027 -0.015,0.0011 -0.015,-0.0037 0,-0.0052 -0.008,-0.0066 -0.0195,-0.0036 -0.0125,0.0031 -0.0195,0.0016 -0.0195,-0.0043 0,-0.0056 -0.006,-0.0073 -0.0156,-0.0042 -0.01,0.003 -0.0156,0.0014 -0.0156,-0.0042 0,-0.0059 -0.007,-0.0074 -0.0195,-0.0043 -0.0119,0.003 -0.0195,0.0016 -0.0195,-0.0036 0,-0.0049 -0.007,-0.0064 -0.0156,-0.0035 -0.01,0.003 -0.0156,0.0014 -0.0156,-0.0042 0,-0.0059 -0.007,-0.0074 -0.0195,-0.0043 -0.0118,0.003 -0.0195,0.0016 -0.0195,-0.0036 0,-0.0049 -0.007,-0.0064 -0.0156,-0.0035 -0.01,0.003 -0.0156,0.0014 -0.0156,-0.0042 0,-0.0059 -0.007,-0.0074 -0.0195,-0.0043 -0.0114,0.0029 -0.0195,0.0015 -0.0195,-0.0032 0,-0.0047 -0.008,-0.0061 -0.0195,-0.0032 -0.0125,0.0031 -0.0195,0.0016 -0.0195,-0.0043 0,-0.0056 -0.006,-0.0073 -0.0156,-0.0042 -0.01,0.003 -0.0156,0.0014 -0.0156,-0.0042 0,-0.0059 -0.007,-0.0074 -0.0195,-0.0043 -0.0119,0.003 -0.0195,0.0016 -0.0195,-0.0036 0,-0.0049 -0.007,-0.0064 -0.0156,-0.0035 -0.01,0.003 -0.0156,0.0014 -0.0156,-0.0042 0,-0.0059 -0.007,-0.0074 -0.0195,-0.0043 -0.0118,0.003 -0.0195,0.0016 -0.0195,-0.0036 0,-0.0049 -0.007,-0.0064 -0.0156,-0.0035 -0.01,0.003 -0.0156,0.0014 -0.0156,-0.0042 0,-0.0059 -0.007,-0.0074 -0.0195,-0.0043 -0.0114,0.0029 -0.0195,0.0015 -0.0195,-0.0032 0,-0.0048 -0.008,-0.0061 -0.0195,-0.0032 -0.0125,0.0031 -0.0195,0.0016 -0.0195,-0.0043 0,-0.0056 -0.006,-0.0073 -0.0156,-0.0042 -0.01,0.003 -0.0156,0.0014 -0.0156,-0.0042 0,-0.0059 -0.007,-0.0074 -0.0195,-0.0043 -0.0119,0.003 -0.0195,0.0016 -0.0195,-0.0036 0,-0.0049 -0.007,-0.0064 -0.0156,-0.0035 -0.01,0.003 -0.0156,0.0014 -0.0156,-0.0042 0,-0.0059 -0.007,-0.0074 -0.0195,-0.0043 -0.0118,0.003 -0.0195,0.0016 -0.0195,-0.0036 0,-0.0049 -0.007,-0.0064 -0.0156,-0.0035 -0.01,0.003 -0.0156,0.0014 -0.0156,-0.0042 0,-0.0059 -0.007,-0.0074 -0.0195,-0.0043 -0.0119,0.003 -0.0195,0.0016 -0.0195,-0.0036 0,-0.0049 -0.007,-0.0064 -0.0156,-0.0035 -0.01,0.003 -0.0156,0.0014 -0.0156,-0.0042 0,-0.0059 -0.007,-0.0074 -0.0195,-0.0043 -0.0114,0.0029 -0.0195,0.0015 -0.0195,-0.0032 0,-0.0047 -0.008,-0.0061 -0.0195,-0.0032 -0.0125,0.0031 -0.0195,0.0016 -0.0195,-0.0043 0,-0.0056 -0.006,-0.0073 -0.0156,-0.0042 -0.01,0.003 -0.0156,0.0014 -0.0156,-0.0042 0,-0.0059 -0.007,-0.0074 -0.0195,-0.0043 -0.0118,0.003 -0.0195,0.0016 -0.0195,-0.0036 0,-0.0049 -0.007,-0.0064 -0.0156,-0.0035 -0.01,0.003 -0.0156,0.0014 -0.0156,-0.0042 0,-0.0059 -0.007,-0.0074 -0.0195,-0.0043 -0.0119,0.003 -0.0195,0.0016 -0.0195,-0.0036 0,-0.0049 -0.007,-0.0064 -0.0156,-0.0035 -0.01,0.003 -0.0156,0.0014 -0.0156,-0.0042 0,-0.0059 -0.007,-0.0074 -0.0195,-0.0043 -0.0114,0.0029 -0.0195,0.0015 -0.0195,-0.0032 0,-0.0049 -0.008,-0.006 -0.0207,-0.0029 -0.0158,0.004 -0.0192,0.0028 -0.0145,-0.0049 0.005,-0.0077 0.001,-0.0089 -0.0145,-0.0049 -0.0132,0.0033 -0.0207,0.002 -0.0207,-0.0036 0,-0.0055 -0.007,-0.007 -0.0195,-0.0039 -0.0118,0.003 -0.0195,0.0016 -0.0195,-0.0036 0,-0.0049 -0.007,-0.0064 -0.0156,-0.0035 -0.01,0.003 -0.0156,0.0014 -0.0156,-0.0042 0,-0.0059 -0.007,-0.0074 -0.0195,-0.0043 -0.0119,0.003 -0.0195,0.0016 -0.0195,-0.0036 0,-0.0049 -0.007,-0.0064 -0.0156,-0.0035 -0.01,0.003 -0.0156,0.0014 -0.0156,-0.0042 0,-0.0059 -0.007,-0.0074 -0.0195,-0.0043 -0.0119,0.003 -0.0195,0.0016 -0.0195,-0.0036 0,-0.0049 -0.007,-0.0064 -0.0156,-0.0035 -0.01,0.003 -0.0156,0.0014 -0.0156,-0.0042 0,-0.0059 -0.007,-0.0074 -0.0195,-0.0043 -0.0114,0.0029 -0.0195,0.0015 -0.0195,-0.0032 0,-0.0047 -0.008,-0.0061 -0.0195,-0.0032 -0.0125,0.0031 -0.0195,0.0016 -0.0195,-0.0043 0,-0.0056 -0.006,-0.0073 -0.0156,-0.0042 -0.01,0.003 -0.0156,0.0014 -0.0156,-0.0042 0,-0.0059 -0.007,-0.0074 -0.0195,-0.0043 -0.0119,0.003 -0.0195,0.0016 -0.0195,-0.0036 0,-0.0049 -0.007,-0.0064 -0.0156,-0.0035 -0.01,0.003 -0.0156,0.0014 -0.0156,-0.0042 0,-0.0059 -0.007,-0.0074 -0.0195,-0.0043 -0.0119,0.003 -0.0195,0.0016 -0.0195,-0.0036 0,-0.0049 -0.007,-0.0064 -0.0156,-0.0035 -0.01,0.003 -0.0156,0.0014 -0.0156,-0.0042 0,-0.0059 -0.007,-0.0074 -0.0195,-0.0043 -0.0114,0.0029 -0.0195,0.0015 -0.0195,-0.0032 0,-0.0049 -0.008,-0.006 -0.0207,-0.0029 -0.0158,0.004 -0.0192,0.0028 -0.0145,-0.0049 0.005,-0.0077 0.001,-0.0089 -0.0145,-0.0049 -0.0132,0.0033 -0.0207,0.002 -0.0207,-0.0036 0,-0.0055 -0.007,-0.007 -0.0195,-0.0039 -0.0119,0.003 -0.0195,0.0016 -0.0195,-0.0036 0,-0.0049 -0.007,-0.0064 -0.0156,-0.0035 -0.01,0.003 -0.0156,0.0014 -0.0156,-0.0042 0,-0.0059 -0.007,-0.0074 -0.0195,-0.0043 -0.0119,0.003 -0.0195,0.0016 -0.0195,-0.0036 0,-0.0049 -0.007,-0.0064 -0.0156,-0.0035 -0.01,0.003 -0.0156,0.0014 -0.0156,-0.0042 0,-0.0059 -0.007,-0.0074 -0.0195,-0.0043 -0.0119,0.003 -0.0195,0.0016 -0.0195,-0.0036 0,-0.0049 -0.007,-0.0064 -0.0156,-0.0035 -0.01,0.003 -0.0156,0.0014 -0.0156,-0.0042 0,-0.0059 -0.007,-0.0074 -0.0195,-0.0043 -0.0114,0.0029 -0.0195,0.0015 -0.0195,-0.0032 0,-0.0047 -0.008,-0.0061 -0.0195,-0.0032 -0.0125,0.0031 -0.0195,0.0016 -0.0195,-0.0043 0,-0.0056 -0.006,-0.0073 -0.0156,-0.0042 -0.01,0.003 -0.0156,0.0014 -0.0156,-0.0042 0,-0.0059 -0.007,-0.0074 -0.0195,-0.0043 -0.0119,0.003 -0.0195,0.0016 -0.0195,-0.0036 0,-0.0049 -0.007,-0.0064 -0.0156,-0.0035 -0.01,0.003 -0.0156,0.0014 -0.0156,-0.0042 0,-0.0059 -0.007,-0.0074 -0.0195,-0.0043 -0.0119,0.003 -0.0195,0.0016 -0.0195,-0.0036 0,-0.0049 -0.007,-0.0064 -0.0156,-0.0035 -0.01,0.003 -0.0156,0.0014 -0.0156,-0.0042 0,-0.0059 -0.007,-0.0074 -0.0195,-0.0043 -0.0114,0.0029 -0.0195,0.0015 -0.0195,-0.0032 0,-0.0049 -0.008,-0.006 -0.0207,-0.0029 -0.0158,0.004 -0.0192,0.0028 -0.0145,-0.0049 0.005,-0.0077 0.001,-0.0089 -0.0145,-0.0049 -0.0132,0.0033 -0.0207,0.002 -0.0207,-0.0036 0,-0.0055 -0.007,-0.007 -0.0195,-0.0039 -0.0119,0.003 -0.0195,0.0016 -0.0195,-0.0036 0,-0.0049 -0.007,-0.0064 -0.0156,-0.0035 -0.01,0.003 -0.0156,0.0014 -0.0156,-0.0042 0,-0.0059 -0.007,-0.0074 -0.0195,-0.0043 -0.0119,0.003 -0.0195,0.0016 -0.0195,-0.0036 0,-0.0049 -0.007,-0.0064 -0.0156,-0.0035 -0.01,0.003 -0.0156,0.0014 -0.0156,-0.0042 0,-0.0059 -0.007,-0.0074 -0.0195,-0.0043 -0.0114,0.0029 -0.0195,0.0015 -0.0195,-0.0032 0,-0.0049 -0.008,-0.006 -0.0207,-0.0029 -0.0158,0.004 -0.0192,0.0028 -0.0145,-0.0049 0.005,-0.0077 0.001,-0.0089 -0.0145,-0.0049 -0.0132,0.0033 -0.0207,0.002 -0.0207,-0.0036 0,-0.0056 -0.007,-0.0069 -0.0202,-0.0037 -0.0145,0.0036 -0.0186,0.0025 -0.0145,-0.0042 0.004,-0.0067 -4e-5,-0.0078 -0.015,-0.0041 -0.0132,0.0033 -0.0207,0.002 -0.0207,-0.0036 0,-0.0055 -0.007,-0.007 -0.0195,-0.0039 -0.0119,0.003 -0.0195,0.0016 -0.0195,-0.0036 0,-0.0049 -0.007,-0.0064 -0.0156,-0.0035 -0.01,0.003 -0.0156,0.0014 -0.0156,-0.0042 0,-0.0059 -0.007,-0.0074 -0.0195,-0.0043 -0.0118,0.003 -0.0195,0.0016 -0.0195,-0.0036 0,-0.0049 -0.007,-0.0064 -0.0156,-0.0035 -0.01,0.003 -0.0156,0.0014 -0.0156,-0.0042 0,-0.0059 -0.007,-0.0074 -0.0195,-0.0043 -0.0114,0.0029 -0.0195,0.0015 -0.0195,-0.0032 0,-0.0049 -0.008,-0.006 -0.0207,-0.0029 -0.0158,0.004 -0.0192,0.0028 -0.0145,-0.0049 0.005,-0.0077 0.001,-0.0089 -0.0145,-0.0049 -0.0132,0.0033 -0.0207,0.002 -0.0207,-0.0036 0,-0.0055 -0.007,-0.007 -0.0195,-0.0039 -0.0119,0.003 -0.0195,0.0016 -0.0195,-0.0036 0,-0.0049 -0.007,-0.0064 -0.0156,-0.0035 -0.01,0.003 -0.0156,0.0014 -0.0156,-0.0042 0,-0.0059 -0.007,-0.0074 -0.0195,-0.0043 -0.0118,0.003 -0.0195,0.0016 -0.0195,-0.0036 0,-0.0049 -0.007,-0.0064 -0.0156,-0.0035 -0.01,0.003 -0.0156,0.0014 -0.0156,-0.0042 0,-0.0059 -0.007,-0.0074 -0.0195,-0.0043 -0.0114,0.0029 -0.0195,0.0015 -0.0195,-0.0032 0,-0.0049 -0.008,-0.006 -0.0207,-0.0029 -0.0158,0.004 -0.0192,0.0028 -0.0145,-0.0049 0.005,-0.0077 0.001,-0.0089 -0.0145,-0.0049 -0.0132,0.0033 -0.0207,0.002 -0.0207,-0.0036 0,-0.0056 -0.007,-0.0069 -0.0202,-0.0037 -0.0145,0.0036 -0.0186,0.0025 -0.0145,-0.0042 0.004,-0.0067 -4e-5,-0.0078 -0.015,-0.0041 -0.0132,0.0033 -0.0207,0.002 -0.0207,-0.0036 0,-0.0055 -0.007,-0.007 -0.0195,-0.0039 -0.0118,0.003 -0.0195,0.0016 -0.0195,-0.0036 0,-0.0049 -0.007,-0.0064 -0.0156,-0.0035 -0.01,0.003 -0.0156,0.0014 -0.0156,-0.0042 0,-0.0059 -0.007,-0.0074 -0.0195,-0.0043 -0.0119,0.003 -0.0195,0.0016 -0.0195,-0.0036 0,-0.0049 -0.007,-0.0064 -0.0156,-0.0035 -0.01,0.003 -0.0156,0.0014 -0.0156,-0.0042 0,-0.0059 -0.007,-0.0074 -0.0195,-0.0043 -0.0114,0.0029 -0.0195,0.0015 -0.0195,-0.0032 0,-0.0049 -0.008,-0.006 -0.0207,-0.0029 -0.0158,0.004 -0.0192,0.0028 -0.0145,-0.0049 0.005,-0.0077 0.001,-0.0089 -0.0145,-0.0049 -0.0132,0.0033 -0.0207,0.002 -0.0207,-0.0036 0,-0.0056 -0.007,-0.0069 -0.0202,-0.0037 -0.0145,0.0036 -0.0186,0.0025 -0.0145,-0.0042 0.004,-0.0067 -5e-5,-0.0078 -0.015,-0.0041 -0.0132,0.0033 -0.0207,0.002 -0.0207,-0.0036 0,-0.0055 -0.007,-0.007 -0.0195,-0.0039 -0.0119,0.003 -0.0195,0.0016 -0.0195,-0.0036 0,-0.0049 -0.007,-0.0064 -0.0156,-0.0035 -0.01,0.003 -0.0156,0.0014 -0.0156,-0.0042 0,-0.0059 -0.007,-0.0074 -0.0195,-0.0043 -0.0114,0.0029 -0.0195,0.0015 -0.0195,-0.0032 0,-0.0049 -0.008,-0.006 -0.0207,-0.0029 -0.0158,0.004 -0.0192,0.0028 -0.0145,-0.0049 0.005,-0.0077 0.001,-0.0089 -0.0145,-0.0049 -0.0132,0.0033 -0.0207,0.002 -0.0207,-0.0036 0,-0.0056 -0.007,-0.0069 -0.0202,-0.0037 -0.0145,0.0036 -0.0186,0.0025 -0.0145,-0.0042 0.004,-0.0067 -5e-5,-0.0078 -0.015,-0.0041 -0.0132,0.0033 -0.0207,0.002 -0.0207,-0.0036 0,-0.0055 -0.007,-0.007 -0.0195,-0.0039 -0.0119,0.003 -0.0195,0.0016 -0.0195,-0.0036 0,-0.0049 -0.007,-0.0064 -0.0156,-0.0035 -0.01,0.003 -0.0156,0.0014 -0.0156,-0.0042 0,-0.0059 -0.007,-0.0074 -0.0195,-0.0043 -0.0119,0.003 -0.0195,0.0016 -0.0195,-0.0036 0,-0.0049 -0.007,-0.0064 -0.0156,-0.0035 -0.01,0.003 -0.0156,0.0014 -0.0156,-0.0042 0,-0.0059 -0.007,-0.0074 -0.0195,-0.0043 -0.0114,0.0029 -0.0195,0.0015 -0.0195,-0.0032 0,-0.0049 -0.008,-0.006 -0.0207,-0.0029 -0.0158,0.004 -0.0192,0.0028 -0.0145,-0.0049 0.005,-0.0077 0.001,-0.0089 -0.0145,-0.0049 -0.0132,0.0033 -0.0207,0.002 -0.0207,-0.0036 0,-0.0056 -0.007,-0.0069 -0.0202,-0.0037 -0.0145,0.0036 -0.0186,0.0025 -0.0145,-0.0042 0.004,-0.0067 -5e-5,-0.0078 -0.015,-0.0041 -0.0132,0.0033 -0.0207,0.002 -0.0207,-0.0036 0,-0.0055 -0.007,-0.007 -0.0195,-0.0039 -0.0119,0.003 -0.0195,0.0016 -0.0195,-0.0036 0,-0.0049 -0.007,-0.0064 -0.0156,-0.0035 -0.01,0.003 -0.0156,0.0014 -0.0156,-0.0042 0,-0.0059 -0.007,-0.0074 -0.0195,-0.0043 -0.0114,0.0029 -0.0195,0.0015 -0.0195,-0.0032 0,-0.0049 -0.008,-0.006 -0.0207,-0.0029 -0.0158,0.004 -0.0192,0.0028 -0.0145,-0.0049 0.005,-0.0077 0.001,-0.0089 -0.0145,-0.0049 -0.0132,0.0033 -0.0207,0.002 -0.0207,-0.0036 0,-0.0056 -0.007,-0.0069 -0.0202,-0.0037 -0.0145,0.0036 -0.0186,0.0025 -0.0145,-0.0042 0.004,-0.0067 -5e-5,-0.0078 -0.015,-0.0041 -0.0132,0.0033 -0.0207,0.002 -0.0207,-0.0036 0,-0.0055 -0.007,-0.007 -0.0195,-0.0039 -0.0119,0.003 -0.0195,0.0016 -0.0195,-0.0036 0,-0.0049 -0.007,-0.0064 -0.0156,-0.0035 -0.01,0.003 -0.0156,0.0014 -0.0156,-0.0042 0,-0.0059 -0.007,-0.0074 -0.0195,-0.0043 -0.0114,0.0029 -0.0195,0.0015 -0.0195,-0.0032 0,-0.0049 -0.008,-0.006 -0.0207,-0.0029 -0.0158,0.004 -0.0192,0.0028 -0.0145,-0.0049 0.005,-0.0077 0.001,-0.0089 -0.0145,-0.0049 -0.0132,0.0033 -0.0207,0.002 -0.0207,-0.0036 0,-0.0056 -0.007,-0.0069 -0.0202,-0.0037 -0.0145,0.0036 -0.0186,0.0025 -0.0145,-0.0042 0.004,-0.0067 -5e-5,-0.0078 -0.015,-0.0041 -0.0132,0.0033 -0.0207,0.002 -0.0207,-0.0036 0,-0.0056 -0.007,-0.0069 -0.0202,-0.0037 -0.0145,0.0036 -0.0186,0.0025 -0.0145,-0.0042 0.004,-0.0067 -4e-5,-0.0078 -0.015,-0.0041 -0.0132,0.0033 -0.0207,0.002 -0.0207,-0.0036 0,-0.0055 -0.007,-0.007 -0.0195,-0.0039 -0.0119,0.003 -0.0195,0.0016 -0.0195,-0.0036 0,-0.0049 -0.007,-0.0064 -0.0156,-0.0035 -0.01,0.003 -0.0156,0.0014 -0.0156,-0.0042 0,-0.0059 -0.007,-0.0074 -0.0195,-0.0043 -0.0114,0.0029 -0.0195,0.0015 -0.0195,-0.0032 0,-0.0049 -0.008,-0.006 -0.0207,-0.0029 -0.0158,0.004 -0.0192,0.0028 -0.0145,-0.0049 0.005,-0.0077 0.001,-0.0089 -0.0145,-0.0049 -0.0132,0.0033 -0.0207,0.002 -0.0207,-0.0036 0,-0.0056 -0.007,-0.0069 -0.0202,-0.0037 -0.0145,0.0036 -0.0186,0.0025 -0.0145,-0.0042 0.004,-0.0067 -4e-5,-0.0078 -0.015,-0.0041 -0.0132,0.0033 -0.0207,0.002 -0.0207,-0.0036 0,-0.0055 -0.007,-0.007 -0.0195,-0.0039 -0.0119,0.003 -0.0195,0.0016 -0.0195,-0.0036 0,-0.0049 -0.007,-0.0064 -0.0156,-0.0035 -0.01,0.003 -0.0156,0.0014 -0.0156,-0.0042 0,-0.0059 -0.007,-0.0074 -0.0195,-0.0043 -0.0114,0.0029 -0.0195,0.0015 -0.0195,-0.0032 0,-0.0049 -0.008,-0.006 -0.0207,-0.0029 -0.0158,0.004 -0.0192,0.0028 -0.0145,-0.0049 0.005,-0.0077 0.001,-0.0089 -0.0145,-0.0049 -0.0132,0.0033 -0.0207,0.002 -0.0207,-0.0036 0,-0.0056 -0.007,-0.0069 -0.0202,-0.0037 -0.0145,0.0036 -0.0186,0.0025 -0.0145,-0.0042 0.004,-0.0067 -4e-5,-0.0078 -0.015,-0.0041 -0.0132,0.0033 -0.0207,0.002 -0.0207,-0.0036 0,-0.0056 -0.007,-0.0069 -0.0202,-0.0037 -0.0145,0.0036 -0.0186,0.0025 -0.0145,-0.0042 0.004,-0.0067 -4e-5,-0.0078 -0.015,-0.0041 -0.0132,0.0033 -0.0207,0.002 -0.0207,-0.0036 0,-0.0055 -0.007,-0.007 -0.0195,-0.0039 -0.0114,0.0029 -0.0195,0.0015 -0.0195,-0.0032 0,-0.0049 -0.008,-0.006 -0.0207,-0.0029 -0.0158,0.004 -0.0192,0.0028 -0.0145,-0.0049 0.005,-0.0077 0.001,-0.0089 -0.0145,-0.0049 -0.0124,0.0031 -0.0207,0.002 -0.0207,-0.0029 0,-0.0049 -0.008,-0.006 -0.0207,-0.0029 -0.0158,0.004 -0.0192,0.0028 -0.0145,-0.0049 0.005,-0.0077 10e-4,-0.0089 -0.0145,-0.0049 -0.0132,0.0033 -0.0207,0.002 -0.0207,-0.0036 0,-0.0056 -0.007,-0.0069 -0.0202,-0.0037 -0.0145,0.0036 -0.0186,0.0025 -0.0145,-0.0042 0.004,-0.0067 -4e-5,-0.0078 -0.015,-0.0041 -0.0132,0.0033 -0.0207,0.002 -0.0207,-0.0036 0,-0.0055 -0.007,-0.007 -0.0195,-0.0039 -0.0118,0.003 -0.0195,0.0016 -0.0195,-0.0036 0,-0.0049 -0.007,-0.0064 -0.0156,-0.0035 -0.01,0.003 -0.0156,0.0014 -0.0156,-0.0042 0,-0.0059 -0.007,-0.0074 -0.0195,-0.0043 -0.0114,0.0029 -0.0195,0.0015 -0.0195,-0.0032 0,-0.0049 -0.008,-0.006 -0.0207,-0.0029 -0.0158,0.004 -0.0192,0.0028 -0.0145,-0.0049 0.005,-0.0077 10e-4,-0.0089 -0.0145,-0.0049 -0.0132,0.0033 -0.0207,0.002 -0.0207,-0.0036 0,-0.0056 -0.007,-0.0069 -0.0202,-0.0037 -0.0145,0.0036 -0.0186,0.0025 -0.0145,-0.0042 0.004,-0.0067 -4e-5,-0.0078 -0.015,-0.0041 -0.0132,0.0033 -0.0207,0.002 -0.0207,-0.0036 0,-0.0056 -0.007,-0.0069 -0.0202,-0.0037 -0.0145,0.0036 -0.0186,0.0025 -0.0145,-0.0042 0.004,-0.0067 -5e-5,-0.0078 -0.015,-0.0041 -0.0132,0.0033 -0.0207,0.002 -0.0207,-0.0036 0,-0.0055 -0.007,-0.007 -0.0195,-0.0039 -0.0119,0.003 -0.0195,0.0016 -0.0195,-0.0036 0,-0.0049 -0.007,-0.0064 -0.0156,-0.0035 -0.01,0.003 -0.0156,0.0014 -0.0156,-0.0042 0,-0.0059 -0.007,-0.0074 -0.0195,-0.0043 -0.0114,0.0029 -0.0195,0.0015 -0.0195,-0.0032 0,-0.0049 -0.008,-0.006 -0.0207,-0.0029 -0.0158,0.004 -0.0192,0.0028 -0.0145,-0.0049 0.005,-0.0077 0.001,-0.0089 -0.0145,-0.0049 -0.0132,0.0033 -0.0207,0.002 -0.0207,-0.0036 0,-0.0056 -0.007,-0.0069 -0.0202,-0.0037 -0.0145,0.0036 -0.0186,0.0025 -0.0145,-0.0042 0.004,-0.0067 -5e-5,-0.0078 -0.015,-0.0041 -0.0132,0.0033 -0.0207,0.002 -0.0207,-0.0036 0,-0.0055 -0.007,-0.007 -0.0195,-0.0039 -0.0119,0.003 -0.0195,0.0016 -0.0195,-0.0036 0,-0.0049 -0.007,-0.0064 -0.0156,-0.0035 -0.01,0.003 -0.0156,0.0014 -0.0156,-0.0042 0,-0.0059 -0.007,-0.0074 -0.0195,-0.0043 -0.0114,0.0029 -0.0195,0.0015 -0.0195,-0.0032 0,-0.0049 -0.008,-0.006 -0.0207,-0.0029 -0.0158,0.004 -0.0192,0.0028 -0.0145,-0.0049 0.005,-0.0077 0.001,-0.0089 -0.0145,-0.0049 -0.0132,0.0033 -0.0207,0.002 -0.0207,-0.0036 0,-0.0056 -0.007,-0.0069 -0.0202,-0.0037 -0.0145,0.0036 -0.0186,0.0025 -0.0145,-0.0042 0.004,-0.0067 -5e-5,-0.0078 -0.015,-0.0041 -0.0132,0.0033 -0.0207,0.002 -0.0207,-0.0036 0,-0.0055 -0.007,-0.007 -0.0195,-0.0039 -0.0119,0.003 -0.0195,0.0016 -0.0195,-0.0036 0,-0.0049 -0.007,-0.0064 -0.0156,-0.0035 -0.01,0.003 -0.0156,0.0014 -0.0156,-0.0042 0,-0.0059 -0.007,-0.0074 -0.0195,-0.0043 -0.0114,0.0029 -0.0195,0.0015 -0.0195,-0.0032 0,-0.0049 -0.008,-0.006 -0.0207,-0.0029 -0.0158,0.004 -0.0192,0.0028 -0.0145,-0.0049 0.005,-0.0077 0.001,-0.0089 -0.0145,-0.0049 -0.0132,0.0033 -0.0207,0.002 -0.0207,-0.0036 0,-0.0056 -0.007,-0.0069 -0.0202,-0.0037 -0.0145,0.0036 -0.0186,0.0025 -0.0145,-0.0042 0.004,-0.0067 -5e-5,-0.0078 -0.015,-0.0041 -0.0132,0.0033 -0.0207,0.002 -0.0207,-0.0036 0,-0.0056 -0.007,-0.0069 -0.0202,-0.0037 -0.0145,0.0036 -0.0186,0.0025 -0.0145,-0.0042 0.004,-0.0067 -5e-5,-0.0078 -0.015,-0.0041 -0.0132,0.0033 -0.0207,0.002 -0.0207,-0.0036 0,-0.0055 -0.007,-0.007 -0.0195,-0.0039 -0.0119,0.003 -0.0195,0.0016 -0.0195,-0.0036 0,-0.0049 -0.007,-0.0064 -0.0156,-0.0035 -0.01,0.003 -0.0156,0.0014 -0.0156,-0.0042 0,-0.0059 -0.007,-0.0074 -0.0195,-0.0043 -0.0114,0.0029 -0.0195,0.0015 -0.0195,-0.0032 0,-0.0049 -0.008,-0.006 -0.0207,-0.0029 -0.0158,0.004 -0.0192,0.0028 -0.0145,-0.0049 0.005,-0.0077 0.001,-0.0089 -0.0145,-0.0049 -0.0132,0.0033 -0.0207,0.002 -0.0207,-0.0036 0,-0.0056 -0.007,-0.0069 -0.0202,-0.0037 -0.0145,0.0036 -0.0186,0.0025 -0.0145,-0.0042 0.004,-0.0067 -5e-5,-0.0078 -0.015,-0.0041 -0.0132,0.0033 -0.0207,0.002 -0.0207,-0.0036 0,-0.0055 -0.007,-0.007 -0.0195,-0.0039 -0.0119,0.003 -0.0195,0.0016 -0.0195,-0.0036 0,-0.0049 -0.007,-0.0064 -0.0156,-0.0035 -0.01,0.003 -0.0156,0.0014 -0.0156,-0.0042 0,-0.0059 -0.007,-0.0074 -0.0195,-0.0043 -0.0114,0.0029 -0.0195,0.0015 -0.0195,-0.0032 0,-0.0049 -0.008,-0.006 -0.0207,-0.0029 -0.0158,0.004 -0.0192,0.0028 -0.0145,-0.0049 0.005,-0.0077 0.001,-0.0089 -0.0145,-0.0049 -0.0132,0.0033 -0.0207,0.002 -0.0207,-0.0036 0,-0.0056 -0.007,-0.0069 -0.0202,-0.0037 -0.0145,0.0036 -0.0186,0.0025 -0.0145,-0.0042 0.004,-0.0067 -5e-5,-0.0078 -0.015,-0.0041 -0.0132,0.0033 -0.0207,0.002 -0.0207,-0.0036 0,-0.0056 -0.007,-0.0069 -0.0202,-0.0037 -0.0145,0.0036 -0.0186,0.0025 -0.0145,-0.0042 0.004,-0.0067 -4e-5,-0.0078 -0.015,-0.0041 -0.0132,0.0033 -0.0207,0.002 -0.0207,-0.0036 0,-0.0055 -0.007,-0.007 -0.0195,-0.0039 -0.0119,0.003 -0.0195,0.0016 -0.0195,-0.0036 0,-0.0049 -0.007,-0.0064 -0.0156,-0.0035 -0.01,0.003 -0.0156,0.0014 -0.0156,-0.0042 0,-0.0059 -0.007,-0.0074 -0.0195,-0.0043 -0.0114,0.0029 -0.0195,0.0015 -0.0195,-0.0032 0,-0.0049 -0.008,-0.006 -0.0207,-0.0029 -0.0158,0.004 -0.0192,0.0028 -0.0145,-0.0049 0.005,-0.0077 0.001,-0.0089 -0.0145,-0.0049 -0.0132,0.0033 -0.0207,0.002 -0.0207,-0.0036 0,-0.0056 -0.007,-0.0069 -0.0202,-0.0037 -0.0145,0.0036 -0.0186,0.0025 -0.0145,-0.0042 0.004,-0.0067 -4e-5,-0.0078 -0.015,-0.0041 -0.0132,0.0033 -0.0207,0.002 -0.0207,-0.0036 0,-0.0055 -0.007,-0.007 -0.0195,-0.0039 -0.0119,0.003 -0.0195,0.0016 -0.0195,-0.0036 0,-0.0049 -0.007,-0.0064 -0.0156,-0.0035 -0.01,0.003 -0.0156,0.0014 -0.0156,-0.0042 0,-0.0059 -0.007,-0.0074 -0.0195,-0.0043 -0.0114,0.0029 -0.0195,0.0015 -0.0195,-0.0032 0,-0.0049 -0.008,-0.006 -0.0207,-0.0029 -0.0158,0.004 -0.0192,0.0028 -0.0145,-0.0049 0.005,-0.0077 0.001,-0.0089 -0.0145,-0.0049 -0.0132,0.0033 -0.0207,0.002 -0.0207,-0.0036 0,-0.0056 -0.007,-0.0069 -0.0202,-0.0037 -0.0145,0.0036 -0.0186,0.0025 -0.0145,-0.0042 0.004,-0.0067 -4e-5,-0.0078 -0.015,-0.0041 -0.0132,0.0033 -0.0207,0.002 -0.0207,-0.0036 0,-0.0056 -0.007,-0.0069 -0.0202,-0.0037 -0.0145,0.0036 -0.0186,0.0025 -0.0145,-0.0042 0.004,-0.0067 -4e-5,-0.0078 -0.015,-0.0041 -0.0132,0.0033 -0.0207,0.002 -0.0207,-0.0036 0,-0.0055 -0.007,-0.007 -0.0195,-0.0039 -0.0118,0.003 -0.0195,0.0016 -0.0195,-0.0036 0,-0.0049 -0.007,-0.0064 -0.0156,-0.0035 -0.01,0.003 -0.0156,0.0014 -0.0156,-0.0042 0,-0.0059 -0.007,-0.0074 -0.0195,-0.0043 -0.0114,0.0029 -0.0195,0.0015 -0.0195,-0.0032 0,-0.0049 -0.008,-0.006 -0.0207,-0.0029 -0.0158,0.004 -0.0192,0.0028 -0.0145,-0.0049 0.005,-0.0077 10e-4,-0.0089 -0.0145,-0.0049 -0.0133,0.0033 -0.0207,0.002 -0.0207,-0.0037 0,-0.005 -0.007,-0.0071 -0.0156,-0.0048 -0.0136,0.0036 -0.0156,2.4e-4 -0.0156,-0.0256 v -0.02969 l 0.0293,0.0065 c 0.37793,0.08422 8.17915,1.782261 10.0879,2.19576 2.49434,0.540361 6.56522,1.416865 6.80664,1.465546 0.0207,0.0042 0.0215,0.0061 0.0215,0.05414 0,0.028 -0.003,0.0498 -0.008,0.0498 -0.004,0 -0.008,-0.0036 -0.008,-0.008 z"
                       id="path1776-4"
                       inkscape:connector-curvature="0"
                       transform="matrix(0.26458333,0,0,0.26458333,0,217.62498)" />
                    <path
                       style="opacity:1;fill:#f74c00;fill-opacity:1;stroke:#333333;stroke-width:0.08838835;stroke-miterlimit:4;stroke-dasharray:none;stroke-dashoffset:0;stroke-opacity:0.98492462"
                       d="m 188.22011,59.744707 c -4.03493,-0.890217 -8.04096,-1.770201 -8.9023,-1.955518 -0.86134,-0.185317 -1.53248,-0.370537 -1.49141,-0.4116 0.0411,-0.04106 1.50151,0.224797 3.24545,0.590799 1.74393,0.366002 3.78729,0.78085 4.5408,0.921884 0.75351,0.141035 1.29047,0.273378 1.19325,0.294097 -0.16488,0.03514 3.30787,0.82627 7.44972,1.697136 0.98608,0.207333 1.765,0.404838 1.73094,0.4389 -0.0341,0.03406 -0.1448,0.05765 -0.24607,0.05241 -0.10128,-0.0052 -3.48545,-0.737886 -7.52038,-1.628104 z"
                       id="path1778-3"
                       inkscape:connector-curvature="0"
                       transform="matrix(0.26458333,0,0,0.26458333,0,217.62498)" />
                    <path
                       style="opacity:1;fill:#f74c00;fill-opacity:1;stroke:#333333;stroke-width:0.00390625;stroke-miterlimit:4;stroke-dasharray:none;stroke-dashoffset:0;stroke-opacity:0.98492462"
                       d="m 157.2487,52.90609 c -0.21699,-0.04802 -0.57471,-0.127048 -0.79492,-0.175612 -2.04349,-0.450648 -3.36595,-0.747342 -3.34722,-0.750948 0.0183,-0.0035 0.88493,0.178721 2.08723,0.438905 0.16317,0.03531 0.30006,0.06312 0.3042,0.0618 0.004,-0.0014 0.007,-8.09e-4 0.005,0.0013 -0.003,0.0049 0.0759,0.02166 0.0853,0.01809 0.004,-0.0017 0.006,-0.0013 0.005,0.0012 -0.003,0.0051 0.0754,0.02206 0.0851,0.01834 0.005,-0.0018 0.006,-0.0013 0.005,0.0014 -0.003,0.0051 0.0209,0.01014 0.0307,0.0064 0.005,-0.002 0.006,-0.0014 0.004,0.0025 -0.003,0.0041 -4.9e-4,0.0046 0.009,0.0027 0.007,-0.0014 0.0116,-9.65e-4 0.0104,9.15e-4 -0.003,0.0045 0.0222,0.0091 0.0311,0.0056 0.004,-0.0017 0.006,-0.0012 0.004,0.0014 -0.003,0.0051 0.0209,0.01014 0.0307,0.0064 0.005,-0.002 0.006,-0.0014 0.004,0.0025 -0.003,0.0041 -5e-4,0.0046 0.009,0.0027 0.009,-0.0018 0.0117,-0.0012 0.01,0.0019 -0.002,0.0031 4.6e-4,0.0036 0.008,0.0017 0.008,-0.002 0.01,-0.0014 0.008,0.002 -0.002,0.0034 4.4e-4,0.004 0.01,0.0022 0.007,-0.0014 0.0116,-9.65e-4 0.0104,9.15e-4 -0.003,0.0045 0.0222,0.0091 0.0311,0.0056 0.004,-0.0017 0.006,-0.0012 0.004,0.0014 -0.003,0.0051 0.0209,0.01014 0.0307,0.0064 0.005,-0.002 0.006,-0.0014 0.004,0.0025 -0.003,0.0041 -5e-4,0.0046 0.009,0.0027 0.009,-0.0018 0.0117,-0.0012 0.01,0.0019 -0.002,0.0031 4.6e-4,0.0036 0.008,0.0017 0.008,-0.002 0.01,-0.0014 0.008,0.002 -0.002,0.0034 4.4e-4,0.004 0.01,0.0022 0.007,-0.0014 0.0116,-9.66e-4 0.0104,9.15e-4 -0.003,0.0045 0.0222,0.0091 0.0311,0.0056 0.005,-0.002 0.006,-0.0014 0.004,0.0025 -0.003,0.0041 -4.9e-4,0.0046 0.009,0.0027 0.009,-0.0018 0.0117,-0.0012 0.01,0.0019 -0.002,0.0031 4.7e-4,0.0036 0.008,0.0017 0.008,-0.002 0.01,-0.0014 0.008,0.002 -0.002,0.0034 4.5e-4,0.004 0.01,0.0022 0.009,-0.0018 0.0117,-0.0012 0.01,0.0019 -0.002,0.0031 4.6e-4,0.0036 0.008,0.0017 0.008,-0.002 0.01,-0.0014 0.008,0.002 -0.002,0.0034 4.4e-4,0.004 0.01,0.0022 0.007,-0.0014 0.0116,-9.66e-4 0.0104,9.15e-4 -0.003,0.0045 0.0222,0.0091 0.0311,0.0056 0.005,-0.002 0.006,-0.0014 0.004,0.0025 -0.003,0.0041 -4.9e-4,0.0046 0.009,0.0027 0.009,-0.0018 0.0117,-0.0012 0.01,0.0019 -0.002,0.0031 4.7e-4,0.0036 0.008,0.0017 0.008,-0.002 0.01,-0.0014 0.008,0.002 -0.002,0.0034 4.5e-4,0.004 0.01,0.0022 0.007,-0.0014 0.0116,-9.66e-4 0.0104,9.15e-4 -0.003,0.0045 0.0222,0.0091 0.0311,0.0056 0.005,-0.002 0.006,-0.0014 0.004,0.0025 -0.003,0.0041 -4.9e-4,0.0046 0.009,0.0027 0.009,-0.0018 0.0117,-0.0012 0.01,0.0019 -0.002,0.0031 4.7e-4,0.0036 0.008,0.0017 0.008,-0.002 0.01,-0.0014 0.008,0.002 -0.002,0.0034 4.4e-4,0.004 0.01,0.0022 0.009,-0.0018 0.0117,-0.0012 0.01,0.0019 -0.002,0.0031 4.7e-4,0.0036 0.008,0.0017 0.008,-0.002 0.01,-0.0014 0.008,0.002 -0.002,0.0034 4.5e-4,0.004 0.01,0.0022 0.007,-0.0014 0.0116,-9.66e-4 0.0104,9.15e-4 -0.003,0.0045 0.0222,0.0091 0.0311,0.0056 0.005,-0.002 0.006,-0.0014 0.004,0.0025 -0.003,0.0041 -4.9e-4,0.0046 0.009,0.0027 0.009,-0.0018 0.0117,-0.0012 0.01,0.0019 -0.002,0.0031 4.7e-4,0.0036 0.008,0.0017 0.008,-0.002 0.01,-0.0014 0.008,0.002 -0.002,0.0034 4.4e-4,0.004 0.01,0.0022 0.009,-0.0018 0.0117,-0.0012 0.01,0.0019 -0.002,0.0031 4.7e-4,0.0036 0.008,0.0017 0.008,-0.002 0.01,-0.0014 0.008,0.002 -0.002,0.0034 4.5e-4,0.004 0.01,0.0022 0.009,-0.0018 0.0117,-0.0012 0.01,0.002 -0.002,0.0032 8.9e-4,0.0037 0.01,0.002 0.009,-0.0018 0.0117,-0.0012 0.01,0.0019 -0.002,0.0031 4.7e-4,0.0036 0.008,0.0017 0.008,-0.002 0.01,-0.0014 0.008,0.002 -0.002,0.0034 4.4e-4,0.004 0.01,0.0022 0.009,-0.0018 0.0117,-0.0012 0.01,0.0019 -0.002,0.0031 4.7e-4,0.0036 0.008,0.0017 0.008,-0.002 0.01,-0.0014 0.008,0.002 -0.002,0.0034 4.4e-4,0.004 0.01,0.0022 0.009,-0.0018 0.0117,-0.0012 0.01,0.0019 -0.002,0.0031 4.7e-4,0.0036 0.008,0.0017 0.008,-0.002 0.01,-0.0014 0.008,0.002 -0.002,0.0034 4.5e-4,0.004 0.01,0.0022 0.009,-0.0018 0.0117,-0.0012 0.01,0.002 -0.002,0.0032 8.9e-4,0.0037 0.01,0.002 0.009,-0.0018 0.0117,-0.0012 0.01,0.0019 -0.002,0.0031 4.7e-4,0.0036 0.008,0.0017 0.008,-0.002 0.01,-0.0014 0.008,0.002 -0.002,0.0034 4.4e-4,0.004 0.01,0.0022 0.009,-0.0018 0.0117,-0.0012 0.01,0.0019 -0.002,0.0031 4.7e-4,0.0036 0.008,0.0017 0.008,-0.002 0.01,-0.0014 0.008,0.002 -0.002,0.0034 4.4e-4,0.004 0.01,0.0022 0.009,-0.0018 0.0117,-0.0012 0.01,0.0019 -0.002,0.0031 4.7e-4,0.0036 0.008,0.0017 0.008,-0.002 0.01,-0.0014 0.008,0.002 -0.002,0.0034 4.5e-4,0.004 0.01,0.0022 0.009,-0.0018 0.0117,-0.0012 0.01,0.002 -0.002,0.0032 8.9e-4,0.0037 0.01,0.002 0.009,-0.0018 0.0117,-0.0012 0.01,0.0019 -0.002,0.0031 4.7e-4,0.0036 0.008,0.0017 0.008,-0.002 0.01,-0.0014 0.008,0.002 -0.002,0.0034 4.4e-4,0.004 0.01,0.0022 0.009,-0.0018 0.0117,-0.0012 0.01,0.0019 -0.002,0.0031 4.7e-4,0.0036 0.008,0.0017 0.008,-0.002 0.01,-0.0014 0.008,0.002 -0.002,0.0034 4.4e-4,0.004 0.01,0.0022 0.009,-0.0018 0.0117,-0.0012 0.01,0.0019 -0.002,0.003 5.5e-4,0.0038 0.008,0.0024 0.006,-0.0011 0.0103,-2.73e-4 0.0103,0.0018 0,0.0021 0.004,0.0027 0.0101,0.0013 0.007,-0.0018 0.009,-0.0012 0.007,0.0021 -0.002,0.0034 4.5e-4,0.004 0.01,0.0022 0.009,-0.0018 0.0117,-0.0012 0.01,0.0019 -0.002,0.0031 4.7e-4,0.0036 0.008,0.0017 0.008,-0.002 0.01,-0.0014 0.008,0.002 -0.002,0.0034 4.4e-4,0.004 0.01,0.0022 0.009,-0.0018 0.0117,-0.0012 0.01,0.0019 -0.002,0.0031 4.7e-4,0.0036 0.008,0.0017 0.008,-0.002 0.01,-0.0014 0.008,0.002 -0.002,0.0034 4.4e-4,0.004 0.01,0.0022 0.009,-0.0018 0.0117,-0.0012 0.01,0.0019 -0.002,0.003 5.5e-4,0.0038 0.008,0.0024 0.006,-0.0011 0.0103,-2.73e-4 0.0103,0.0018 0,0.0021 0.004,0.0027 0.0101,0.0013 0.007,-0.0018 0.009,-0.0012 0.007,0.0021 -0.002,0.0034 4.5e-4,0.004 0.01,0.0022 0.009,-0.0018 0.0117,-0.0012 0.01,0.0019 -0.002,0.0031 4.7e-4,0.0036 0.008,0.0017 0.008,-0.002 0.01,-0.0014 0.008,0.002 -0.002,0.0034 4.4e-4,0.004 0.01,0.0022 0.009,-0.0018 0.0117,-0.0012 0.01,0.0019 -0.002,0.0031 4.7e-4,0.0036 0.008,0.0017 0.008,-0.002 0.01,-0.0014 0.008,0.002 -0.002,0.0034 4.4e-4,0.004 0.01,0.0022 0.009,-0.0018 0.0117,-0.0012 0.01,0.002 -0.002,0.0032 8.9e-4,0.0037 0.01,0.002 0.009,-0.0018 0.0117,-0.0012 0.01,0.0019 -0.002,0.0031 4.7e-4,0.0036 0.008,0.0017 0.008,-0.002 0.01,-0.0014 0.008,0.002 -0.002,0.0034 4.5e-4,0.004 0.01,0.0022 0.009,-0.0018 0.0117,-0.0012 0.01,0.0019 -0.002,0.0031 4.7e-4,0.0036 0.008,0.0017 0.008,-0.002 0.01,-0.0014 0.008,0.002 -0.002,0.0034 4.4e-4,0.004 0.01,0.0022 0.009,-0.0018 0.0117,-0.0012 0.01,0.0019 -0.002,0.0031 4.7e-4,0.0036 0.008,0.0017 0.008,-0.002 0.01,-0.0014 0.008,0.002 -0.002,0.0034 4.4e-4,0.004 0.01,0.0022 0.009,-0.0018 0.0117,-0.0012 0.01,0.002 -0.002,0.0032 8.9e-4,0.0037 0.01,0.002 0.009,-0.0018 0.0117,-0.0012 0.01,0.0019 -0.002,0.0031 4.7e-4,0.0036 0.008,0.0017 0.008,-0.002 0.01,-0.0014 0.008,0.002 -0.002,0.0034 4.5e-4,0.004 0.01,0.0022 0.009,-0.0018 0.0117,-0.0012 0.01,0.0019 -0.002,0.0031 4.7e-4,0.0036 0.008,0.0017 0.008,-0.002 0.01,-0.0014 0.008,0.002 -0.002,0.0034 4.4e-4,0.004 0.01,0.0022 0.009,-0.0018 0.0117,-0.0012 0.01,0.0019 -0.002,0.0031 4.1e-4,0.0036 0.008,0.0018 0.007,-0.0017 0.0103,-0.001 0.0103,0.0018 0,0.0028 0.004,0.0035 0.0101,0.0019 0.007,-0.0018 0.009,-0.0012 0.007,0.0021 -0.002,0.0034 4.4e-4,0.004 0.01,0.0022 0.009,-0.0018 0.0117,-0.0012 0.01,0.0019 -0.002,0.0031 4.7e-4,0.0036 0.008,0.0017 0.008,-0.002 0.01,-0.0014 0.008,0.002 -0.002,0.0034 4.5e-4,0.004 0.01,0.0022 0.009,-0.0018 0.0117,-0.0012 0.01,0.0019 -0.002,0.0031 4.7e-4,0.0036 0.008,0.0017 0.008,-0.002 0.01,-0.0014 0.008,0.002 -0.002,0.0034 4.4e-4,0.004 0.01,0.0022 0.009,-0.0018 0.0117,-0.0012 0.01,0.0019 -0.002,0.003 5.5e-4,0.0038 0.008,0.0024 0.006,-0.0011 0.0103,-2.73e-4 0.0103,0.0018 0,0.0021 0.004,0.0027 0.0101,0.0013 0.007,-0.0018 0.009,-0.0012 0.007,0.0021 -0.002,0.0034 4.4e-4,0.004 0.01,0.0022 0.009,-0.0018 0.0117,-0.0012 0.01,0.0019 -0.002,0.0031 4.7e-4,0.0036 0.008,0.0017 0.008,-0.002 0.01,-0.0014 0.008,0.002 -0.002,0.0034 4.5e-4,0.004 0.01,0.0022 0.009,-0.0018 0.0117,-0.0012 0.01,0.0019 -0.002,0.0031 4.7e-4,0.0036 0.008,0.0017 0.008,-0.002 0.01,-0.0014 0.008,0.002 -0.002,0.0034 4.4e-4,0.004 0.01,0.0022 0.009,-0.0018 0.0117,-0.0012 0.01,0.0019 -0.002,0.003 5.5e-4,0.0038 0.008,0.0024 0.006,-0.0011 0.0103,-2.73e-4 0.0103,0.0018 0,0.0021 0.004,0.0027 0.0101,0.0013 0.007,-0.0018 0.009,-0.0012 0.007,0.0021 -0.002,0.0034 4.4e-4,0.004 0.01,0.0022 0.009,-0.0018 0.0117,-0.0012 0.01,0.0019 -0.002,0.0031 4.7e-4,0.0036 0.008,0.0017 0.008,-0.002 0.01,-0.0014 0.008,0.002 -0.002,0.0034 4.5e-4,0.004 0.01,0.0022 0.009,-0.0018 0.0117,-0.0012 0.01,0.0019 -0.002,0.0031 4.7e-4,0.0036 0.008,0.0017 0.008,-0.002 0.01,-0.0014 0.008,0.002 -0.002,0.0034 4.4e-4,0.004 0.01,0.0022 0.009,-0.0018 0.0117,-0.0012 0.01,0.002 -0.002,0.003 -5e-5,0.0038 0.006,0.0023 0.008,-0.0021 0.008,-8.38e-4 0.008,0.02087 0,0.01269 -4.4e-4,0.02287 -9.7e-4,0.02262 -5.4e-4,-2.48e-4 -0.17852,-0.03974 -0.39551,-0.08777 z"
                       id="path1780-3"
                       inkscape:connector-curvature="0"
                       transform="matrix(0.26458333,0,0,0.26458333,0,217.62498)" />
                    <path
                       style="opacity:1;fill:#f74c00;fill-opacity:1;stroke:#333333;stroke-width:0.00390625;stroke-miterlimit:4;stroke-dasharray:none;stroke-dashoffset:0;stroke-opacity:0.98492462"
                       d="m 156.2155,52.685591 c -0.24449,-0.05409 -7.0387,-1.542846 -7.04105,-1.542846 -0.001,0 -0.002,-0.0099 -0.002,-0.02193 0,-0.02173 1e-4,-0.02191 0.0107,-0.02023 0.0312,0.0049 5.05983,1.10678 5.05524,1.107685 -0.003,5.89e-4 -0.0968,-0.01839 -0.20856,-0.04216 -0.51615,-0.109862 -0.87862,-0.184069 -0.92188,-0.188731 l -0.0195,-0.0021 0.0156,0.0059 c 0.0471,0.01769 1.06956,0.24797 2.70312,0.608822 0.32657,0.07214 0.59551,0.131844 0.59766,0.132681 0.0194,0.0075 -0.0431,-0.0047 -0.18945,-0.03705 z"
                       id="path1782-4"
                       inkscape:connector-curvature="0"
                       transform="matrix(0.26458333,0,0,0.26458333,0,217.62498)" />
                  </g>
                  <ellipse
                     transform="matrix(0.98521985,0.1712946,-0.24265785,0.97011194,0,0)"
                     ry="2.3313293"
                     rx="21.993975"
                     cy="221.59439"
                     cx="87.597748"
                     id="path2891-2"
                     style="opacity:1;fill:#f74c00;fill-opacity:1;stroke:none;stroke-width:0.31149915;stroke-miterlimit:4;stroke-dasharray:none;stroke-dashoffset:0;stroke-opacity:0.98492462" />
                  <rect
                     y="231.8996"
                     x="50.578167"
                     height="2.4294801"
                     width="3.5347781"
                     id="rect2895-4"
                     style="opacity:1;fill:#f74c00;fill-opacity:1;stroke:none;stroke-width:0.26458332;stroke-miterlimit:4;stroke-dasharray:none;stroke-dashoffset:0;stroke-opacity:0.98492462" />
                  <rect
                     y="234.271"
                     x="53.90472"
                     height="0.14344411"
                     width="0.36586973"
                     id="rect2897-5"
                     style="opacity:1;fill:#f74c00;fill-opacity:1;stroke:none;stroke-width:0.26458332;stroke-miterlimit:4;stroke-dasharray:none;stroke-dashoffset:0;stroke-opacity:0.98492462" />
                  <rect
                     transform="rotate(30.881139)"
                     y="171.93645"
                     x="171.78404"
                     height="2.1047475"
                     width="0.64311731"
                     id="rect2899-3"
                     style="opacity:1;fill:#f74c00;fill-opacity:1;stroke:none;stroke-width:0.26458332;stroke-miterlimit:4;stroke-dasharray:none;stroke-dashoffset:0;stroke-opacity:0.98492462" />
                  <rect
                     y="237.66924"
                     x="58.170094"
                     height="0.56327313"
                     width="0.3286621"
                     id="rect2905-8"
                     style="opacity:1;fill:#f74c00;fill-opacity:1;stroke:none;stroke-width:0.26458332;stroke-miterlimit:4;stroke-dasharray:none;stroke-dashoffset:0;stroke-opacity:0.98492462" />
                  <path
                     transform="matrix(0.26458333,0,0,0.26458333,0,217.62498)"
                     inkscape:connector-curvature="0"
                     id="path2907-1"
                     d="m 224.29281,68.797597 c -0.029,-0.01704 -0.0532,-0.03271 -0.0539,-0.03482 -0.001,-0.0041 0.47676,-0.942144 0.47904,-0.939884 0.006,0.0062 -0.36198,1.006043 -0.37043,1.005757 -0.001,-3.9e-5 -0.0257,-0.01401 -0.0547,-0.03105 z"
                     style="opacity:1;fill:#f74c00;fill-opacity:1;stroke:none;stroke-width:0.00390625;stroke-miterlimit:4;stroke-dasharray:none;stroke-dashoffset:0;stroke-opacity:0.98492462" />
                  <rect
                     transform="rotate(-80.932654)"
                     y="43.637772"
                     x="-220.75839"
                     height="8.598958"
                     width="0.92604166"
                     id="rect2909-1"
                     style="opacity:1;fill:#f74c00;fill-opacity:1;stroke:none;stroke-width:0.26458332;stroke-miterlimit:4;stroke-dasharray:none;stroke-dashoffset:0;stroke-opacity:0.98492462" />
                  <rect
                     transform="rotate(-80.349868)"
                     y="42.284031"
                     x="-219.79645"
                     height="4.4433556"
                     width="0.37417734"
                     id="rect2911-3"
                     style="opacity:1;fill:#f74c00;fill-opacity:1;stroke:none;stroke-width:0.26458332;stroke-miterlimit:4;stroke-dasharray:none;stroke-dashoffset:0;stroke-opacity:0.98492462" />
                  <path
                     transform="matrix(0.26458333,0,0,0.26458333,0,217.62498)"
                     inkscape:connector-curvature="0"
                     id="path2913-1"
                     d="m 17.47993,22.35805 c -0.511328,-0.112297 -0.926172,-0.204278 -0.921875,-0.204402 0.0099,-2.84e-4 1.860686,0.337569 1.863237,0.340119 0.0018,0.0018 -0.0083,0.06605 -0.01062,0.0677 -5.82e-4,4.19e-4 -0.419418,-0.09112 -0.930746,-0.203415 z"
                     style="opacity:1;fill:#f74c00;fill-opacity:1;stroke:none;stroke-width:0.00390625;stroke-miterlimit:4;stroke-dasharray:none;stroke-dashoffset:0;stroke-opacity:0.98492462" />
                </g>
              </g>
            </g>
          </g>
        </g>
      </g>
    </g>
  </g>
</svg>
