<?xml version="1.0" encoding="UTF-8" standalone="no"?>
<!-- Created with Inkscape (http://www.inkscape.org/) -->

<svg
   xmlns:dc="http://purl.org/dc/elements/1.1/"
   xmlns:cc="http://creativecommons.org/ns#"
   xmlns:rdf="http://www.w3.org/1999/02/22-rdf-syntax-ns#"
   xmlns:svg="http://www.w3.org/2000/svg"
   xmlns="http://www.w3.org/2000/svg"
   xmlns:sodipodi="http://sodipodi.sourceforge.net/DTD/sodipodi-0.dtd"
   xmlns:inkscape="http://www.inkscape.org/namespaces/inkscape"
   width="58"
   height="58"
   viewBox="0 0 15.345832 15.345834"
   version="1.1"
   id="svg14914"
   sodipodi:docname="logo_banner_58x58.svg"
   inkscape:version="0.92.4 (unknown)">
  <defs
     id="defs14908" />
  <sodipodi:namedview
     id="base"
     pagecolor="#ffffff"
     bordercolor="#666666"
     borderopacity="1.0"
     inkscape:pageopacity="0.0"
     inkscape:pageshadow="2"
     inkscape:zoom="11.2"
     inkscape:cx="24.428434"
     inkscape:cy="27.910528"
     inkscape:document-units="mm"
     inkscape:current-layer="layer1"
     showgrid="false"
     inkscape:snap-bbox="true"
     inkscape:bbox-nodes="true"
     inkscape:bbox-paths="true"
     inkscape:snap-bbox-edge-midpoints="true"
     inkscape:snap-bbox-midpoints="true"
     inkscape:object-paths="true"
     inkscape:snap-intersection-paths="true"
     inkscape:snap-smooth-nodes="true"
     inkscape:snap-midpoints="true"
     inkscape:snap-object-midpoints="true"
     inkscape:snap-center="true"
     inkscape:window-width="1920"
     inkscape:window-height="1015"
     inkscape:window-x="0"
     inkscape:window-y="0"
     inkscape:window-maximized="1"
     inkscape:pagecheckerboard="true"
     units="px"
     inkscape:snap-text-baseline="true"
     inkscape:snap-page="true" />
  <metadata
     id="metadata14911">
    <rdf:RDF>
      <cc:Work
         rdf:about="">
        <dc:format>image/svg+xml</dc:format>
        <dc:type
           rdf:resource="http://purl.org/dc/dcmitype/StillImage" />
        <dc:title></dc:title>
      </cc:Work>
    </rdf:RDF>
  </metadata>
  <g
     inkscape:label="Layer 1"
     inkscape:groupmode="layer"
     id="layer1"
     transform="translate(0,-281.65415)">
    <ellipse
       style="opacity:1;fill:#ff6600;fill-opacity:0.01123596;stroke:#ff6600;stroke-width:0.34382197;stroke-miterlimit:4;stroke-dasharray:none;stroke-opacity:1"
       id="path124297"
       cx="7.0920277"
       cy="289.31882"
       rx="6.9201169"
       ry="6.9127274" />
    <text
       xml:space="preserve"
       style="font-style:italic;font-variant:normal;font-weight:bold;font-stretch:normal;font-size:13.37374687px;line-height:1.25;font-family:Laksaman;-inkscape-font-specification:'Laksaman Bold Italic';font-variant-ligatures:normal;font-variant-caps:normal;font-variant-numeric:normal;font-feature-settings:normal;text-align:start;letter-spacing:0px;word-spacing:0px;writing-mode:lr-tb;text-anchor:start;fill:#000000;fill-opacity:1;stroke:none;stroke-width:0.33435091"
       x="2.6920662"
       y="294.11331"
       id="text15489"><tspan
         sodipodi:role="line"
         id="tspan15487"
         x="2.6920662"
         y="294.11331"
         style="font-style:italic;font-variant:normal;font-weight:bold;font-stretch:normal;font-size:13.37374687px;font-family:Laksaman;-inkscape-font-specification:'Laksaman Bold Italic';font-variant-ligatures:normal;font-variant-caps:normal;font-variant-numeric:normal;font-feature-settings:normal;text-align:start;writing-mode:lr-tb;text-anchor:start;stroke-width:0.33435091">K</tspan></text>
    <path
       style="fill:none;stroke:#000000;stroke-width:0.22531161;stroke-linecap:butt;stroke-linejoin:miter;stroke-miterlimit:4;stroke-dasharray:none;stroke-opacity:1"
       d="m 9.8397429,293.73619 c 1.4633121,-0.0602 1.4783481,-0.63605 1.4783481,-0.63605 0.430602,-1.09631 1.530361,1.03225 1.530361,1.03225"
       id="path15516"
       inkscape:connector-curvature="0" />
    <path
       style="fill:#000000;fill-opacity:1;stroke:#000000;stroke-width:0.0563279px;stroke-linecap:butt;stroke-linejoin:miter;stroke-opacity:1"
       d="m 14.191372,293.5142 -2.765463,1.08761 c -0.266136,0.1029 0.193568,1.18925 0.632843,1.07498 l 3.242861,-1.36735 c 0.09969,-0.23403 -0.302951,-1.01026 -0.587566,-1.02012 z"
       id="path15522"
       inkscape:connector-curvature="0"
       sodipodi:nodetypes="cccccc" />
    <path
       style="fill:none;fill-opacity:1;stroke:#3c3c3c;stroke-width:0.05644056;stroke-linecap:butt;stroke-linejoin:miter;stroke-miterlimit:4;stroke-dasharray:none;stroke-opacity:1"
       d="m 11.683375,294.78395 1.835017,-0.73258 0.30281,0.58844 -1.86083,0.75439 z"
       id="path15528"
       inkscape:connector-curvature="0" />
    <rect
       style="opacity:0.95999995;fill:none;fill-opacity:1;fill-rule:nonzero;stroke:#3c3c3c;stroke-width:0.0564166;stroke-miterlimit:4;stroke-dasharray:none;stroke-opacity:1;paint-order:normal"
       id="rect15534"
       width="0.048825249"
       height="0.030175662"
       x="-130.06038"
       y="264.58759"
       transform="rotate(-28.961873)" />
    <rect
       style="opacity:0.95999995;fill:none;fill-opacity:1;fill-rule:nonzero;stroke:#3c3c3c;stroke-width:0.0564166;stroke-miterlimit:4;stroke-dasharray:none;stroke-opacity:1;paint-order:normal"
       id="rect15536"
       width="0.048825249"
       height="0.030175662"
       x="-89.739273"
       y="280.92474"
       transform="rotate(-20.451746)" />
    <rect
       style="opacity:0.95999995;fill:none;fill-opacity:1;fill-rule:nonzero;stroke:#3c3c3c;stroke-width:0.05659193;stroke-miterlimit:4;stroke-dasharray:none;stroke-opacity:1;paint-order:normal"
       id="rect15538"
       width="0.030327922"
       height="0.021725576"
       x="-121.22003"
       y="282.59808"
       transform="matrix(0.93667358,-0.35020366,0.45206613,0.89198442,0,0)"
       inkscape:transform-center-y="0.050148145"
       inkscape:transform-center-x="4.6439755e-06" />
    <rect
       style="opacity:0.95999995;fill:none;fill-opacity:1;fill-rule:nonzero;stroke:#2d2d2d;stroke-width:0.0564166;stroke-miterlimit:4;stroke-dasharray:none;stroke-opacity:1;paint-order:normal"
       id="rect15540"
       width="4.6316322e-07"
       height="4.6316322e-07"
       x="14.574126"
       y="295.24832" />
    <rect
       style="opacity:0.95999995;fill:none;fill-opacity:1;fill-rule:nonzero;stroke:#3c3c3c;stroke-width:0.0564166;stroke-miterlimit:4;stroke-dasharray:none;stroke-opacity:1;paint-order:normal"
       id="rect15542"
       width="0.050292768"
       height="0.025146386"
       x="-96.49778"
       y="278.53314"
       transform="rotate(-21.858512)" />
    <path
       style="opacity:1;vector-effect:none;fill:none;fill-opacity:1;stroke:#3c3c3c;stroke-width:0.0564166;stroke-linecap:butt;stroke-linejoin:miter;stroke-miterlimit:4;stroke-dasharray:none;stroke-dashoffset:0;stroke-opacity:1"
       d="m 14.233604,293.78986 0.35205,0.57837 0.523044,-0.21626 -0.377195,-0.54819 z"
       id="path15544"
       inkscape:connector-curvature="0" />
    <path
       style="opacity:1;vector-effect:none;fill:none;fill-opacity:1;stroke:#2d2d2d;stroke-width:0.0564166;stroke-linecap:butt;stroke-linejoin:miter;stroke-miterlimit:4;stroke-dasharray:none;stroke-dashoffset:0;stroke-opacity:1"
       d="m 13.781553,294.19362 0.433861,-0.12803 -0.128025,-0.23115 -0.433861,0.13869 z"
       id="path15546"
       inkscape:connector-curvature="0" />
  </g>
</svg>
