<?xml version="1.0" encoding="UTF-8" standalone="no"?>
<!-- Created with Inkscape (http://www.inkscape.org/) -->

<svg
   xmlns:dc="http://purl.org/dc/elements/1.1/"
   xmlns:cc="http://creativecommons.org/ns#"
   xmlns:rdf="http://www.w3.org/1999/02/22-rdf-syntax-ns#"
   xmlns:svg="http://www.w3.org/2000/svg"
   xmlns="http://www.w3.org/2000/svg"
   xmlns:sodipodi="http://sodipodi.sourceforge.net/DTD/sodipodi-0.dtd"
   xmlns:inkscape="http://www.inkscape.org/namespaces/inkscape"
   width="256"
   height="256"
   viewBox="0 0 67.733332 67.733336"
   version="1.1"
   id="svg5531"
   inkscape:version="0.92.4 (unknown)"
   sodipodi:docname="coding.svg">
  <defs
     id="defs5525" />
  <sodipodi:namedview
     id="base"
     pagecolor="#ffffff"
     bordercolor="#666666"
     borderopacity="1.0"
     inkscape:pageopacity="0.0"
     inkscape:pageshadow="2"
     inkscape:zoom="1.4"
     inkscape:cx="83.328075"
     inkscape:cy="201.60131"
     inkscape:document-units="mm"
     inkscape:current-layer="layer1"
     showgrid="false"
     units="px"
     inkscape:window-width="1920"
     inkscape:window-height="1015"
     inkscape:window-x="0"
     inkscape:window-y="0"
     inkscape:window-maximized="1" />
  <metadata
     id="metadata5528">
    <rdf:RDF>
      <cc:Work
         rdf:about="">
        <dc:format>image/svg+xml</dc:format>
        <dc:type
           rdf:resource="http://purl.org/dc/dcmitype/StillImage" />
        <dc:title></dc:title>
      </cc:Work>
    </rdf:RDF>
  </metadata>
  <g
     inkscape:label="Layer 1"
     inkscape:groupmode="layer"
     id="layer1"
     transform="translate(0,-229.26665)">
    <g
       id="g6455"
       transform="translate(-0.95975016,-2.4655597)">
      <g
         transform="matrix(0.35277777,0,0,-0.35277777,28.382375,295.69038)"
         id="g1556">
        <path
           inkscape:connector-curvature="0"
           id="path1558"
           style="fill:#474f59;fill-opacity:1;fill-rule:nonzero;stroke:none"
           d="m 0,0 c -0.332,-0.293 -0.729,-0.439 -1.189,-0.439 -0.625,0 -1.133,0.23 -1.524,0.691 -0.391,0.461 -0.586,1.234 -0.586,2.32 0,1.024 0.198,1.764 0.595,2.221 0.396,0.457 0.913,0.686 1.55,0.686 0.461,0 0.852,-0.129 1.175,-0.387 0.322,-0.258 0.534,-0.61 0.635,-1.055 l 1.717,0.41 C 2.178,5.135 1.885,5.662 1.494,6.029 0.838,6.65 -0.016,6.961 -1.066,6.961 -2.27,6.961 -3.24,6.565 -3.979,5.774 -4.717,4.983 -5.086,3.873 -5.086,2.443 c 0,-1.351 0.367,-2.417 1.102,-3.196 0.734,-0.779 1.671,-1.169 2.812,-1.169 0.922,0 1.683,0.228 2.282,0.683 0.6,0.455 1.029,1.151 1.286,2.089 L 0.715,1.383 C 0.57,0.754 0.332,0.293 0,0" />
      </g>
      <g
         transform="matrix(0.35277777,0,0,-0.35277777,31.701024,295.58187)"
         id="g1560">
        <path
           inkscape:connector-curvature="0"
           id="path1562"
           style="fill:#474f59;fill-opacity:1;fill-rule:nonzero;stroke:none"
           d="m 0,0 c -0.443,-0.498 -1.011,-0.747 -1.702,-0.747 -0.692,0 -1.262,0.251 -1.711,0.753 -0.449,0.502 -0.674,1.239 -0.674,2.212 0,0.988 0.219,1.727 0.656,2.218 0.438,0.49 1.014,0.735 1.729,0.735 0.715,0 1.288,-0.242 1.72,-0.727 C 0.449,3.96 0.665,3.226 0.665,2.241 0.665,1.245 0.443,0.498 0,0 M -1.72,6.653 C -2.419,6.653 -3.036,6.54 -3.571,6.313 -3.974,6.146 -4.344,5.888 -4.682,5.54 -5.02,5.192 -5.286,4.8 -5.481,4.362 -5.743,3.769 -5.874,3.034 -5.874,2.159 c 0,-1.367 0.377,-2.44 1.131,-3.22 0.754,-0.779 1.769,-1.168 3.047,-1.168 1.261,0 2.269,0.391 3.023,1.174 0.754,0.784 1.131,1.868 1.131,3.255 0,1.399 -0.38,2.49 -1.14,3.276 -0.759,0.785 -1.772,1.177 -3.038,1.177" />
      </g>
      <g
         transform="matrix(0.35277777,0,0,-0.35277777,34.889464,295.35863)"
         id="g1564">
        <path
           inkscape:connector-curvature="0"
           id="path1566"
           style="fill:#474f59;fill-opacity:1;fill-rule:nonzero;stroke:none"
           d="m 0,0 c -0.117,-0.385 -0.269,-0.661 -0.454,-0.829 -0.186,-0.168 -0.419,-0.287 -0.7,-0.358 -0.215,-0.054 -0.565,-0.082 -1.049,-0.082 h -1.295 v 5.69 h 0.779 c 0.707,0 1.182,-0.027 1.424,-0.082 0.324,-0.07 0.592,-0.205 0.803,-0.404 C -0.281,3.735 -0.117,3.458 0,3.103 0.117,2.747 0.176,2.237 0.176,1.573 0.176,0.909 0.117,0.385 0,0 M 0.867,4.919 C 0.508,5.298 0.076,5.562 -0.428,5.71 -0.803,5.819 -1.348,5.874 -2.063,5.874 h -3.169 v -8.59 h 3.263 c 0.641,0 1.153,0.061 1.535,0.182 0.512,0.164 0.918,0.392 1.219,0.685 0.399,0.387 0.705,0.893 0.92,1.518 0.176,0.512 0.264,1.121 0.264,1.828 0,0.805 -0.094,1.482 -0.282,2.03 C 1.5,4.076 1.227,4.54 0.867,4.919" />
      </g>
      <path
         inkscape:connector-curvature="0"
         id="path1568"
         style="fill:#474f59;fill-opacity:1;fill-rule:nonzero;stroke:none;stroke-width:0.35277775"
         d="m 36.084084,296.31674 h 0.61171 v -3.03036 h -0.61171 z" />
      <g
         transform="matrix(0.35277777,0,0,-0.35277777,39.120754,295.31005)"
         id="g1570">
        <path
           inkscape:connector-curvature="0"
           id="path1572"
           style="fill:#474f59;fill-opacity:1;fill-rule:nonzero;stroke:none"
           d="m 0,0 -3.516,5.736 h -1.687 v -8.59 h 1.611 v 5.602 l 3.463,-5.602 h 1.74 v 8.59 H 0 Z" />
      </g>
      <g
         transform="matrix(0.35277777,0,0,-0.35277777,41.745914,294.69202)"
         id="g1574">
        <path
           inkscape:connector-curvature="0"
           id="path1576"
           style="fill:#474f59;fill-opacity:1;fill-rule:nonzero;stroke:none"
           d="m 0,0 v -1.447 h 1.986 v -1.09 C 1.725,-2.74 1.411,-2.913 1.046,-3.056 0.681,-3.198 0.316,-3.27 -0.047,-3.27 c -0.734,0 -1.328,0.255 -1.781,0.765 -0.453,0.51 -0.68,1.275 -0.68,2.294 0,0.945 0.224,1.658 0.671,2.139 0.447,0.48 1.05,0.72 1.808,0.72 0.5,0 0.917,-0.122 1.251,-0.366 C 1.556,2.038 1.783,1.705 1.904,1.283 L 3.627,1.605 C 3.455,2.395 3.069,3.013 2.47,3.46 1.87,3.907 1.037,4.131 -0.029,4.131 -0.85,4.131 -1.535,3.988 -2.086,3.703 -2.809,3.332 -3.357,2.799 -3.732,2.104 -4.107,1.408 -4.295,0.613 -4.295,-0.281 c 0,-0.824 0.168,-1.587 0.504,-2.288 0.336,-0.702 0.838,-1.241 1.506,-1.618 0.668,-0.376 1.451,-0.565 2.349,-0.565 0.707,0 1.406,0.134 2.095,0.401 0.69,0.268 1.216,0.578 1.579,0.929 V 0 Z" />
      </g>
      <g
         transform="matrix(0.35277777,0,0,-0.35277777,62.166694,262.16961)"
         id="g1578">
        <path
           inkscape:connector-curvature="0"
           id="path1580"
           style="fill:#474f59;fill-opacity:1;fill-rule:nonzero;stroke:none"
           d="m 0,0 c 0,-42.801 -34.697,-77.5 -77.5,-77.5 -42.803,0 -77.5,34.699 -77.5,77.5 0,42.802 34.697,77.5 77.5,77.5 C -34.697,77.5 0,42.802 0,0" />
      </g>
      <path
         inkscape:connector-curvature="0"
         id="path1582"
         style="fill:#ffffff;fill-opacity:1;fill-rule:nonzero;stroke:none;stroke-width:0.35277775"
         d="m 35.422974,264.17904 h -1.19486 v 2.21544 h 1.19486 z" />
      <path
         inkscape:connector-curvature="0"
         id="path1584"
         style="fill:#cccbca;fill-opacity:1;fill-rule:nonzero;stroke:none;stroke-width:0.35277775"
         d="m 35.318904,241.27035 h -0.98919 v 1.19063 h 0.98919 z" />
      <path
         inkscape:connector-curvature="0"
         id="path1586"
         style="fill:#ffffff;fill-opacity:1;fill-rule:nonzero;stroke:none;stroke-width:0.35277775"
         d="m 35.618414,242.46098 h -1.58503 v 2.77318 h 1.58503 z" />
      <g
         transform="matrix(0.35277777,0,0,-0.35277777,35.100644,264.17914)"
         id="g1588">
        <path
           inkscape:connector-curvature="0"
           id="path1590"
           style="fill:#ffffff;fill-opacity:1;fill-rule:nonzero;stroke:none"
           d="m 0,0 h -1.565 v 4.474 c 0,0.989 -0.38,1.918 -1.078,2.612 -0.698,0.698 -1.627,1.082 -2.609,1.082 h -52.769 c -1.4,0 -2.718,0.546 -3.716,1.537 -0.993,0.998 -1.541,2.317 -1.541,3.721 0,1.404 0.548,2.724 1.54,3.717 0.999,0.991 2.318,1.537 3.717,1.537 h 98.68 c 0.984,0 1.912,0.384 2.61,1.082 0.698,0.699 1.084,1.628 1.084,2.615 0,0.987 -0.386,1.913 -1.083,2.608 -0.698,0.701 -1.625,1.083 -2.611,1.083 h -74.272 c -1.409,0 -2.73,0.547 -3.718,1.541 -0.992,0.994 -1.542,2.314 -1.542,3.717 0,1.405 0.552,2.727 1.544,3.717 0.984,0.991 2.307,1.538 3.716,1.538 h 52.734 c 0.988,0 1.914,0.384 2.609,1.08 0.7,0.701 1.085,1.63 1.085,2.617 0,0.986 -0.384,1.913 -1.082,2.609 -0.695,0.698 -1.621,1.082 -2.612,1.082 H 3.694 c -1.398,0 -2.717,0.547 -3.714,1.539 -0.997,0.997 -1.545,2.317 -1.545,3.72 v 4.474 H 0 v -4.474 c 0,-0.985 0.383,-1.914 1.084,-2.614 0.699,-0.697 1.627,-1.081 2.61,-1.081 h 15.427 c 1.409,0 2.733,-0.549 3.718,-1.542 0.99,-0.988 1.539,-2.307 1.539,-3.713 0,-1.404 -0.549,-2.727 -1.542,-3.719 -0.987,-0.993 -2.309,-1.539 -3.715,-1.539 h -52.734 c -0.991,0 -1.917,-0.385 -2.611,-1.081 -0.701,-0.698 -1.086,-1.626 -1.086,-2.613 0,-0.986 0.385,-1.913 1.084,-2.614 0.699,-0.697 1.622,-1.081 2.613,-1.081 h 74.272 c 1.404,0 2.723,-0.547 3.715,-1.54 0.993,-0.989 1.542,-2.309 1.542,-3.714 0,-1.404 -0.548,-2.725 -1.543,-3.719 -0.992,-0.993 -2.311,-1.54 -3.714,-1.54 h -98.68 c -0.982,0 -1.911,-0.385 -2.614,-1.083 -0.696,-0.696 -1.081,-1.623 -1.081,-2.609 0,-0.986 0.385,-1.914 1.083,-2.616 0.701,-0.695 1.629,-1.08 2.612,-1.08 h 52.769 c 1.398,0 2.716,-0.545 3.714,-1.538 C -0.547,7.2 0,5.88 0,4.474 Z" />
      </g>
      <path
         inkscape:connector-curvature="0"
         id="path1592"
         style="fill:#cccbca;fill-opacity:1;fill-rule:nonzero;stroke:none;stroke-width:0.35277775"
         d="m 12.777465,266.39448 h 44.097219 v 17.01236 H 12.777465 Z" />
      <path
         inkscape:connector-curvature="0"
         id="path1594"
         style="fill:#ffffff;fill-opacity:1;fill-rule:nonzero;stroke:none;stroke-width:0.35277775"
         d="m 14.226675,267.85075 h 2.19957 v 2.19216 h -2.19957 z" />
      <path
         inkscape:connector-curvature="0"
         id="path1596"
         style="fill:#ffffff;fill-opacity:1;fill-rule:nonzero;stroke:none;stroke-width:0.35277775"
         d="m 50.339474,270.73717 h 2.19851 v 2.19252 h -2.19851 z" />
      <path
         inkscape:connector-curvature="0"
         id="path1598"
         style="fill:#ffffff;fill-opacity:1;fill-rule:nonzero;stroke:none;stroke-width:0.35277775"
         d="m 47.454464,270.73717 h 2.19533 v 2.19252 h -2.19533 z" />
      <path
         inkscape:connector-curvature="0"
         id="path1600"
         style="fill:#ffffff;fill-opacity:1;fill-rule:nonzero;stroke:none;stroke-width:0.35277775"
         d="m 44.565214,270.73717 h 2.19286 v 2.19252 h -2.19286 z" />
      <path
         inkscape:connector-curvature="0"
         id="path1602"
         style="fill:#ffffff;fill-opacity:1;fill-rule:nonzero;stroke:none;stroke-width:0.35277775"
         d="m 41.672784,270.73717 h 2.19957 v 2.19252 h -2.19957 z" />
      <path
         inkscape:connector-curvature="0"
         id="path1604"
         style="fill:#ffffff;fill-opacity:1;fill-rule:nonzero;stroke:none;stroke-width:0.35277775"
         d="m 38.786714,270.73717 h 2.19533 v 2.19252 h -2.19533 z" />
      <path
         inkscape:connector-curvature="0"
         id="path1606"
         style="fill:#ffffff;fill-opacity:1;fill-rule:nonzero;stroke:none;stroke-width:0.35277775"
         d="m 35.897464,270.73717 h 2.19604 v 2.19252 h -2.19604 z" />
      <path
         inkscape:connector-curvature="0"
         id="path1608"
         style="fill:#ffffff;fill-opacity:1;fill-rule:nonzero;stroke:none;stroke-width:0.35277775"
         d="m 33.007854,270.73717 h 2.19887 v 2.19252 h -2.19887 z" />
      <path
         inkscape:connector-curvature="0"
         id="path1610"
         style="fill:#ffffff;fill-opacity:1;fill-rule:nonzero;stroke:none;stroke-width:0.35277775"
         d="m 30.116844,270.73717 h 2.19992 v 2.19252 h -2.19992 z" />
      <path
         inkscape:connector-curvature="0"
         id="path1612"
         style="fill:#ffffff;fill-opacity:1;fill-rule:nonzero;stroke:none;stroke-width:0.35277775"
         d="m 27.230765,270.73717 h 2.19534 v 2.19252 h -2.19534 z" />
      <path
         inkscape:connector-curvature="0"
         id="path1614"
         style="fill:#ffffff;fill-opacity:1;fill-rule:nonzero;stroke:none;stroke-width:0.35277775"
         d="m 24.340815,270.73717 h 2.19745 v 2.19252 h -2.19745 z" />
      <path
         inkscape:connector-curvature="0"
         id="path1616"
         style="fill:#ffffff;fill-opacity:1;fill-rule:nonzero;stroke:none;stroke-width:0.35277775"
         d="m 21.451565,270.73717 h 2.20027 v 2.19252 h -2.20027 z" />
      <path
         inkscape:connector-curvature="0"
         id="path1618"
         style="fill:#ffffff;fill-opacity:1;fill-rule:nonzero;stroke:none;stroke-width:0.35277775"
         d="m 18.565845,270.73717 h 2.19639 v 2.19252 h -2.19639 z" />
      <path
         inkscape:connector-curvature="0"
         id="path1620"
         style="fill:#ffffff;fill-opacity:1;fill-rule:nonzero;stroke:none;stroke-width:0.35277775"
         d="m 19.259405,273.61972 h 2.19463 v 2.1964 h -2.19463 z" />
      <path
         inkscape:connector-curvature="0"
         id="path1622"
         style="fill:#ffffff;fill-opacity:1;fill-rule:nonzero;stroke:none;stroke-width:0.35277775"
         d="m 17.847585,276.5125 h 2.19569 v 2.19393 h -2.19569 z" />
      <path
         inkscape:connector-curvature="0"
         id="path1624"
         style="fill:#ffffff;fill-opacity:1;fill-rule:nonzero;stroke:none;stroke-width:0.35277775"
         d="m 20.733305,276.5125 h 2.19992 v 2.19393 h -2.19992 z" />
      <path
         inkscape:connector-curvature="0"
         id="path1626"
         style="fill:#ffffff;fill-opacity:1;fill-rule:nonzero;stroke:none;stroke-width:0.35277775"
         d="m 23.623615,276.5125 h 2.19428 v 2.19393 h -2.19428 z" />
      <path
         inkscape:connector-curvature="0"
         id="path1628"
         style="fill:#ffffff;fill-opacity:1;fill-rule:nonzero;stroke:none;stroke-width:0.35277775"
         d="m 26.513575,276.5125 h 2.19427 v 2.19393 h -2.19427 z" />
      <path
         inkscape:connector-curvature="0"
         id="path1630"
         style="fill:#ffffff;fill-opacity:1;fill-rule:nonzero;stroke:none;stroke-width:0.35277775"
         d="m 29.397525,276.5125 h 2.199569 v 2.19393 h -2.199569 z" />
      <path
         inkscape:connector-curvature="0"
         id="path1632"
         style="fill:#ffffff;fill-opacity:1;fill-rule:nonzero;stroke:none;stroke-width:0.35277775"
         d="m 32.288894,276.5125 h 2.19357 v 2.19393 h -2.19357 z" />
      <path
         inkscape:connector-curvature="0"
         id="path1634"
         style="fill:#ffffff;fill-opacity:1;fill-rule:nonzero;stroke:none;stroke-width:0.35277775"
         d="m 35.178144,276.5125 h 2.19322 v 2.19393 h -2.19322 z" />
      <path
         inkscape:connector-curvature="0"
         id="path1636"
         style="fill:#ffffff;fill-opacity:1;fill-rule:nonzero;stroke:none;stroke-width:0.35277775"
         d="m 38.062454,276.5125 h 2.19957 v 2.19393 h -2.19957 z" />
      <path
         inkscape:connector-curvature="0"
         id="path1638"
         style="fill:#ffffff;fill-opacity:1;fill-rule:nonzero;stroke:none;stroke-width:0.35277775"
         d="m 40.953474,276.5125 h 2.19815 v 2.19393 h -2.19815 z" />
      <path
         inkscape:connector-curvature="0"
         id="path1640"
         style="fill:#ffffff;fill-opacity:1;fill-rule:nonzero;stroke:none;stroke-width:0.35277775"
         d="m 43.843424,276.5125 h 2.1964 v 2.19393 h -2.1964 z" />
      <path
         inkscape:connector-curvature="0"
         id="path1642"
         style="fill:#ffffff;fill-opacity:1;fill-rule:nonzero;stroke:none;stroke-width:0.35277775"
         d="m 46.728794,276.5125 h 2.19851 v 2.19393 h -2.19851 z" />
      <path
         inkscape:connector-curvature="0"
         id="path1644"
         style="fill:#ffffff;fill-opacity:1;fill-rule:nonzero;stroke:none;stroke-width:0.35277775"
         d="m 49.613814,276.5125 h 5.8099 v 2.19393 h -5.8099 z" />
      <path
         inkscape:connector-curvature="0"
         id="path1646"
         style="fill:#ffffff;fill-opacity:1;fill-rule:nonzero;stroke:none;stroke-width:0.35277775"
         d="m 22.149355,273.61972 h 2.19393 v 2.1964 h -2.19393 z" />
      <path
         inkscape:connector-curvature="0"
         id="path1648"
         style="fill:#ffffff;fill-opacity:1;fill-rule:nonzero;stroke:none;stroke-width:0.35277775"
         d="m 25.035075,273.61972 h 2.19922 v 2.1964 h -2.19922 z" />
      <path
         inkscape:connector-curvature="0"
         id="path1650"
         style="fill:#ffffff;fill-opacity:1;fill-rule:nonzero;stroke:none;stroke-width:0.35277775"
         d="m 27.924685,273.61972 h 2.192509 v 2.1964 h -2.192509 z" />
      <path
         inkscape:connector-curvature="0"
         id="path1652"
         style="fill:#ffffff;fill-opacity:1;fill-rule:nonzero;stroke:none;stroke-width:0.35277775"
         d="m 30.812164,273.61972 h 2.1971 v 2.1964 h -2.1971 z" />
      <path
         inkscape:connector-curvature="0"
         id="path1654"
         style="fill:#ffffff;fill-opacity:1;fill-rule:nonzero;stroke:none;stroke-width:0.35277775"
         d="m 33.697534,273.61972 h 2.19993 v 2.1964 h -2.19993 z" />
      <path
         inkscape:connector-curvature="0"
         id="path1656"
         style="fill:#ffffff;fill-opacity:1;fill-rule:nonzero;stroke:none;stroke-width:0.35277775"
         d="m 36.586784,273.61972 h 2.1964 v 2.1964 h -2.1964 z" />
      <path
         inkscape:connector-curvature="0"
         id="path1658"
         style="fill:#ffffff;fill-opacity:1;fill-rule:nonzero;stroke:none;stroke-width:0.35277775"
         d="m 39.476034,273.61972 h 2.1964 v 2.1964 h -2.1964 z" />
      <path
         inkscape:connector-curvature="0"
         id="path1660"
         style="fill:#ffffff;fill-opacity:1;fill-rule:nonzero;stroke:none;stroke-width:0.35277775"
         d="m 42.362814,273.61972 h 2.19887 v 2.1964 h -2.19887 z" />
      <path
         inkscape:connector-curvature="0"
         id="path1662"
         style="fill:#ffffff;fill-opacity:1;fill-rule:nonzero;stroke:none;stroke-width:0.35277775"
         d="m 45.251714,273.61972 h 2.19992 v 2.1964 h -2.19992 z" />
      <path
         inkscape:connector-curvature="0"
         id="path1664"
         style="fill:#ffffff;fill-opacity:1;fill-rule:nonzero;stroke:none;stroke-width:0.35277775"
         d="m 48.141314,273.61972 h 2.19428 v 2.1964 h -2.19428 z" />
      <path
         inkscape:connector-curvature="0"
         id="path1666"
         style="fill:#ffffff;fill-opacity:1;fill-rule:nonzero;stroke:none;stroke-width:0.35277775"
         d="m 51.027394,273.61972 h 2.19745 v 2.1964 h -2.19745 z" />
      <path
         inkscape:connector-curvature="0"
         id="path1668"
         style="fill:#ffffff;fill-opacity:1;fill-rule:nonzero;stroke:none;stroke-width:0.35277775"
         d="m 17.118045,267.85075 h 2.19745 v 2.19216 h -2.19745 z" />
      <path
         inkscape:connector-curvature="0"
         id="path1670"
         style="fill:#ffffff;fill-opacity:1;fill-rule:nonzero;stroke:none;stroke-width:0.35277775"
         d="m 20.007295,267.85075 h 2.19463 v 2.19216 h -2.19463 z" />
      <path
         inkscape:connector-curvature="0"
         id="path1672"
         style="fill:#ffffff;fill-opacity:1;fill-rule:nonzero;stroke:none;stroke-width:0.35277775"
         d="m 22.897955,267.85075 h 2.19357 v 2.19216 h -2.19357 z" />
      <path
         inkscape:connector-curvature="0"
         id="path1674"
         style="fill:#ffffff;fill-opacity:1;fill-rule:nonzero;stroke:none;stroke-width:0.35277775"
         d="m 25.780855,267.85075 h 2.19992 v 2.19216 h -2.19992 z" />
      <path
         inkscape:connector-curvature="0"
         id="path1676"
         style="fill:#ffffff;fill-opacity:1;fill-rule:nonzero;stroke:none;stroke-width:0.35277775"
         d="m 28.672925,267.85075 h 2.193919 v 2.19216 h -2.193919 z" />
      <path
         inkscape:connector-curvature="0"
         id="path1678"
         style="fill:#ffffff;fill-opacity:1;fill-rule:nonzero;stroke:none;stroke-width:0.35277775"
         d="m 31.563934,267.85075 h 2.19181 v 2.19216 h -2.19181 z" />
      <path
         inkscape:connector-curvature="0"
         id="path1680"
         style="fill:#ffffff;fill-opacity:1;fill-rule:nonzero;stroke:none;stroke-width:0.35277775"
         d="m 34.448954,267.85075 h 2.19745 v 2.19216 h -2.19745 z" />
      <path
         inkscape:connector-curvature="0"
         id="path1682"
         style="fill:#ffffff;fill-opacity:1;fill-rule:nonzero;stroke:none;stroke-width:0.35277775"
         d="m 37.338204,267.85075 h 2.19745 v 2.19216 h -2.19745 z" />
      <path
         inkscape:connector-curvature="0"
         id="path1684"
         style="fill:#ffffff;fill-opacity:1;fill-rule:nonzero;stroke:none;stroke-width:0.35277775"
         d="m 40.227804,267.85075 h 2.19499 v 2.19216 h -2.19499 z" />
      <path
         inkscape:connector-curvature="0"
         id="path1686"
         style="fill:#ffffff;fill-opacity:1;fill-rule:nonzero;stroke:none;stroke-width:0.35277775"
         d="m 43.112474,267.85075 h 2.19921 v 2.19216 h -2.19921 z" />
      <path
         inkscape:connector-curvature="0"
         id="path1688"
         style="fill:#ffffff;fill-opacity:1;fill-rule:nonzero;stroke:none;stroke-width:0.35277775"
         d="m 46.003134,267.85075 h 2.19674 v 2.19216 h -2.19674 z" />
      <path
         inkscape:connector-curvature="0"
         id="path1690"
         style="fill:#ffffff;fill-opacity:1;fill-rule:nonzero;stroke:none;stroke-width:0.35277775"
         d="m 48.892024,267.85075 h 2.19428 v 2.19216 h -2.19428 z" />
      <path
         inkscape:connector-curvature="0"
         id="path1692"
         style="fill:#ffffff;fill-opacity:1;fill-rule:nonzero;stroke:none;stroke-width:0.35277775"
         d="m 51.777044,267.85075 h 3.64455 v 2.19216 h -3.64455 z" />
      <path
         inkscape:connector-curvature="0"
         id="path1694"
         style="fill:#ffffff;fill-opacity:1;fill-rule:nonzero;stroke:none;stroke-width:0.35277775"
         d="m 14.226675,270.73576 h 3.6449 v 2.19252 h -3.6449 z" />
      <path
         inkscape:connector-curvature="0"
         id="path1696"
         style="fill:#ffffff;fill-opacity:1;fill-rule:nonzero;stroke:none;stroke-width:0.35277775"
         d="m 14.226675,273.61972 h 4.34375 v 2.1964 h -4.34375 z" />
      <path
         inkscape:connector-curvature="0"
         id="path1698"
         style="fill:#ffffff;fill-opacity:1;fill-rule:nonzero;stroke:none;stroke-width:0.35277775"
         d="m 14.226675,276.5125 h 2.92805 v 2.19393 h -2.92805 z" />
      <path
         inkscape:connector-curvature="0"
         id="path1700"
         style="fill:#ffffff;fill-opacity:1;fill-rule:nonzero;stroke:none;stroke-width:0.35277775"
         d="m 14.226675,279.39822 h 2.20027 v 2.55976 h -2.20027 z" />
      <path
         inkscape:connector-curvature="0"
         id="path1702"
         style="fill:#ffffff;fill-opacity:1;fill-rule:nonzero;stroke:none;stroke-width:0.35277775"
         d="m 17.109925,279.39822 h 2.19499 v 2.55976 h -2.19499 z" />
      <path
         inkscape:connector-curvature="0"
         id="path1704"
         style="fill:#ffffff;fill-opacity:1;fill-rule:nonzero;stroke:none;stroke-width:0.35277775"
         d="m 19.987885,279.39822 h 2.19957 v 2.55976 h -2.19957 z" />
      <path
         inkscape:connector-curvature="0"
         id="path1706"
         style="fill:#ffffff;fill-opacity:1;fill-rule:nonzero;stroke:none;stroke-width:0.35277775"
         d="m 22.868675,279.39822 h 2.94745 v 2.55976 h -2.94745 z" />
      <path
         inkscape:connector-curvature="0"
         id="path1708"
         style="fill:#ffffff;fill-opacity:1;fill-rule:nonzero;stroke:none;stroke-width:0.35277775"
         d="m 26.511455,279.39822 h 13.750919 v 2.55976 H 26.511455 Z" />
      <path
         inkscape:connector-curvature="0"
         id="path1710"
         style="fill:#ffffff;fill-opacity:1;fill-rule:nonzero;stroke:none;stroke-width:0.35277775"
         d="m 40.952064,279.39822 h 2.95063 v 2.55976 h -2.95063 z" />
      <path
         inkscape:connector-curvature="0"
         id="path1712"
         style="fill:#ffffff;fill-opacity:1;fill-rule:nonzero;stroke:none;stroke-width:0.35277775"
         d="m 44.587784,279.39822 h 2.19569 v 2.55976 h -2.19569 z" />
      <path
         inkscape:connector-curvature="0"
         id="path1714"
         style="fill:#ffffff;fill-opacity:1;fill-rule:nonzero;stroke:none;stroke-width:0.35277775"
         d="m 47.473514,280.76453 h 2.19851 v 1.19345 h -2.19851 z" />
      <path
         inkscape:connector-curvature="0"
         id="path1716"
         style="fill:#ffffff;fill-opacity:1;fill-rule:nonzero;stroke:none;stroke-width:0.35277775"
         d="m 50.351474,280.83579 h 2.19604 v 1.12254 h -2.19604 z" />
      <path
         inkscape:connector-curvature="0"
         id="path1718"
         style="fill:#ffffff;fill-opacity:1;fill-rule:nonzero;stroke:none;stroke-width:0.35277775"
         d="m 50.351474,279.39152 h 2.19604 v 1.12501 h -2.19604 z" />
      <path
         inkscape:connector-curvature="0"
         id="path1720"
         style="fill:#ffffff;fill-opacity:1;fill-rule:nonzero;stroke:none;stroke-width:0.35277775"
         d="m 53.228374,280.76453 h 2.19463 v 1.19345 h -2.19463 z" />
      <g
         transform="matrix(0.35277777,0,0,-0.35277777,53.914314,275.81598)"
         id="g1722">
        <path
           inkscape:connector-curvature="0"
           id="path1724"
           style="fill:#ffffff;fill-opacity:1;fill-rule:nonzero;stroke:none"
           d="m 0,0 v 8.182 h -1.941 v 6.214 H 4.278 V 0 Z" />
      </g>
      <g
         transform="matrix(0.35277777,0,0,-0.35277777,51.220254,248.42024)"
         id="g1726">
        <path
           inkscape:connector-curvature="0"
           id="path1728"
           style="fill:#ffffff;fill-opacity:1;fill-rule:nonzero;stroke:none"
           d="M 0,0 C -0.361,0 -0.702,-0.142 -0.961,-0.4 -1.22,-0.66 -1.363,-1.004 -1.363,-1.368 v -2.969 c 0,-0.363 0.142,-0.706 0.402,-0.964 0.523,-0.527 1.419,-0.516 1.929,-0.002 0.261,0.26 0.404,0.602 0.404,0.966 v 2.969 c 0,0.364 -0.144,0.708 -0.404,0.969 C 0.711,-0.142 0.367,0 0,0 m 0,-7.13 c -0.743,0 -1.442,0.292 -1.97,0.821 -0.528,0.527 -0.818,1.228 -0.818,1.972 v 2.969 c 0,0.743 0.29,1.444 0.818,1.975 1.06,1.06 2.897,1.052 3.948,0.002 0.529,-0.531 0.819,-1.233 0.819,-1.977 V -4.337 C 2.797,-5.083 2.505,-5.784 1.976,-6.311 1.451,-6.838 0.749,-7.13 0,-7.13" />
      </g>
      <g
         transform="matrix(0.35277777,0,0,-0.35277777,53.945324,248.42024)"
         id="g1730">
        <path
           inkscape:connector-curvature="0"
           id="path1732"
           style="fill:#ffffff;fill-opacity:1;fill-rule:nonzero;stroke:none"
           d="M 0,0 C -0.362,0 -0.707,-0.144 -0.971,-0.403 -1.222,-0.656 -1.363,-1 -1.363,-1.368 v -2.969 c 0,-0.367 0.14,-0.71 0.395,-0.964 0.523,-0.518 1.427,-0.512 1.934,-0.003 0.262,0.262 0.405,0.605 0.405,0.967 v 2.969 c 0,0.363 -0.143,0.707 -0.404,0.97 C 0.714,-0.146 0.361,0 0,0 m 0,-7.13 c -0.74,0 -1.441,0.291 -1.973,0.818 -0.527,0.526 -0.815,1.227 -0.815,1.975 v 2.969 c 0,0.747 0.288,1.449 0.811,1.975 1.073,1.059 2.914,1.042 3.955,0.001 0.528,-0.532 0.819,-1.234 0.819,-1.976 V -4.337 C 2.797,-5.081 2.505,-5.781 1.976,-6.31 1.46,-6.831 0.738,-7.13 0,-7.13" />
      </g>
      <g
         transform="matrix(0.35277777,0,0,-0.35277777,12.451215,252.0493)"
         id="g1734">
        <path
           inkscape:connector-curvature="0"
           id="path1736"
           style="fill:#ffffff;fill-opacity:1;fill-rule:nonzero;stroke:none"
           d="M 0,0 C -0.361,0 -0.702,-0.143 -0.959,-0.402 -1.221,-0.661 -1.363,-1.003 -1.363,-1.368 V -4.34 c 0,-0.364 0.142,-0.706 0.401,-0.962 0.52,-0.522 1.415,-0.516 1.933,-0.001 0.253,0.253 0.398,0.605 0.398,0.963 v 2.972 c 0,0.365 -0.142,0.707 -0.4,0.966 C 0.709,-0.144 0.365,0 0,0 m 0,-7.129 c -0.744,0 -1.443,0.29 -1.97,0.817 -0.526,0.524 -0.819,1.225 -0.819,1.972 v 2.972 c 0,0.748 0.293,1.449 0.822,1.975 0.525,0.527 1.224,0.818 1.967,0.818 0.744,0 1.445,-0.29 1.977,-0.819 0.527,-0.528 0.818,-1.23 0.818,-1.974 V -4.34 C 2.795,-5.073 2.498,-5.792 1.979,-6.312 1.447,-6.84 0.745,-7.129 0,-7.129" />
      </g>
      <g
         transform="matrix(0.35277777,0,0,-0.35277777,15.176285,252.0493)"
         id="g1738">
        <path
           inkscape:connector-curvature="0"
           id="path1740"
           style="fill:#ffffff;fill-opacity:1;fill-rule:nonzero;stroke:none"
           d="M 0,0 C -0.361,0 -0.703,-0.144 -0.963,-0.403 -1.224,-0.658 -1.364,-0.999 -1.364,-1.368 V -4.34 c 0,-0.368 0.14,-0.709 0.397,-0.959 0.53,-0.528 1.422,-0.517 1.934,-0.006 0.256,0.256 0.402,0.607 0.402,0.965 v 2.972 c 0,0.365 -0.142,0.706 -0.4,0.965 C 0.707,-0.144 0.363,0 0,0 m 0,-7.129 c -0.743,0 -1.442,0.289 -1.971,0.816 -0.525,0.516 -0.818,1.218 -0.818,1.973 v 2.972 c 0,0.756 0.293,1.458 0.822,1.979 1.054,1.05 2.89,1.049 3.944,-0.006 0.526,-0.526 0.818,-1.227 0.818,-1.973 V -4.34 C 2.795,-5.075 2.496,-5.794 1.974,-6.313 1.447,-6.839 0.746,-7.129 0,-7.129" />
      </g>
      <g
         transform="matrix(0.35277777,0,0,-0.35277777,16.916395,252.53109)"
         id="g1742">
        <path
           inkscape:connector-curvature="0"
           id="path1744"
           style="fill:#ffffff;fill-opacity:1;fill-rule:nonzero;stroke:none"
           d="m 0,0 v 1.425 c 0.364,0 0.705,0.141 0.96,0.397 0.262,0.26 0.404,0.603 0.404,0.969 H 2.79 C 2.79,2.042 2.499,1.339 1.967,0.813 1.446,0.29 0.747,0 0,0" />
      </g>
      <path
         inkscape:connector-curvature="0"
         id="path1746"
         style="fill:#ffffff;fill-opacity:1;fill-rule:nonzero;stroke:none;stroke-width:0.35277775"
         d="m 17.900505,254.56443 h -0.50306 v -3.01801 h 0.50306 z" />
      <g
         transform="matrix(0.35277777,0,0,-0.35277777,43.914584,262.02113)"
         id="g1748">
        <path
           inkscape:connector-curvature="0"
           id="path1750"
           style="fill:#ffffff;fill-opacity:1;fill-rule:nonzero;stroke:none"
           d="m 0,0 c -0.369,0 -0.712,-0.142 -0.969,-0.398 -0.26,-0.262 -0.404,-0.606 -0.404,-0.97 v -2.971 c 0,-0.363 0.143,-0.704 0.402,-0.962 0.518,-0.516 1.403,-0.526 1.934,0.001 0.257,0.255 0.399,0.597 0.399,0.961 v 2.971 c 0,0.365 -0.142,0.709 -0.402,0.969 C 0.702,-0.143 0.361,0 0,0 m 0,-7.13 c -0.746,0 -1.449,0.291 -1.978,0.82 -0.529,0.526 -0.82,1.226 -0.82,1.971 v 2.971 c 0,0.744 0.29,1.445 0.819,1.976 1.042,1.047 2.884,1.061 3.948,0.001 0.528,-0.53 0.818,-1.232 0.818,-1.977 v -2.971 c 0,-0.746 -0.29,-1.446 -0.819,-1.973 C 1.435,-6.839 0.736,-7.13 0,-7.13" />
      </g>
      <g
         transform="matrix(0.35277777,0,0,-0.35277777,45.652294,262.50309)"
         id="g1752">
        <path
           inkscape:connector-curvature="0"
           id="path1754"
           style="fill:#ffffff;fill-opacity:1;fill-rule:nonzero;stroke:none"
           d="m 0,0 v 1.425 c 0.368,0 0.711,0.142 0.963,0.398 0.261,0.26 0.402,0.602 0.402,0.968 H 2.791 C 2.791,2.043 2.501,1.342 1.976,0.818 1.457,0.292 0.753,0 0,0" />
      </g>
      <path
         inkscape:connector-curvature="0"
         id="path1756"
         style="fill:#ffffff;fill-opacity:1;fill-rule:nonzero;stroke:none;stroke-width:0.35277775"
         d="m 46.637074,264.5364 h -0.50306 v -3.01801 h 0.50306 z" />
      <g
         transform="matrix(0.35277777,0,0,-0.35277777,41.188494,262.50309)"
         id="g1758">
        <path
           inkscape:connector-curvature="0"
           id="path1760"
           style="fill:#ffffff;fill-opacity:1;fill-rule:nonzero;stroke:none"
           d="m 0,0 v 1.425 c 0.365,0 0.71,0.143 0.971,0.403 0.254,0.254 0.394,0.596 0.394,0.963 H 2.79 C 2.79,2.043 2.502,1.343 1.978,0.819 1.446,0.29 0.745,0 0,0" />
      </g>
      <path
         inkscape:connector-curvature="0"
         id="path1762"
         style="fill:#ffffff;fill-opacity:1;fill-rule:nonzero;stroke:none;stroke-width:0.35277775"
         d="m 42.172674,264.5364 h -0.50271 v -3.01801 h 0.50271 z" />
      <g
         transform="matrix(0.35277777,0,0,-0.35277777,31.216664,238.47925)"
         id="g1764">
        <path
           inkscape:connector-curvature="0"
           id="path1766"
           style="fill:#ffffff;fill-opacity:1;fill-rule:nonzero;stroke:none"
           d="M 0,0 C -2.473,0 -4.47,-2.007 -4.47,-4.473 -4.47,-2.007 -6.47,0 -8.941,0 -6.47,0 -4.47,2.009 -4.47,4.472 -4.47,2.009 -2.473,0 0,0" />
      </g>
      <g
         transform="matrix(0.35277777,0,0,-0.35277777,40.841924,245.73222)"
         id="g1768">
        <path
           inkscape:connector-curvature="0"
           id="path1770"
           style="fill:#ffffff;fill-opacity:1;fill-rule:nonzero;stroke:none"
           d="M 0,0 C -1.289,0 -2.339,-1.047 -2.339,-2.336 -2.339,-1.047 -3.385,0 -4.671,0 -3.385,0 -2.339,1.051 -2.339,2.337 -2.339,1.051 -1.289,0 0,0" />
      </g>
      <g
         transform="matrix(0.35277777,0,0,-0.35277777,44.244644,240.44552)"
         id="g1772">
        <path
           inkscape:connector-curvature="0"
           id="path1774"
           style="fill:#ffffff;fill-opacity:1;fill-rule:nonzero;stroke:none"
           d="M 0,0 C -1.29,0 -2.339,-1.051 -2.339,-2.338 -2.339,-1.051 -3.381,0 -4.671,0 -3.381,0 -2.339,1.05 -2.339,2.337 -2.339,1.05 -1.29,0 0,0" />
      </g>
      <path
         inkscape:connector-curvature="0"
         id="path1776"
         style="fill:#f77b55;fill-opacity:1;fill-rule:nonzero;stroke:none;stroke-width:0.35277775"
         d="m 25.576245,240.18309 h -11.05853 v 5.87516 h 11.05853 z" />
      <g
         transform="matrix(0.35277777,0,0,-0.35277777,17.248535,243.40589)"
         id="g1778">
        <path
           inkscape:connector-curvature="0"
           id="path1780"
           style="fill:#ffffff;fill-opacity:1;fill-rule:nonzero;stroke:none"
           d="M 0,0 1.136,3.121 2.298,0 Z M 0.257,5.084 -3.02,-3.328 h 1.8 l 0.7,1.911 H 2.841 L 3.577,-3.328 H 5.425 L 2.058,5.084 Z" />
      </g>
      <g
         transform="matrix(0.35277777,0,0,-0.35277777,20.836565,244.01913)"
         id="g1782">
        <path
           inkscape:connector-curvature="0"
           id="path1784"
           style="fill:#ffffff;fill-opacity:1;fill-rule:nonzero;stroke:none"
           d="m 0,0 c -0.256,-0.304 -0.561,-0.454 -0.912,-0.454 -0.466,0 -0.834,0.215 -1.113,0.643 -0.202,0.299 -0.299,0.768 -0.299,1.399 0,0.611 0.127,1.069 0.383,1.37 0.254,0.3 0.578,0.448 0.962,0.448 0.399,0 0.717,-0.152 0.975,-0.46 C 0.248,2.637 0.373,2.134 0.373,1.439 0.373,0.784 0.248,0.306 0,0 m -0.548,4.642 c -0.68,0 -1.27,-0.283 -1.764,-0.85 v 3.03 H -3.927 V -1.59 h 1.503 v 0.894 c 0.242,-0.34 0.533,-0.599 0.871,-0.771 0.338,-0.176 0.684,-0.263 1.028,-0.263 0.709,0 1.312,0.283 1.811,0.845 0.491,0.562 0.737,1.365 0.737,2.405 0,1.006 -0.241,1.778 -0.727,2.313 -0.485,0.54 -1.099,0.809 -1.844,0.809" />
      </g>
      <g
         transform="matrix(0.35277777,0,0,-0.35277777,23.353565,243.75627)"
         id="g1786">
        <path
           inkscape:connector-curvature="0"
           id="path1788"
           style="fill:#ffffff;fill-opacity:1;fill-rule:nonzero;stroke:none"
           d="m 0,0 c -0.081,-0.424 -0.219,-0.725 -0.417,-0.9 -0.19,-0.173 -0.44,-0.261 -0.747,-0.261 -0.407,0 -0.736,0.15 -0.978,0.45 -0.246,0.298 -0.368,0.807 -0.368,1.53 0,0.651 0.119,1.117 0.364,1.394 0.236,0.277 0.558,0.416 0.959,0.416 0.302,0 0.546,-0.082 0.74,-0.243 0.183,-0.159 0.31,-0.398 0.359,-0.718 L 1.504,1.955 C 1.309,2.61 1.001,3.097 0.562,3.417 0.123,3.736 -0.468,3.896 -1.21,3.896 c -0.911,0 -1.632,-0.279 -2.161,-0.84 -0.529,-0.56 -0.793,-1.344 -0.793,-2.35 0,-0.995 0.262,-1.774 0.791,-2.336 0.526,-0.562 1.24,-0.845 2.132,-0.845 0.788,0 1.409,0.186 1.878,0.558 0.467,0.371 0.786,0.92 0.944,1.648 z" />
      </g>
      <g
         transform="matrix(0.35277777,0,0,-0.35277777,60.635704,260.3158)"
         id="g1790">
        <path
           inkscape:connector-curvature="0"
           id="path1792"
           style="fill:#92deeb;fill-opacity:1;fill-rule:nonzero;stroke:none"
           d="M 0,0 C 0,-6.074 -4.924,-11.003 -11.004,-11.003 -17.075,-11.003 -22,-6.074 -22,0 c 0,6.078 4.925,11.004 10.996,11.004 C -4.924,11.004 0,6.078 0,0" />
      </g>
      <g
         transform="matrix(0.35277777,0,0,-0.35277777,55.457714,261.56019)"
         id="g1794">
        <path
           inkscape:connector-curvature="0"
           id="path1796"
           style="fill:#ffffff;fill-opacity:1;fill-rule:nonzero;stroke:none"
           d="M 0,0 -3.529,3.527 0,7.058 0.895,6.165 -1.743,3.528 0.895,0.894 Z" />
      </g>
      <g
         transform="matrix(0.35277777,0,0,-0.35277777,58.052584,261.56019)"
         id="g1798">
        <path
           inkscape:connector-curvature="0"
           id="path1800"
           style="fill:#ffffff;fill-opacity:1;fill-rule:nonzero;stroke:none"
           d="m 0,0 -0.894,0.894 2.64,2.634 -2.641,2.637 0.896,0.893 3.53,-3.531 z" />
      </g>
      <g
         transform="matrix(0.35277777,0,0,-0.35277777,56.471284,262.12844)"
         id="g1802">
        <path
           inkscape:connector-curvature="0"
           id="path1804"
           style="fill:#ffffff;fill-opacity:1;fill-rule:nonzero;stroke:none"
           d="M 0,0 -1.215,0.345 1.604,10.277 2.819,9.932 Z" />
      </g>
    </g>
  </g>
</svg>
