<?xml version="1.0" encoding="UTF-8" standalone="no"?>
<!-- Created with Inkscape (http://www.inkscape.org/) -->

<svg
   xmlns:dc="http://purl.org/dc/elements/1.1/"
   xmlns:cc="http://creativecommons.org/ns#"
   xmlns:rdf="http://www.w3.org/1999/02/22-rdf-syntax-ns#"
   xmlns:svg="http://www.w3.org/2000/svg"
   xmlns="http://www.w3.org/2000/svg"
   xmlns:sodipodi="http://sodipodi.sourceforge.net/DTD/sodipodi-0.dtd"
   xmlns:inkscape="http://www.inkscape.org/namespaces/inkscape"
   width="256"
   height="256"
   viewBox="0 0 67.733332 67.733336"
   version="1.1"
   id="svg5531"
   inkscape:version="0.92.4 (unknown)"
   sodipodi:docname="qa.svg"
   inkscape:export-filename="/home/kordax/Projects/kordasoft/graphics/packs/icons/qa.png"
   inkscape:export-xdpi="96"
   inkscape:export-ydpi="96">
  <defs
     id="defs5525" />
  <sodipodi:namedview
     id="base"
     pagecolor="#ffffff"
     bordercolor="#666666"
     borderopacity="1.0"
     inkscape:pageopacity="0.0"
     inkscape:pageshadow="2"
     inkscape:zoom="0.98994949"
     inkscape:cx="-118.1848"
     inkscape:cy="92.067163"
     inkscape:document-units="mm"
     inkscape:current-layer="layer1"
     showgrid="false"
     units="px"
     inkscape:window-width="1920"
     inkscape:window-height="1015"
     inkscape:window-x="0"
     inkscape:window-y="0"
     inkscape:window-maximized="1"
     inkscape:snap-bbox="true"
     inkscape:bbox-paths="true"
     inkscape:bbox-nodes="true"
     inkscape:snap-bbox-edge-midpoints="true"
     inkscape:snap-bbox-midpoints="true"
     inkscape:object-paths="true"
     inkscape:snap-intersection-paths="false"
     inkscape:snap-smooth-nodes="true"
     inkscape:snap-midpoints="true"
     inkscape:snap-object-midpoints="true"
     inkscape:snap-center="true"
     inkscape:snap-text-baseline="true"
     inkscape:snap-page="true" />
  <metadata
     id="metadata5528">
    <rdf:RDF>
      <cc:Work
         rdf:about="">
        <dc:format>image/svg+xml</dc:format>
        <dc:type
           rdf:resource="http://purl.org/dc/dcmitype/StillImage" />
        <dc:title></dc:title>
      </cc:Work>
    </rdf:RDF>
  </metadata>
  <g
     inkscape:label="Layer 1"
     inkscape:groupmode="layer"
     id="layer1"
     transform="translate(0,-229.26665)">
    <g
       id="g9540"
       transform="translate(4.7624998,11.301487)">
      <g
         transform="matrix(0.35277777,0,0,-0.35277777,56.444444,251.83183)"
         id="g3356">
        <path
           inkscape:connector-curvature="0"
           id="path3358"
           style="fill:#474f59;fill-opacity:1;fill-rule:nonzero;stroke:none"
           d="m 0,0 c 0,-42.802 -34.697,-77.5 -77.5,-77.5 -42.803,0 -77.5,34.698 -77.5,77.5 0,42.803 34.697,77.5 77.5,77.5 C -34.697,77.5 0,42.803 0,0" />
      </g>
      <g
         transform="matrix(0.35277777,0,0,-0.35277777,37.004448,270.01953)"
         id="g3360">
        <path
           inkscape:connector-curvature="0"
           id="path3362"
           style="fill:#e6e5e5;fill-opacity:1;fill-rule:nonzero;stroke:none"
           d="m 0,0 h -32.713 l 2.969,16.686 h 26.769 z" />
      </g>
      <g
         transform="matrix(0.35277777,0,0,-0.35277777,37.004448,270.01953)"
         id="g3364">
        <path
           inkscape:connector-curvature="0"
           id="path3366"
           style="fill:#cccbca;fill-opacity:1;fill-rule:nonzero;stroke:none"
           d="M 0,0 -2.975,16.686 H -29.744 L -8.339,0 Z" />
      </g>
      <g
         transform="matrix(0.35277777,0,0,-0.35277777,40.096448,270.88183)"
         id="g3368">
        <path
           inkscape:connector-curvature="0"
           id="path3370"
           style="fill:#ffffff;fill-opacity:1;fill-rule:nonzero;stroke:none"
           d="m 0,0 h -50.238 v 0.909 c 0,0.396 0.149,0.79 0.449,1.087 0.297,0.3 0.691,0.448 1.089,0.448 h 47.165 c 0.397,0 0.788,-0.148 1.086,-0.448 C -0.149,1.699 0,1.305 0,0.909 Z" />
      </g>
      <g
         transform="matrix(0.35277777,0,0,-0.35277777,52.018176,260.32985)"
         id="g3372">
        <path
           inkscape:connector-curvature="0"
           id="path3374"
           style="fill:#ffffff;fill-opacity:1;fill-rule:nonzero;stroke:none"
           d="m 0,0 v -7.916 c 0,-1.582 -1.292,-2.865 -2.875,-2.865 h -112.073 c -1.571,0 -2.865,1.283 -2.865,2.865 V 0 Z" />
      </g>
      <g
         transform="matrix(0.35277777,0,0,-0.35277777,52.018176,260.32985)"
         id="g3376">
        <path
           inkscape:connector-curvature="0"
           id="path3378"
           style="fill:#708397;fill-opacity:1;fill-rule:nonzero;stroke:none"
           d="m 0,0 v 75.224 c 0,1.567 -1.292,2.865 -2.875,2.865 h -112.074 c -1.576,0 -2.862,-1.298 -2.862,-2.865 V 0 Z" />
      </g>
      <path
         inkscape:connector-curvature="0"
         id="path3380"
         style="fill:#ffffff;fill-opacity:1;fill-rule:nonzero;stroke:none;stroke-width:0.35277775"
         d="M 49.913469,258.2291 H 12.55501 v -23.34577 h 37.358459 z" />
      <path
         inkscape:connector-curvature="0"
         id="path3382"
         style="fill:#e6e5e5;fill-opacity:1;fill-rule:nonzero;stroke:none;stroke-width:0.35277775"
         d="M 40.096369,258.2291 H 12.55501 v -20.74757 h 27.541359 z" />
      <path
         inkscape:connector-curvature="0"
         id="path3384"
         style="fill:#ffffff;fill-opacity:1;fill-rule:nonzero;stroke:none;stroke-width:0.35277775"
         d="m 15.15216,240.07727 h 22.346355 v 15.55397 H 15.15216 Z" />
      <path
         inkscape:connector-curvature="0"
         id="path3386"
         style="fill:#474f59;fill-opacity:1;fill-rule:nonzero;stroke:none;stroke-width:0.35277775"
         d="m 49.913469,237.48153 h -9.8171 v 2.59539 h 9.8171 z" />
      <path
         inkscape:connector-curvature="0"
         id="path3388"
         style="fill:#cccbca;fill-opacity:1;fill-rule:nonzero;stroke:none;stroke-width:0.35277775"
         d="m 49.913469,240.07727 h -9.8171 v 6.47877 h 9.8171 z" />
      <path
         inkscape:connector-curvature="0"
         id="path3390"
         style="fill:#cccbca;fill-opacity:1;fill-rule:nonzero;stroke:none;stroke-width:0.35277775"
         d="m 48.183094,248.28853 h -6.355292 v 0.8643 h 6.355292 z" />
      <path
         inkscape:connector-curvature="0"
         id="path3392"
         style="fill:#cccbca;fill-opacity:1;fill-rule:nonzero;stroke:none;stroke-width:0.35277775"
         d="m 48.183094,250.01996 h -6.355292 v 0.86536 h 6.355292 z" />
      <path
         inkscape:connector-curvature="0"
         id="path3394"
         style="fill:#cccbca;fill-opacity:1;fill-rule:nonzero;stroke:none;stroke-width:0.35277775"
         d="m 48.183094,251.75069 h -6.355292 v 0.86713 h 6.355292 z" />
      <path
         inkscape:connector-curvature="0"
         id="path3396"
         style="fill:#cccbca;fill-opacity:1;fill-rule:nonzero;stroke:none;stroke-width:0.35277775"
         d="m 48.183094,253.48494 h -6.355292 v 0.8636 h 6.355292 z" />
      <g
         transform="matrix(0.35277777,0,0,-0.35277777,16.017619,236.18144)"
         id="g3398">
        <path
           inkscape:connector-curvature="0"
           id="path3400"
           style="fill:#474f59;fill-opacity:1;fill-rule:nonzero;stroke:none"
           d="m 0,0 c 0,-0.675 -0.553,-1.227 -1.222,-1.227 -0.677,0 -1.231,0.552 -1.231,1.227 0,0.681 0.554,1.231 1.231,1.231 C -0.553,1.231 0,0.681 0,0" />
      </g>
      <g
         transform="matrix(0.35277777,0,0,-0.35277777,17.751883,236.18144)"
         id="g3402">
        <path
           inkscape:connector-curvature="0"
           id="path3404"
           style="fill:#474f59;fill-opacity:1;fill-rule:nonzero;stroke:none"
           d="m 0,0 c 0,-0.675 -0.551,-1.227 -1.231,-1.227 -0.676,0 -1.228,0.552 -1.228,1.227 0,0.681 0.552,1.231 1.228,1.231 C -0.551,1.231 0,0.681 0,0" />
      </g>
      <g
         transform="matrix(0.35277777,0,0,-0.35277777,19.48202,236.18144)"
         id="g3406">
        <path
           inkscape:connector-curvature="0"
           id="path3408"
           style="fill:#474f59;fill-opacity:1;fill-rule:nonzero;stroke:none"
           d="m 0,0 c 0,-0.675 -0.551,-1.227 -1.227,-1.227 -0.678,0 -1.23,0.552 -1.23,1.227 0,0.681 0.552,1.231 1.23,1.231 C -0.551,1.231 0,0.681 0,0" />
      </g>
      <path
         inkscape:connector-curvature="0"
         id="path3410"
         style="fill:#cccbca;fill-opacity:1;fill-rule:nonzero;stroke:none;stroke-width:0.35277775"
         d="m 37.498515,235.74692 h -4.32929 v 0.86713 h 4.32929 z" />
      <path
         inkscape:connector-curvature="0"
         id="path3412"
         style="fill:#474f59;fill-opacity:1;fill-rule:nonzero;stroke:none;stroke-width:0.35277775"
         d="m 34.945109,253.42603 h -0.649817 v -0.64841 h 0.649817 z" />
      <path
         inkscape:connector-curvature="0"
         id="path3414"
         style="fill:#474f59;fill-opacity:1;fill-rule:nonzero;stroke:none;stroke-width:0.35277775"
         d="m 25.76442,253.42603 h -0.655108 v -0.64841 h 0.655108 z m 1.313039,0 h -0.655461 v -0.64841 h 0.655461 z m 1.312687,0 h -0.656873 v -0.64841 h 0.656873 z m 1.311275,0 h -0.655462 v -0.64841 h 0.655462 z m 1.313038,0 h -0.656167 v -0.64841 h 0.656167 z m 1.312687,0 H 31.67098 v -0.64841 h 0.656166 z m 1.311979,0 h -0.656518 v -0.64841 h 0.656518 z" />
      <path
         inkscape:connector-curvature="0"
         id="path3416"
         style="fill:#474f59;fill-opacity:1;fill-rule:nonzero;stroke:none;stroke-width:0.35277775"
         d="m 24.453145,253.42603 h -0.650169 v -0.64841 h 0.650169 z" />
      <path
         inkscape:connector-curvature="0"
         id="path3418"
         style="fill:#474f59;fill-opacity:1;fill-rule:nonzero;stroke:none;stroke-width:0.35277775"
         d="m 24.453145,244.24605 h -0.650169 v -0.65617 h 0.650169 z m 0,1.31268 h -0.650169 v -0.65722 h 0.650169 z m 0,1.31163 h -0.650169 v -0.65581 h 0.650169 z m 0,1.31269 h -0.650169 v -0.65582 h 0.650169 z m 0,1.31304 h -0.650169 v -0.65723 h 0.650169 z m 0,1.31268 h -0.650169 v -0.65722 h 0.650169 z m 0,1.31128 h -0.650169 v -0.65582 h 0.650169 z" />
      <path
         inkscape:connector-curvature="0"
         id="path3420"
         style="fill:#474f59;fill-opacity:1;fill-rule:nonzero;stroke:none;stroke-width:0.35277775"
         d="m 24.453145,242.93301 h -0.650169 v -0.64876 h 0.650169 z" />
      <path
         inkscape:connector-curvature="0"
         id="path3422"
         style="fill:#474f59;fill-opacity:1;fill-rule:nonzero;stroke:none;stroke-width:0.35277775"
         d="m 25.764068,242.93301 h -0.655109 v -0.64876 h 0.655109 z m 1.313038,0 h -0.655108 v -0.64876 h 0.655108 z m 1.31304,0 H 27.73292 v -0.64876 h 0.657226 z m 1.311275,0 h -0.656166 v -0.64876 h 0.656166 z m 1.312686,0 h -0.655815 v -0.64876 h 0.655815 z m 1.313039,0 H 31.67098 v -0.64876 h 0.656166 z m 1.311979,0 h -0.65687 v -0.64876 h 0.65687 z" />
      <g
         transform="matrix(0.35277777,0,0,-0.35277777,34.619414,242.93315)"
         id="g3424">
        <path
           inkscape:connector-curvature="0"
           id="path3426"
           style="fill:#474f59;fill-opacity:1;fill-rule:nonzero;stroke:none"
           d="M 0,0 H -0.919 V 1.839 H 0.923 V 0 Z" />
      </g>
      <path
         inkscape:connector-curvature="0"
         id="path3428"
         style="fill:#474f59;fill-opacity:1;fill-rule:nonzero;stroke:none;stroke-width:0.35277775"
         d="m 34.945109,244.2464 h -0.649817 v -0.65652 h 0.649817 z m 0,1.31304 h -0.649817 v -0.65758 h 0.649817 z m 0,1.31127 h -0.649817 v -0.65581 h 0.649817 z m 0,1.31269 h -0.649817 v -0.65581 h 0.649817 z m 0,1.31269 h -0.649817 v -0.65688 h 0.649817 z m 0,1.31268 h -0.649817 v -0.65652 h 0.649817 z m 0,1.31163 h -0.649817 v -0.65581 h 0.649817 z" />
      <g
         transform="matrix(0.35277777,0,0,-0.35277777,30.833597,251.47492)"
         id="g3430">
        <path
           inkscape:connector-curvature="0"
           id="path3432"
           style="fill:#474f59;fill-opacity:1;fill-rule:nonzero;stroke:none"
           d="M 0,0 -4.138,10.26 6.118,6.118 2.127,3.998 Z" />
      </g>
      <g
         transform="matrix(0.35277777,0,0,-0.35277777,31.64526,249.71999)"
         id="g3434">
        <path
           inkscape:connector-curvature="0"
           id="path3436"
           style="fill:#474f59;fill-opacity:1;fill-rule:nonzero;stroke:none"
           d="m 0,0 -1.15,-1.151 3.344,-3.347 1.154,1.152 z" />
      </g>
      <path
         inkscape:connector-curvature="0"
         id="path3438"
         style="fill:#f77b55;fill-opacity:1;fill-rule:nonzero;stroke:none;stroke-width:0.35277775"
         d="M 21.248159,270.88183 H 1.7638903 V 242.74886 H 21.248159 Z" />
      <path
         inkscape:connector-curvature="0"
         id="path3440"
         style="fill:#353f49;fill-opacity:1;fill-rule:nonzero;stroke:none;stroke-width:0.35277775"
         d="M 21.248159,242.74886 H 1.7638903 v -2.67159 H 21.248159 Z" />
      <path
         inkscape:connector-curvature="0"
         id="path3442"
         style="fill:#353f49;fill-opacity:1;fill-rule:nonzero;stroke:none;stroke-width:0.35277775"
         d="m 7.8224958,246.73313 h -3.324225 v -0.75882 h 3.324225 z" />
      <path
         inkscape:connector-curvature="0"
         id="path3444"
         style="fill:#ffffff;fill-opacity:1;fill-rule:nonzero;stroke:none;stroke-width:0.35277775"
         d="m 18.514132,250.5396 h -1.984728 v -0.762 h 1.984728 z" />
      <path
         inkscape:connector-curvature="0"
         id="path3446"
         style="fill:#353f49;fill-opacity:1;fill-rule:nonzero;stroke:none;stroke-width:0.35277775"
         d="M 13.920965,246.73313 H 8.9235152 v -0.75882 h 4.9974498 z" />
      <path
         inkscape:connector-curvature="0"
         id="path3448"
         style="fill:#ffffff;fill-opacity:1;fill-rule:nonzero;stroke:none;stroke-width:0.35277775"
         d="M 15.431207,250.5396 H 8.9235152 v -0.762 h 6.5076918 z" />
      <path
         inkscape:connector-curvature="0"
         id="path3450"
         style="fill:#ffffff;fill-opacity:1;fill-rule:nonzero;stroke:none;stroke-width:0.35277775"
         d="M 16.529404,248.63601 H 6.7246515 v -0.76164 h 9.8047525 z" />
      <path
         inkscape:connector-curvature="0"
         id="path3452"
         style="fill:#353f49;fill-opacity:1;fill-rule:nonzero;stroke:none;stroke-width:0.35277775"
         d="m 7.8224958,252.44037 h -3.324225 v -0.75988 h 3.324225 z" />
      <path
         inkscape:connector-curvature="0"
         id="path3454"
         style="fill:#ffffff;fill-opacity:1;fill-rule:nonzero;stroke:none;stroke-width:0.35277775"
         d="m 18.514132,256.24473 h -1.984728 v -0.76095 h 1.984728 z" />
      <path
         inkscape:connector-curvature="0"
         id="path3456"
         style="fill:#353f49;fill-opacity:1;fill-rule:nonzero;stroke:none;stroke-width:0.35277775"
         d="M 13.920965,252.44037 H 8.9235152 v -0.75988 h 4.9974498 z" />
      <path
         inkscape:connector-curvature="0"
         id="path3458"
         style="fill:#ffffff;fill-opacity:1;fill-rule:nonzero;stroke:none;stroke-width:0.35277775"
         d="M 15.431207,256.24473 H 8.9235152 v -0.76095 h 6.5076918 z" />
      <path
         inkscape:connector-curvature="0"
         id="path3460"
         style="fill:#ffffff;fill-opacity:1;fill-rule:nonzero;stroke:none;stroke-width:0.35277775"
         d="M 16.529404,254.34149 H 6.7246515 v -0.75883 h 9.8047525 z" />
      <path
         inkscape:connector-curvature="0"
         id="path3462"
         style="fill:#353f49;fill-opacity:1;fill-rule:nonzero;stroke:none;stroke-width:0.35277775"
         d="m 7.8224958,258.14725 h -3.324225 v -0.762 h 3.324225 z" />
      <path
         inkscape:connector-curvature="0"
         id="path3464"
         style="fill:#ffffff;fill-opacity:1;fill-rule:nonzero;stroke:none;stroke-width:0.35277775"
         d="m 18.514132,261.95055 h -1.984728 v -0.75953 h 1.984728 z" />
      <path
         inkscape:connector-curvature="0"
         id="path3466"
         style="fill:#353f49;fill-opacity:1;fill-rule:nonzero;stroke:none;stroke-width:0.35277775"
         d="M 13.920965,258.14725 H 8.9235152 v -0.762 h 4.9974498 z" />
      <path
         inkscape:connector-curvature="0"
         id="path3468"
         style="fill:#ffffff;fill-opacity:1;fill-rule:nonzero;stroke:none;stroke-width:0.35277775"
         d="M 15.431207,261.95055 H 8.9235152 v -0.75953 h 6.5076918 z" />
      <path
         inkscape:connector-curvature="0"
         id="path3470"
         style="fill:#ffffff;fill-opacity:1;fill-rule:nonzero;stroke:none;stroke-width:0.35277775"
         d="M 16.529404,260.04802 H 6.7246515 v -0.75847 h 9.8047525 z" />
      <path
         inkscape:connector-curvature="0"
         id="path3472"
         style="fill:#353f49;fill-opacity:1;fill-rule:nonzero;stroke:none;stroke-width:0.35277775"
         d="m 7.8224958,252.44037 h -3.324225 v -0.75988 h 3.324225 z" />
      <path
         inkscape:connector-curvature="0"
         id="path3474"
         style="fill:#ffffff;fill-opacity:1;fill-rule:nonzero;stroke:none;stroke-width:0.35277775"
         d="m 18.514132,256.24473 h -1.984728 v -0.76095 h 1.984728 z" />
      <path
         inkscape:connector-curvature="0"
         id="path3476"
         style="fill:#353f49;fill-opacity:1;fill-rule:nonzero;stroke:none;stroke-width:0.35277775"
         d="M 13.920965,252.44037 H 8.9235152 v -0.75988 h 4.9974498 z" />
      <path
         inkscape:connector-curvature="0"
         id="path3478"
         style="fill:#ffffff;fill-opacity:1;fill-rule:nonzero;stroke:none;stroke-width:0.35277775"
         d="M 15.431207,256.24473 H 8.9235152 v -0.76095 h 6.5076918 z" />
      <path
         inkscape:connector-curvature="0"
         id="path3480"
         style="fill:#ffffff;fill-opacity:1;fill-rule:nonzero;stroke:none;stroke-width:0.35277775"
         d="M 16.529404,254.34149 H 6.7246515 v -0.75883 h 9.8047525 z" />
      <path
         inkscape:connector-curvature="0"
         id="path3482"
         style="fill:#353f49;fill-opacity:1;fill-rule:nonzero;stroke:none;stroke-width:0.35277775"
         d="m 7.8224958,258.14725 h -3.324225 v -0.762 h 3.324225 z" />
      <path
         inkscape:connector-curvature="0"
         id="path3484"
         style="fill:#ffffff;fill-opacity:1;fill-rule:nonzero;stroke:none;stroke-width:0.35277775"
         d="m 18.514132,261.95055 h -1.984728 v -0.75953 h 1.984728 z" />
      <path
         inkscape:connector-curvature="0"
         id="path3486"
         style="fill:#353f49;fill-opacity:1;fill-rule:nonzero;stroke:none;stroke-width:0.35277775"
         d="M 13.920965,258.14725 H 8.9235152 v -0.762 h 4.9974498 z" />
      <path
         inkscape:connector-curvature="0"
         id="path3488"
         style="fill:#ffffff;fill-opacity:1;fill-rule:nonzero;stroke:none;stroke-width:0.35277775"
         d="M 15.431207,261.95055 H 8.9235152 v -0.75953 h 6.5076918 z" />
      <path
         inkscape:connector-curvature="0"
         id="path3490"
         style="fill:#ffffff;fill-opacity:1;fill-rule:nonzero;stroke:none;stroke-width:0.35277775"
         d="M 16.529404,260.04802 H 6.7246515 v -0.75847 h 9.8047525 z" />
      <path
         inkscape:connector-curvature="0"
         id="path3492"
         style="fill:#353f49;fill-opacity:1;fill-rule:nonzero;stroke:none;stroke-width:0.35277775"
         d="m 7.8224958,263.85308 h -3.324225 v -0.76129 h 3.324225 z" />
      <path
         inkscape:connector-curvature="0"
         id="path3494"
         style="fill:#ffffff;fill-opacity:1;fill-rule:nonzero;stroke:none;stroke-width:0.35277775"
         d="m 18.514132,267.65709 h -1.984728 v -0.76024 h 1.984728 z" />
      <path
         inkscape:connector-curvature="0"
         id="path3496"
         style="fill:#353f49;fill-opacity:1;fill-rule:nonzero;stroke:none;stroke-width:0.35277775"
         d="M 13.920965,263.85308 H 8.9235152 v -0.76129 h 4.9974498 z" />
      <path
         inkscape:connector-curvature="0"
         id="path3498"
         style="fill:#ffffff;fill-opacity:1;fill-rule:nonzero;stroke:none;stroke-width:0.35277775"
         d="M 15.431207,267.65709 H 8.9235152 v -0.76024 h 6.5076918 z" />
      <path
         inkscape:connector-curvature="0"
         id="path3500"
         style="fill:#ffffff;fill-opacity:1;fill-rule:nonzero;stroke:none;stroke-width:0.35277775"
         d="M 16.529404,265.75702 H 6.7246515 v -0.76305 h 9.8047525 z" />
    </g>
  </g>
</svg>
