<?xml version="1.0" encoding="UTF-8" standalone="no"?>
<!-- Created with Inkscape (http://www.inkscape.org/) -->

<svg
   xmlns:dc="http://purl.org/dc/elements/1.1/"
   xmlns:cc="http://creativecommons.org/ns#"
   xmlns:rdf="http://www.w3.org/1999/02/22-rdf-syntax-ns#"
   xmlns:svg="http://www.w3.org/2000/svg"
   xmlns="http://www.w3.org/2000/svg"
   xmlns:sodipodi="http://sodipodi.sourceforge.net/DTD/sodipodi-0.dtd"
   xmlns:inkscape="http://www.inkscape.org/namespaces/inkscape"
   width="480"
   height="480"
   viewBox="0 0 127 127"
   version="1.1"
   id="svg5531"
   inkscape:version="0.92.4 (unknown)"
   sodipodi:docname="wip_01.svg"
   inkscape:export-filename="/home/kordax/Projects/kordasoft/graphics/packs/icons/wip_01.png"
   inkscape:export-xdpi="96"
   inkscape:export-ydpi="96">
  <defs
     id="defs5525" />
  <sodipodi:namedview
     id="base"
     pagecolor="#ffffff"
     bordercolor="#666666"
     borderopacity="1.0"
     inkscape:pageopacity="0.0"
     inkscape:pageshadow="2"
     inkscape:zoom="0.90532342"
     inkscape:cx="313.90877"
     inkscape:cy="264.34262"
     inkscape:document-units="mm"
     inkscape:current-layer="g4391"
     showgrid="false"
     units="px"
     inkscape:window-width="1920"
     inkscape:window-height="1015"
     inkscape:window-x="0"
     inkscape:window-y="0"
     inkscape:window-maximized="1"
     inkscape:snap-bbox="true"
     inkscape:bbox-paths="true"
     inkscape:bbox-nodes="true"
     inkscape:snap-bbox-edge-midpoints="true"
     inkscape:snap-bbox-midpoints="true"
     inkscape:object-paths="true"
     inkscape:snap-intersection-paths="false"
     inkscape:snap-smooth-nodes="true"
     inkscape:snap-midpoints="true"
     inkscape:snap-object-midpoints="true"
     inkscape:snap-center="true"
     inkscape:snap-text-baseline="true"
     inkscape:snap-page="true" />
  <metadata
     id="metadata5528">
    <rdf:RDF>
      <cc:Work
         rdf:about="">
        <dc:format>image/svg+xml</dc:format>
        <dc:type
           rdf:resource="http://purl.org/dc/dcmitype/StillImage" />
        <dc:title></dc:title>
      </cc:Work>
    </rdf:RDF>
  </metadata>
  <g
     inkscape:label="Layer 1"
     inkscape:groupmode="layer"
     id="layer1"
     transform="translate(0,-169.99998)">
    <g
       id="g4391"
       transform="matrix(3.0967745,0,0,3.0967745,97.54225,-623.13215)">
      <g
         id="g4463"
         transform="matrix(1.0108695,0,0,1.0108695,-4.6395066,5.0696171)">
        <path
           d="m -22.571326,283.57719 4.424891,4.42419 32.14617,-32.14547 -4.4252461,-4.42524 -32.1458149,32.14652"
           style="fill:#f77b55;fill-opacity:1;fill-rule:nonzero;stroke:none;stroke-width:0.03527778"
           id="path746"
           inkscape:connector-curvature="0" />
        <path
           d="m -19.621399,286.52747 1.474964,1.47391 32.14617,-32.14547 -1.475671,-1.47531 -32.145463,32.14687"
           style="fill:#ee643c;fill-opacity:1;fill-rule:nonzero;stroke:none;stroke-width:0.03527778"
           id="path748"
           inkscape:connector-curvature="0" />
        <path
           d="m -21.937385,282.94325 0.382059,-0.38206 0.737658,0.73801 -0.382058,0.381 -0.737659,-0.73695"
           style="fill:#ffffff;fill-opacity:1;fill-rule:nonzero;stroke:none;stroke-width:0.03527778"
           id="path750"
           inkscape:connector-curvature="0" />
        <path
           d="m -20.918563,281.92478 0.381,-0.38206 0.737306,0.73766 -0.380647,0.38171 -0.737659,-0.73731"
           style="fill:#ffffff;fill-opacity:1;fill-rule:nonzero;stroke:none;stroke-width:0.03527778"
           id="path752"
           inkscape:connector-curvature="0" />
        <path
           d="m -19.903621,280.90878 0.380647,-0.381 0.738011,0.73801 -0.381,0.38065 -0.737658,-0.73766"
           style="fill:#ffffff;fill-opacity:1;fill-rule:nonzero;stroke:none;stroke-width:0.03527778"
           id="path754"
           inkscape:connector-curvature="0" />
        <path
           d="m -18.887974,279.89349 0.384528,-0.38383 0.737658,0.73766 -0.384527,0.38347 -0.737659,-0.7373"
           style="fill:#ffffff;fill-opacity:1;fill-rule:nonzero;stroke:none;stroke-width:0.03527778"
           id="path756"
           inkscape:connector-curvature="0" />
        <path
           d="m -17.869857,278.87572 0.382058,-0.3817 0.7366,0.73765 -0.380647,0.38171 -0.738011,-0.73766"
           style="fill:#ffffff;fill-opacity:1;fill-rule:nonzero;stroke:none;stroke-width:0.03527778"
           id="path758"
           inkscape:connector-curvature="0" />
        <path
           d="m -16.853857,277.86007 0.380647,-0.3817 0.737658,0.7373 -0.382058,0.38206 -0.736247,-0.73766"
           style="fill:#ffffff;fill-opacity:1;fill-rule:nonzero;stroke:none;stroke-width:0.03527778"
           id="path760"
           inkscape:connector-curvature="0" />
        <path
           d="m -15.838563,276.84337 0.383822,-0.38241 0.737659,0.73766 -0.38347,0.38241 -0.738011,-0.73766"
           style="fill:#ffffff;fill-opacity:1;fill-rule:nonzero;stroke:none;stroke-width:0.03527778"
           id="path762"
           inkscape:connector-curvature="0" />
        <path
           d="m -14.820446,275.82666 0.381705,-0.3817 0.736248,0.73766 -0.380295,0.3817 -0.737658,-0.73766"
           style="fill:#ffffff;fill-opacity:1;fill-rule:nonzero;stroke:none;stroke-width:0.03527778"
           id="path764"
           inkscape:connector-curvature="0" />
        <path
           d="m -13.804446,274.81031 0.380294,-0.381 0.737659,0.73766 -0.381353,0.381 -0.7366,-0.73766"
           style="fill:#ffffff;fill-opacity:1;fill-rule:nonzero;stroke:none;stroke-width:0.03527778"
           id="path766"
           inkscape:connector-curvature="0" />
        <path
           d="m -12.787035,273.79219 0.381706,-0.38064 0.737658,0.73695 -0.381706,0.38135 -0.737658,-0.73766"
           style="fill:#ffffff;fill-opacity:1;fill-rule:nonzero;stroke:none;stroke-width:0.03527778"
           id="path768"
           inkscape:connector-curvature="0" />
        <path
           d="m -11.771388,272.77761 0.381,-0.381 0.736953,0.73765 -0.380295,0.3803 -0.737658,-0.73695"
           style="fill:#ffffff;fill-opacity:1;fill-rule:nonzero;stroke:none;stroke-width:0.03527778"
           id="path770"
           inkscape:connector-curvature="0" />
        <path
           d="m -10.755741,271.76196 0.383117,-0.38453 0.7376579,0.73801 -0.3841749,0.38418 -0.7366,-0.73766"
           style="fill:#ffffff;fill-opacity:1;fill-rule:nonzero;stroke:none;stroke-width:0.03527778"
           id="path772"
           inkscape:connector-curvature="0" />
        <path
           d="m -9.7379771,270.74278 0.381353,-0.38029 0.738011,0.7366 -0.381705,0.38135 -0.737659,-0.73766"
           style="fill:#ffffff;fill-opacity:1;fill-rule:nonzero;stroke:none;stroke-width:0.03527778"
           id="path774"
           inkscape:connector-curvature="0" />
        <path
           d="m -8.7226821,269.7289 0.381705,-0.38206 0.737659,0.73766 -0.381706,0.381 -0.737658,-0.7366"
           style="fill:#ffffff;fill-opacity:1;fill-rule:nonzero;stroke:none;stroke-width:0.03527778"
           id="path776"
           inkscape:connector-curvature="0" />
        <path
           d="m -7.7042131,268.71043 0.380295,-0.38135 0.737658,0.7373 -0.381353,0.38136 -0.7366,-0.73731"
           style="fill:#ffffff;fill-opacity:1;fill-rule:nonzero;stroke:none;stroke-width:0.03527778"
           id="path778"
           inkscape:connector-curvature="0" />
        <path
           d="m -6.6892711,267.69408 0.381353,-0.38065 0.737658,0.73731 -0.381,0.381 -0.738011,-0.73766"
           style="fill:#ffffff;fill-opacity:1;fill-rule:nonzero;stroke:none;stroke-width:0.03527778"
           id="path780"
           inkscape:connector-curvature="0" />
        <path
           d="m -5.6729181,266.67914 0.381352,-0.38171 0.738011,0.73801 -0.381706,0.3803 -0.737657,-0.7366"
           style="fill:#ffffff;fill-opacity:1;fill-rule:nonzero;stroke:none;stroke-width:0.03527778"
           id="path782"
           inkscape:connector-curvature="0" />
        <path
           d="m -4.6555071,265.66137 0.381352,-0.38206 0.737659,0.73766 -0.381707,0.38206 -0.737304,-0.73766"
           style="fill:#ffffff;fill-opacity:1;fill-rule:nonzero;stroke:none;stroke-width:0.03527778"
           id="path784"
           inkscape:connector-curvature="0" />
        <path
           d="m -3.6405651,264.64573 0.381352,-0.38171 0.737658,0.73766 -0.381352,0.3817 -0.737658,-0.73765"
           style="fill:#ffffff;fill-opacity:1;fill-rule:nonzero;stroke:none;stroke-width:0.03527778"
           id="path786"
           inkscape:connector-curvature="0" />
        <path
           d="m -2.6245651,263.62937 0.384527,-0.38311 0.737658,0.73765 -0.384175,0.38312 -0.73801,-0.73766"
           style="fill:#ffffff;fill-opacity:1;fill-rule:nonzero;stroke:none;stroke-width:0.03527778"
           id="path788"
           inkscape:connector-curvature="0" />
        <path
           d="m -1.6053901,262.61161 0.381,-0.381 0.73624499,0.73766 -0.379941,0.381 -0.73730399,-0.73766"
           style="fill:#ffffff;fill-opacity:1;fill-rule:nonzero;stroke:none;stroke-width:0.03527778"
           id="path790"
           inkscape:connector-curvature="0" />
        <path
           d="m -0.59080311,261.59667 0.381355,-0.38206 0.737658,0.73766 -0.382058,0.38206 -0.736955,-0.73766"
           style="fill:#ffffff;fill-opacity:1;fill-rule:nonzero;stroke:none;stroke-width:0.03527778"
           id="path792"
           inkscape:connector-curvature="0" />
        <path
           d="m 0.42731389,260.57784 0.381354,-0.38029 0.73765901,0.73695 -0.381355,0.38065 -0.73765801,-0.73731"
           style="fill:#ffffff;fill-opacity:1;fill-rule:nonzero;stroke:none;stroke-width:0.03527778"
           id="path794"
           inkscape:connector-curvature="0" />
        <path
           d="m 1.4433139,259.5629 0.381354,-0.38135 0.7366,0.73766 -0.380296,0.38135 -0.737658,-0.73766"
           style="fill:#ffffff;fill-opacity:1;fill-rule:nonzero;stroke:none;stroke-width:0.03527778"
           id="path796"
           inkscape:connector-curvature="0" />
        <path
           d="m 2.4589619,258.54726 0.382058,-0.38347 0.737659,0.73765 -0.383117,0.38312 -0.7366,-0.7373"
           style="fill:#ffffff;fill-opacity:1;fill-rule:nonzero;stroke:none;stroke-width:0.03527778"
           id="path798"
           inkscape:connector-curvature="0" />
        <path
           d="m 3.4763719,257.52879 0.381355,-0.38065 0.73801,0.73695 -0.381707,0.38135 -0.737658,-0.73765"
           style="fill:#ffffff;fill-opacity:1;fill-rule:nonzero;stroke:none;stroke-width:0.03527778"
           id="path800"
           inkscape:connector-curvature="0" />
        <path
           d="m 4.4920199,256.5142 0.381352,-0.38136 0.737307,0.73766 -0.381,0.3803 -0.737659,-0.7366"
           style="fill:#ffffff;fill-opacity:1;fill-rule:nonzero;stroke:none;stroke-width:0.03527778"
           id="path802"
           inkscape:connector-curvature="0" />
        <path
           d="m 5.5087269,255.49714 0.38241,-0.38347 0.737658,0.73801 -0.383116,0.38312 -0.736952,-0.73766"
           style="fill:#ffffff;fill-opacity:1;fill-rule:nonzero;stroke:none;stroke-width:0.03527778"
           id="path804"
           inkscape:connector-curvature="0" />
        <path
           d="m 6.5254299,254.47938 0.381355,-0.37995 0.73801,0.73625 -0.381352,0.38135 -0.738013,-0.73765"
           style="fill:#ffffff;fill-opacity:1;fill-rule:nonzero;stroke:none;stroke-width:0.03527778"
           id="path806"
           inkscape:connector-curvature="0" />
        <path
           d="m 7.5407269,253.46514 0.382058,-0.38171 0.737658,0.73766 -0.381706,0.381 -0.73801,-0.73695"
           style="fill:#ffffff;fill-opacity:1;fill-rule:nonzero;stroke:none;stroke-width:0.03527778"
           id="path808"
           inkscape:connector-curvature="0" />
        <path
           d="m 8.5595469,252.44667 0.381,-0.38206 0.737307,0.73766 -0.381707,0.38206 -0.7366,-0.73766"
           style="fill:#ffffff;fill-opacity:1;fill-rule:nonzero;stroke:none;stroke-width:0.03527778"
           id="path810"
           inkscape:connector-curvature="0" />
        <path
           d="m 9.5759019,287.99961 4.4227751,-4.42207 -32.145817,-32.14616 -4.422423,4.42277 32.1454649,32.14546"
           style="fill:#ffdb79;fill-opacity:1;fill-rule:nonzero;stroke:none;stroke-width:0.03527778"
           id="path812"
           inkscape:connector-curvature="0" />
        <path
           d="m 12.52477,285.05075 1.473907,-1.47321 -32.145817,-32.14616 -1.473906,1.47355 32.145816,32.14582"
           style="fill:#fdca5c;fill-opacity:1;fill-rule:nonzero;stroke:none;stroke-width:0.03527778"
           id="path814"
           inkscape:connector-curvature="0" />
        <path
           d="m -10.310888,250.17372 c -1.412169,1.41147 -3.701344,1.41111 -5.114572,-0.001 l -11.14425,11.1446 5.115278,5.11563 14.6145249,-14.61452 -2.557639,-2.55729 -0.9133419,0.91299"
           style="fill:#353f49;fill-opacity:1;fill-rule:nonzero;stroke:none;stroke-width:0.03527778"
           id="path816"
           inkscape:connector-curvature="0" />
        <path
           d="m -22.914579,266.43149 1.460147,10e-4 -5.115278,-5.11563 v 1.4605 l 3.655131,3.65408"
           style="fill:#474f59;fill-opacity:1;fill-rule:nonzero;stroke:none;stroke-width:0.03527778"
           id="path818"
           inkscape:connector-curvature="0" />
        <path
           d="m -3.3526981,259.20201 h -1.61008 l -0.466371,2.33786 h 2.543176 l -0.466725,-2.33786"
           style="fill:#474f59;fill-opacity:1;fill-rule:nonzero;stroke:none;stroke-width:0.03527778"
           id="path820"
           inkscape:connector-curvature="0" />
        <path
           d="m -8.7551381,260.21695 -1.3867689,0.79658 0.7641159,2.26201 2.200981,-1.26542 -1.578328,-1.79317"
           style="fill:#474f59;fill-opacity:1;fill-rule:nonzero;stroke:none;stroke-width:0.03527778"
           id="path822"
           inkscape:connector-curvature="0" />
        <path
           d="m -12.922149,263.80259 -0.80398,1.38218 1.793874,1.5808 1.264356,-2.20063 -2.25425,-0.76235"
           style="fill:#474f59;fill-opacity:1;fill-rule:nonzero;stroke:none;stroke-width:0.03527778"
           id="path824"
           inkscape:connector-curvature="0" />
        <path
           d="m -14.741071,268.98066 0.0011,1.61043 2.335742,0.46637 v -2.54494 l -2.3368,0.46814"
           style="fill:#474f59;fill-opacity:1;fill-rule:nonzero;stroke:none;stroke-width:0.03527778"
           id="path826"
           inkscape:connector-curvature="0" />
        <path
           d="m -13.726129,274.38486 0.80398,1.3836 2.25425,-0.76306 -1.264356,-2.20063 -1.793874,1.58009"
           style="fill:#474f59;fill-opacity:1;fill-rule:nonzero;stroke:none;stroke-width:0.03527778"
           id="path828"
           inkscape:connector-curvature="0" />
        <path
           d="m -10.141907,278.55046 1.3867689,0.80257 1.578328,-1.79458 -2.200981,-1.26365 -0.7641159,2.25566"
           style="fill:#474f59;fill-opacity:1;fill-rule:nonzero;stroke:none;stroke-width:0.03527778"
           id="path830"
           inkscape:connector-curvature="0" />
        <path
           d="m -4.9627781,280.36938 h 1.61008 l 0.466725,-2.33821 h -2.543176 l 0.466371,2.33821"
           style="fill:#474f59;fill-opacity:1;fill-rule:nonzero;stroke:none;stroke-width:0.03527778"
           id="path832"
           inkscape:connector-curvature="0" />
        <path
           d="m 0.44142689,279.35303 1.38500301,-0.80257 -0.763762,-2.25566 -2.200629,1.26365 1.57938799,1.79458"
           style="fill:#474f59;fill-opacity:1;fill-rule:nonzero;stroke:none;stroke-width:0.03527778"
           id="path834"
           inkscape:connector-curvature="0" />
        <path
           d="m 4.6077299,275.76846 0.801513,-1.3836 -1.794229,-1.58009 -1.26365,2.20063 2.256366,0.76306"
           style="fill:#474f59;fill-opacity:1;fill-rule:nonzero;stroke:none;stroke-width:0.03527778"
           id="path836"
           inkscape:connector-curvature="0" />
        <path
           d="m 6.4255949,270.59109 v -1.61043 l -2.33821,-0.46814 v 2.54494 l 2.33821,-0.46637"
           style="fill:#474f59;fill-opacity:1;fill-rule:nonzero;stroke:none;stroke-width:0.03527778"
           id="path838"
           inkscape:connector-curvature="0" />
        <path
           d="m 5.4092429,265.18477 -0.801513,-1.38218 -2.256366,0.76235 1.26365,2.20063 1.794229,-1.5808"
           style="fill:#474f59;fill-opacity:1;fill-rule:nonzero;stroke:none;stroke-width:0.03527778"
           id="path840"
           inkscape:connector-curvature="0" />
        <path
           d="m 1.8264299,261.01353 -1.38641601,-0.79658 -1.57797499,1.79317 2.200629,1.26542 0.763762,-2.26201"
           style="fill:#474f59;fill-opacity:1;fill-rule:nonzero;stroke:none;stroke-width:0.03527778"
           id="path842"
           inkscape:connector-curvature="0" />
        <path
           d="m -4.1584451,272.0911 c -1.272821,0 -2.306812,-1.02588 -2.306812,-2.30575 0,-1.27777 1.033991,-2.30682 2.306812,-2.30682 1.274234,0 2.306815,1.02905 2.306815,2.30682 0,1.27987 -1.032581,2.30575 -2.306815,2.30575 z m 0,-10.64613 c -4.600926,0 -8.3410759,3.73169 -8.3410759,8.34038 0,4.60657 3.7401499,8.34037 8.3410759,8.34037 4.60904199,0 8.3439,-3.7338 8.3439,-8.34037 0,-4.60869 -3.73485801,-8.34038 -8.3439,-8.34038"
           style="fill:#353f49;fill-opacity:1;fill-rule:nonzero;stroke:none;stroke-width:0.03527778"
           id="path844"
           inkscape:connector-curvature="0" />
        <path
           d="m -4.1584451,271.78912 c -1.102782,0 -1.997073,-0.89993 -1.997073,-2.00377 0,-1.10314 0.894291,-2.00343 1.997073,-2.00343 1.098199,0 2.004838,0.90029 2.004838,2.00343 0,1.10384 -0.906639,2.00377 -2.004838,2.00377 z m 0,-6.01168 c -2.212268,0 -4.007554,1.79528 -4.007554,4.00791 0,2.21473 1.795286,4.00861 4.007554,4.00861 2.220384,0 4.00932199,-1.79388 4.00932199,-4.00861 0,-2.21263 -1.78893799,-4.00791 -4.00932199,-4.00791"
           style="fill:#ffffff;fill-opacity:1;fill-rule:nonzero;stroke:none;stroke-width:0.03527778"
           id="path846"
           inkscape:connector-curvature="0" />
      </g>
    </g>
  </g>
</svg>
