%!PS-Adobe-3.0 EPSF-3.0
%%Creator: tzunghaor svg2eps 
%%Pages: 1
%%DocumentData: Clean7Bit
%%LanguageLevel: 3
%%DocumentNeededResources: procset Adobe_Illustrator_AI5 1.3 0
%AI5_FileFormat 3
%%BoundingBox: 0 0 462 374
%%HiResBoundingBox: 0 0 461.714304 373.460160
%AI5_ArtSize: 461.714304 373.460160
%%EndComments

%%BeginProlog
100 dict begin
/tzung_eps_state save def
/dict_count countdictstack def
/op_count count 1 sub def
/Adobe_Illustrator_AI5 where
{ pop } {
    /tzung_strokergb [ 0 0 0 ] def
    /tzung_compound 0 def
    /tzung_closeop { S } def
    /tzung_fillrule 0 def
    
    /*u { /tzung_compound 1 def newpath /tzung_fillrule 0 def } bind def
    /*U { /tzung_compound 0 def tzung_closeop  } bind def
    /u {} bind def
    /U {} bind def
    
    /q { clipsave } bind def
    /Q { cliprestore } bind def
    /W { clip } bind def

    /Lb { 10 {pop} repeat } bind def    
    /Ln {pop} bind def
    /LB {} bind def
    
    
    /w { setlinewidth } bind def
    /J { setlinecap } bind def
    /j { setlinejoin } bind def
    /M { setmiterlimit } bind def
    /d { setdash } bind def
    
    /m { tzung_compound 0 eq { newpath /tzung_fillrule 0 def } if moveto } bind def
    /l { lineto } bind def
    /c { curveto } bind def
    
    /XR { /tzung_fillrule exch def } bind def
    /Xa { setrgbcolor } bind def
    /XA { 3 array astore /tzung_strokergb exch def } bind def
    
   
    /F { tzung_compound 0 eq {
             tzung_fillrule 0 eq { fill } { eofill } ifelse
         } { 
             /tzung_closeop {F} def 
         } ifelse } bind def
    /f { closepath F } bind def
    /S { tzung_compound 0 eq {
            tzung_strokergb aload pop setrgbcolor stroke 
        } {
             /tzung_closeop {S} def 
        } ifelse } bind def
    /s { closepath S } bind def

    /B { tzung_compound 0 eq { 
            gsave
            tzung_fillrule 0 eq { fill } { eofill } ifelse
            grestore
            tzung_strokergb aload pop setrgbcolor stroke 
         } {            
             /tzung_closeop {B} def 
        } ifelse } bind def
    /b { closepath B } bind def
    /H { tzung_compound 0 eq { 
        }{
            /tzung_closeop {H} def 
        } ifelse} bind def
    /h { closepath } bind def
    /N { tzung_compound 0 eq { 
        }{
            /tzung_closeop {N} def 
        } ifelse} bind def
    /n { closepath N } bind def

    
    /Bn { /dict_gradients exch dict def} bind def
    /Bd { /tmp_ngradstop exch def /tmp_shadingtype exch def } bind def  %leaves gradient name in stack 
    /BD { ]  % this handles only stops that have CMYKRGB color definitions
        % linear gradient stops must be in reverse order, radials in normal order
        aload
        pop
        /tmp_boundaries tmp_ngradstop array def
        /tmp_colors tmp_ngradstop array def
        tmp_shadingtype 0 eq {
            0 1 tmp_ngradstop 1 sub   % for i=0; i<= number of gradient stops - 1; i++
        } {
            tmp_ngradstop 1 sub -1 0   % for i=number of gradient stops - 1; i >= 0; i++
        } ifelse
        {
            /loopvar exch def
            100 div
            tmp_boundaries  loopvar
            3 -1 roll put    %  obj array i => array i obj
            pop % assume gradient middle is always 50
            pop % assume color type is always 2 (CMYKRGB)
            3 array astore 
            tmp_colors loopvar
            3 -1 roll put 
            pop pop pop pop % drop CMYK values
        } for
        
        tmp_ngradstop 2 eq {
            /tmp_function 5 dict def
            tmp_boundaries 0 get tmp_boundaries 1 get 2 array astore
            tmp_function /Domain 3 -1 roll put
            tmp_function /FunctionType 2 put
            tmp_function /C0  tmp_colors 0 get put
            tmp_function /C1 tmp_colors 1 get put
            tmp_function /N 1 put

        } {
            /tmp_functions tmp_ngradstop 1 sub array def
            
            0 1 tmp_ngradstop 2 sub {
                /loopvar exch def
                /tmp_function 5 dict def
                tmp_function /Domain [0 1]  put
                tmp_function /FunctionType 2 put
                tmp_function /C0  tmp_colors loopvar get put
                tmp_function /C1 tmp_colors loopvar 1 add get put
                tmp_function /N 1 put
                tmp_functions loopvar tmp_function put
            } for

            
            /tmp_function 5 dict def
            tmp_boundaries 0 get tmp_boundaries tmp_ngradstop 1 sub get 2 array astore
            tmp_function /Domain 3 -1 roll  put
            tmp_function /FunctionType 3 put
            tmp_boundaries aload pop
            tmp_ngradstop -1 roll pop pop % remove first and last bounds
            tmp_ngradstop 2 sub array astore
            tmp_function /Bounds 3 -1 roll put
            tmp_function /Functions tmp_functions put
            
            tmp_ngradstop 1 sub {
                0 1
            } repeat
            tmp_ngradstop 1 sub 2 mul array astore
            tmp_function /Encode 3 -1 roll put

        } ifelse

        /tmp_shading 6 dict def
        tmp_shadingtype 0 eq {   
            tmp_shading /ShadingType 2 put 
            tmp_shading /Coords [ 0 0 1 0 ] put
        } {
            tmp_shading /ShadingType 3 put 
            tmp_shading /Coords [ 0 0 0 0 0 1 ] put
        } ifelse
        tmp_shading /ColorSpace /DeviceRGB put
        tmp_shading /Domain [0 1] put
        tmp_shading /Extend[ true true] put
        tmp_shading /Function tmp_function put

        /tmp_gradient 2 dict def
        tmp_gradient /PatternType 2 put
        tmp_gradient /Shading tmp_shading put
            
        dict_gradients exch tmp_gradient put % gradient's name is on the top of the stack from Bd operator

    } bind def
    /Lb { 10 { pop } repeat } bind def
    /Ln { pop } bind def
    /Bb { } bind def

    /Bg { 
        6 { pop } repeat
        gsave 
        4 2 roll
        translate
        exch
        rotate
        dup scale
         exch pop % remove Bg flag
        dict_gradients exch get % now gradient name is on top of the stack
         [ 1 0 0 1 0 0 ]
        makepattern
        /pattern_tmp exch def
        grestore
        pattern_tmp  setpattern 
         gsave % save for after pattern fil for possible stroke
    } def
    /BB { grestore 2 eq { s } if } bind def
    /LB { } bind def

} ifelse

%%EndProlog

%%BeginSetup
/Adobe_Illustrator_AI5 where
{
    pop
    Adobe_Illustrator_AI5 /initialize get exec
} if

%%EndSetup

%%Page: 1 1
%%BeginPageSetup
%%PageBoundingBox: 0 0 461 373
%%EndPageSetup


%AI5_BeginLayer
1 1 1 1 0 0 0 0 0 0 Lb
(Layer 1) Ln

 
%AI3_Note: rect4697
 0.976471 0.976471 0.976471 Xa 0 XR 0.000000 373.460160 m 461.714318 
373.460160 l 461.714318 0.000008 l 0.000000 0.000008 l 0.000000 
373.460160 l f


 
%AI3_Note: path4693
 0.572549 0.721569 0.000000 Xa 341.858134 257.335680 m 341.915894 
271.707040 336.178846 286.019624 326.210806 296.372280 c 324.861694 
297.773456 323.414990 299.137192 322.527390 300.867952 c 322.083590 
301.733336 321.788894 302.685832 321.759822 303.657952 c 321.730782 
304.630056 321.978446 305.622368 322.537590 306.418104 c 323.278046 
307.471872 324.530470 308.112984 325.812854 308.232160 c 327.095230 
308.351336 328.395838 307.979376 329.500542 307.317312 c 330.605254 
306.655256 331.524486 305.715288 332.284646 304.675640 c 333.044790 
303.635984 333.653734 302.494600 334.231046 301.343336 c 341.001278 
287.842368 343.690190 272.327536 341.858134 257.335680 c f


 
%AI3_Note: path3576
 1.000000 0.462745 0.000000 Xa 1 XR 443.030014 165.469944 m 443.030014 
109.460128 397.625086 64.055200 341.615270 64.055200 c 285.605454 
64.055200 240.200526 109.460128 240.200526 165.469944 c 240.200526 
221.479760 285.605454 266.884688 341.615270 266.884688 c 397.625086 
266.884688 443.030014 221.479760 443.030014 165.469944 c f


 
%AI3_Note: path3576-1
 1.000000 0.552941 0.000000 Xa 1 XR 421.678998 171.474832 m 421.678998 
123.940376 383.144702 85.406080 335.610246 85.406080 c 288.075790 
85.406080 249.541494 123.940376 249.541494 171.474832 c 249.541494 
219.009296 288.075790 257.543584 335.610246 257.543584 c 383.144702 
257.543584 421.678998 219.009296 421.678998 171.474832 c f


 
%AI3_Note: path3576-1-7
 1.000000 1.000000 1.000000 Xa 1 XR 317.154846 216.636288 m 317.154846 
205.951224 308.492878 197.289264 297.807814 197.289264 c 287.122742 
197.289264 278.460774 205.951224 278.460774 216.636288 c 278.460774 
227.321360 287.122742 235.983320 297.807814 235.983320 c 308.492878 
235.983320 317.154846 227.321360 317.154846 216.636288 c f


 
%AI3_Note: path3576-4
 1.000000 0.462745 0.000000 Xa 1 XR 209.937742 121.608368 m 186.138678 
70.906256 125.743534 49.097032 75.041430 72.896096 c 24.339310 
96.695160 2.530085 157.090296 26.329150 207.792408 c 50.128214 
258.494520 110.523350 280.303744 161.225462 256.504680 c 211.927574 
232.705616 233.736806 172.310480 209.937742 121.608368 c f


 
%AI3_Note: path3576-1-0
 1.000000 0.552941 0.000000 Xa 1 XR 206.615798 123.167656 m 183.677902 
74.300200 125.468166 53.280144 76.600710 76.218040 c 27.733254 
99.155936 6.713191 157.365672 29.651086 206.233128 c 52.588982 
255.100584 110.798718 276.120640 159.666182 253.182744 c 208.533630 
230.244848 229.553694 172.035112 206.615798 123.167656 c f


 
%AI3_Note: path3576-1-0-9
 1.000000 0.956863 0.890196 Xa 1 XR 204.803830 124.018168 m 182.335662 
76.151440 125.317958 55.561832 77.451230 78.030000 c 29.584494 
100.498168 8.994887 157.515872 31.463054 205.382600 c 53.931222 
253.249336 110.948926 273.838944 158.815662 251.370776 c 206.682390 
228.902608 227.271998 171.884904 204.803830 124.018168 c f


  *u

%AI3_Note: path3576-1-0-4
 1.000000 0.709804 0.000000 Xa 1 XR 151.619230 244.584112 m 132.073190 
252.793840 111.078910 253.285496 92.160198 247.330640 c 118.568470 
174.171976 l 151.619230 244.584112 l f
 158.192622 241.498624 m 125.153126 171.110480 l 198.282182 197.518040 
l 190.773654 215.871888 176.992134 231.708776 158.192622 241.498624 c 
f
 200.769350 190.685632 m 127.622670 164.271712 l 198.022814 131.226584 
l 206.227790 150.769864 206.721286 171.770752 200.769350 190.685632 c 
f
 85.321438 244.861128 m 66.970510 237.353960 51.132078 223.566864 
41.340830 204.771576 c 111.728982 171.732080 l 85.321438 244.861128 l 
f
 38.249710 198.186184 m 30.042310 178.643888 29.558534 157.655768 
35.508822 138.739120 c 108.637862 165.146688 l 38.249710 198.186184 l 
f
 124.531566 157.686344 m 150.945494 84.539664 l 169.299838 92.048528 
185.141046 105.840088 194.931702 124.641216 c 124.531566 157.686344 l 
f
 111.125030 158.314280 m 37.978366 131.900344 l 45.485726 113.542032 
59.271110 97.694616 78.074270 87.902144 c 111.125030 158.314280 l f
 117.687166 155.204824 m 84.647678 84.816680 l 104.191078 76.608680 
125.190838 76.118960 144.106726 82.070136 c 117.687158 155.204792 l f

*U 

 
%AI3_Note: path4512
 1.000000 0.956863 0.890196 Xa 119.441054 193.607208 m 117.280902 
196.613864 115.568182 199.941392 114.376598 203.446576 c 113.377086 
206.386776 112.747950 209.607088 113.639614 212.581776 c 114.085446 
214.069112 114.919838 215.457752 116.115686 216.448152 c 117.311534 
217.438552 118.879502 218.006544 120.427038 217.879720 c 121.943038 
217.755488 123.370262 216.971408 124.389670 215.842472 c 125.409086 
214.713536 126.034598 213.259960 126.288926 211.760288 c 126.797582 
208.760944 125.869622 205.705408 124.683126 202.904160 c 123.292630 
199.621280 121.530446 196.496008 119.441054 193.607208 c f


 
%AI3_Note: path4512-5
 1.000000 0.956863 0.890196 Xa 88.140654 165.548696 m 85.130174 
163.393896 81.799606 161.687088 78.292310 160.501728 c 75.350350 
159.507440 72.128926 158.884032 69.155830 159.780968 c 67.669286 
160.229440 66.282134 161.066296 65.293854 162.263896 c 64.305574 
163.461496 63.740382 165.030472 63.869942 166.577776 c 63.996870 
168.093560 64.783486 169.519384 65.914222 170.536792 c 67.044974 
171.554192 68.499654 172.177128 69.999774 172.428792 c 73.000022 
172.932120 76.053894 171.998736 78.853038 170.807264 c 82.133430 
169.410952 85.255574 167.643216 88.140654 165.548696 c f


 
%AI3_Note: path4512-5-1
 1.000000 0.956863 0.890196 Xa 148.135062 161.669168 m 151.145550 
163.823968 154.476110 165.530776 157.983406 166.716136 c 160.925374 
167.710424 164.146798 168.333840 167.119894 167.436896 c 168.606438 
166.988424 169.993590 166.151568 170.981870 164.953968 c 171.970150 
163.756368 172.535342 162.187392 172.405782 160.640088 c 172.278854 
159.124304 171.492238 157.698480 170.361494 156.681080 c 169.230750 
155.663672 167.776062 155.040736 166.275942 154.789080 c 163.275702 
154.285752 160.221822 155.219136 157.422686 156.410600 c 154.142286 
157.806920 151.020142 159.574648 148.135062 161.669168 c f


 
%AI3_Note: path4512-1
 1.000000 0.956863 0.890196 Xa 115.889142 135.795640 m 118.049286 
132.788984 119.762006 129.461464 120.953582 125.956280 c 121.953102 
123.016088 122.582230 119.795768 121.690574 116.821088 c 121.244742 
115.333752 120.410350 113.945112 119.214510 112.954704 c 118.018662 
111.964296 116.450694 111.396320 114.903158 111.523128 c 113.387158 
111.647360 111.959934 112.431448 110.940518 113.560376 c 109.921110 
114.689320 109.295590 116.142896 109.041262 117.642568 c 108.532606 
120.641920 109.460566 123.697448 110.647070 126.498704 c 112.037558 
129.781576 113.799742 132.906848 115.889142 135.795640 c f


 
%AI3_Note: path4512-52
 1.000000 0.956863 0.890196 Xa 98.528974 186.013040 m 94.875494 
186.611608 91.311494 187.753448 87.990382 189.389416 c 85.204590 
190.761680 82.482614 192.593920 81.009694 195.327840 c 80.273238 
196.694800 79.881326 198.266712 80.026598 199.812624 c 80.171870 
201.358536 80.878958 202.868888 82.062902 203.873488 c 83.222726 
204.857616 84.786358 205.312384 86.305462 205.234944 c 87.824582 
205.157504 89.294718 204.571968 90.534982 203.691376 c 93.015518 
201.930192 94.519942 199.113440 95.661742 196.293672 c 96.999862 
192.989112 97.963718 189.533160 98.528974 186.013040 c f


 
%AI3_Note: path4512-5-6
 1.000000 0.956863 0.890196 Xa 96.807606 144.419296 m 96.202550 
140.766888 95.054390 137.204928 93.412526 133.886720 c 92.035310 
131.103368 90.198238 128.384656 87.461710 126.916600 c 86.093446 
126.182568 84.520838 125.793448 82.975182 125.941464 c 81.429534 
126.089472 79.920446 126.799256 78.917950 127.984984 c 77.935878 
129.146552 77.483886 130.710984 77.564038 132.229952 c 77.644174 
133.748928 78.232318 135.218024 79.115110 136.456720 c 80.880694 
138.934120 83.700110 140.433536 86.521902 141.570328 c 89.828838 
142.902576 93.286494 143.860288 96.807606 144.419296 c f


 
%AI3_Note: path4512-5-6-4
 1.000000 0.956863 0.890196 Xa 135.405646 142.129792 m 139.058046 
141.524736 142.620006 140.376568 145.938206 138.734712 c 148.721566 
137.357496 151.440278 135.520416 152.908342 132.783888 c 153.642374 
131.415632 154.031486 129.843016 153.883478 128.297368 c 153.735462 
126.751720 153.025686 125.242624 151.839958 124.240128 c 150.678390 
123.258064 149.113958 122.806072 147.594982 122.886216 c 146.076014 
122.966360 144.606918 123.554496 143.368214 124.437296 c 140.890814 
126.202872 139.391406 129.022304 138.254606 131.844088 c 136.922366 
135.151024 135.964654 138.608688 135.405646 142.129792 c f


 
%AI3_Note: path4512-5-1-3
 1.000000 0.956863 0.890196 Xa 139.636838 183.407112 m 140.241894 
187.059520 141.390062 190.621480 143.031926 193.939680 c 144.409142 
196.723032 146.246214 199.441744 148.982742 200.909808 c 150.351006 
201.643832 151.923614 202.032952 153.469262 201.884944 c 155.014910 
201.736928 156.523998 201.027152 157.526494 199.841424 c 158.508566 
198.679856 158.960558 197.115424 158.880414 195.596456 c 158.800270 
194.077480 158.212134 192.608384 157.329342 191.369688 c 155.563758 
188.892280 152.744334 187.392864 149.922550 186.256072 c 146.615606 
184.923832 143.157950 183.966120 139.636838 183.407112 c f


 
%AI3_Note: path4689
 0.572549 0.721569 0.000000 Xa 344.797734 271.984816 m 341.878934 
286.600280 345.901582 302.448040 355.437630 313.902080 c 361.855318 
321.610560 370.481070 327.247128 379.637366 331.342208 c 388.793654 
335.437288 398.523158 338.076744 408.235518 340.582224 c 417.469670 
342.964352 426.731182 345.240424 436.017614 347.409832 c 434.012062 
330.067112 424.859790 313.660176 411.156734 302.842664 c 396.305726 
291.118936 377.348262 286.309512 359.874774 279.051720 c 354.747294 
276.921968 349.714934 274.563200 344.797734 271.984816 c f


LB
%AI5_EndLayer


%%Trailer
showpage
count op_count sub {pop} repeat
countdictstack dict_count sub {end} repeat
tzung_eps_state restore
end
%%EOF

